CA_proj/CA_proj.sim/sim_1/behav/xsim/simulate.log
Vivado Simulator 2020.1
Time resolution is 1 ps
[0] REG MONITOR: x12=0000000000000000 x13=0000000000000000 x16=0000000000000000 x17=0000000000000000 x18=0000000000000000 x19=0000000000000000 x20=0000000000000000
[5000] ALU OP: 0010, A=xxxxxxxxxxxxxxxx, B=xxxxxxxxxxxxxxxx, Result=xxxxxxxxxxxxxxxx
[10000] REG MONITOR: x12=0000000000000000 x13=0000000000000000 x16=0000000000000000 x17=0000000000000000 x18=0000000000000000 x19=0000000000000000 x20=0000000000000000
[15000] ALU OP: 0010, A=0000000000000000, B=0000000000000009, Result=0000000000000009
[20000] REG MONITOR: x12=0000000000000000 x13=0000000000000000 x16=0000000000000000 x17=0000000000000000 x18=0000000000000000 x19=0000000000000000 x20=0000000000000000
[30000] REG MONITOR: x12=0000000000000000 x13=0000000000000000 x16=0000000000000000 x17=0000000000000000 x18=0000000000000000 x19=0000000000000000 x20=0000000000000000
[35000] ALU OP: 0010, A=0000000000000000, B=0000000000000002, Result=0000000000000002
[40000] REG MONITOR: x12=0000000000000000 x13=0000000000000000 x16=0000000000000000 x17=0000000000000000 x18=0000000000000000 x19=0000000000000000 x20=0000000000000000
[45000] ALU OP: 0010, A=0000000000000000, B=0000000000000007, Result=0000000000000007
[50000] REG MONITOR: x12=0000000000000000 x13=0000000000000000 x16=0000000000000000 x17=0000000000000000 x18=0000000000000000 x19=0000000000000000 x20=0000000000000000
[55000] ALU OP: 0010, A=0000000000000000, B=0000000000000001, Result=0000000000000001
[60000] REG MONITOR: x12=0000000000000000 x13=0000000000000000 x16=0000000000000000 x17=0000000000000000 x18=0000000000000000 x19=0000000000000000 x20=0000000000000000
[65000] ALU OP: 0010, A=0000000000000000, B=0000000000000008, Result=0000000000000008
[70000] REG MONITOR: x12=0000000000000000 x13=0000000000000000 x16=0000000000000000 x17=0000000000000000 x18=0000000000000000 x19=0000000000000000 x20=0000000000000000
[75000] ALU OP: 0010, A=0000000000000000, B=0000000000000004, Result=0000000000000004
[80000] REG MONITOR: x12=0000000000000000 x13=0000000000000000 x16=0000000000000000 x17=0000000000000000 x18=0000000000000000 x19=0000000000000000 x20=0000000000000000
[85000] ALU OP: 0010, A=0000000000000000, B=0000000000000006, Result=0000000000000006
[90000] REG MONITOR: x12=0000000000000000 x13=0000000000000000 x16=0000000000000000 x17=0000000000000000 x18=0000000000000000 x19=0000000000000000 x20=0000000000000000
[95000] ALU OP: 0010, A=0000000000000000, B=0000000000000100, Result=0000000000000100
[100000] REG MONITOR: x12=0000000000000000 x13=0000000000000000 x16=0000000000000000 x17=0000000000000000 x18=0000000000000000 x19=0000000000000000 x20=0000000000000000
[105000] ALU OP: 0010, A=0000000000000000, B=0000000000000104, Result=0000000000000104
[110000] REG MONITOR: x12=0000000000000000 x13=0000000000000000 x16=0000000000000000 x17=0000000000000000 x18=0000000000000000 x19=0000000000000000 x20=0000000000000000
[115000] ALU OP: 0010, A=0000000000000000, B=0000000000000108, Result=0000000000000108
[120000] REG MONITOR: x12=0000000000000000 x13=0000000000000000 x16=0000000000000000 x17=0000000000000000 x18=0000000000000000 x19=0000000000000000 x20=0000000000000000
[125000] ALU OP: 0010, A=0000000000000000, B=000000000000010c, Result=000000000000010c
[130000] REG MONITOR: x12=0000000000000000 x13=0000000000000000 x16=0000000000000000 x17=0000000000000000 x18=0000000000000000 x19=0000000000000000 x20=0000000000000000
[135000] ALU OP: 0010, A=0000000000000000, B=0000000000000110, Result=0000000000000110
[140000] REG MONITOR: x12=0000000000000000 x13=0000000000000000 x16=0000000000000000 x17=0000000000000000 x18=0000000000000000 x19=0000000000000000 x20=0000000000000000
[145000] ALU OP: 0010, A=0000000000000000, B=0000000000000114, Result=0000000000000114
[150000] REG MONITOR: x12=0000000000000000 x13=0000000000000000 x16=0000000000000000 x17=0000000000000000 x18=0000000000000000 x19=0000000000000000 x20=0000000000000000
[155000] ALU OP: 0010, A=0000000000000000, B=0000000000000118, Result=0000000000000118
[160000] REG MONITOR: x12=0000000000000000 x13=0000000000000000 x16=0000000000000000 x17=0000000000000000 x18=0000000000000000 x19=0000000000000000 x20=0000000000000000
[165000] ALU OP: 0010, A=0000000000000000, B=0000000000000100, Result=0000000000000100
[170000] REG MONITOR: x12=0000000000000000 x13=0000000000000000 x16=0000000000000000 x17=0000000000000000 x18=0000000000000000 x19=0000000000000000 x20=0000000000000000
[175000] ALU OP: 0010, A=0000000000000000, B=0000000000000007, Result=0000000000000007
[180000] REG MONITOR: x12=0000000000000000 x13=0000000000000000 x16=0000000000000000 x17=0000000000000000 x18=0000000000000000 x19=0000000000000000 x20=0000000000000000
[185000] ALU OP: 0010, A=0000000000000000, B=0000000000000000, Result=0000000000000000
[190000] REG MONITOR: x12=0000000000000000 x13=0000000000000000 x16=0000000000000000 x17=0000000000000000 x18=0000000000000000 x19=0000000000000000 x20=0000000000000000
[200000] REG MONITOR: x12=0000000000000000 x13=0000000000000000 x16=0000000000000000 x17=0000000000000000 x18=0000000000000000 x19=0000000000000000 x20=0000000000000000
[205000] ALU OP: 0010, A=0000000000000007, B=ffffffffffffffff, Result=0000000000000006
[210000] REG MONITOR: x12=0000000000000000 x13=0000000000000000 x16=0000000000000000 x17=0000000000000000 x18=0000000000000000 x19=0000000000000000 x20=0000000000000000
[215000] ALU OP: 0011, A=0000000000000007, B=ffffffffffffffff, Result=0000000000000008
[215000] ALU OP: 0011, A=0000000000000000, B=0000000000000000, Result=0000000000000000
[215000] ALU OP: 0011, A=0000000000000000, B=0000000000000006, Result=fffffffffffffffa
[220000] REG MONITOR: x12=0000000000000000 x13=0000000000000000 x16=0000000000000000 x17=0000000000000000 x18=0000000000000000 x19=0000000000000000 x20=0000000000000000
[225000] ALU OP: 0010, A=0000000000000000, B=0000000000000006, Result=0000000000000006
[225000] ALU OP: 0010, A=0000000000000007, B=ffffffffffffffff, Result=0000000000000006
[230000] REG MONITOR: x12=0000000000000000 x13=0000000000000000 x16=0000000000000000 x17=0000000000000000 x18=0000000000000000 x19=0000000000000000 x20=0000000000000000
[235000] ALU OP: 0011, A=0000000000000007, B=ffffffffffffffff, Result=0000000000000008
[235000] ALU OP: 0011, A=0000000000000006, B=0000000000000000, Result=0000000000000006
[240000] REG MONITOR: x12=0000000000000000 x13=0000000000000000 x16=0000000000000000 x17=0000000000000000 x18=0000000000000000 x19=0000000000000000 x20=0000000000000000
[245000] ALU OP: 0011, A=0000000000000000, B=0000000000000000, Result=0000000000000000
[245000] ALU OP: 0011, A=0000000000000000, B=0000000000000006, Result=fffffffffffffffa
[250000] REG MONITOR: x12=0000000000000000 x13=0000000000000000 x16=0000000000000000 x17=0000000000000000 x18=0000000000000000 x19=0000000000000000 x20=0000000000000000
[255000] ALU OP: 0101, A=0000000000000000, B=0000000000000006, Result=0000000000000000
[255000] ALU OP: 0101, A=0000000000000000, B=0000000000000002, Result=0000000000000000
[260000] REG MONITOR: x12=0000000000000000 x13=0000000000000000 x16=0000000000000000 x17=0000000000000000 x18=0000000000000000 x19=0000000000000000 x20=0000000000000000
[265000] ALU OP: 0010, A=0000000000000000, B=0000000000000002, Result=0000000000000002
[265000] ALU OP: 0010, A=0000000000000100, B=0000000000000002, Result=0000000000000102
[265000] ALU OP: 0010, A=0000000000000100, B=0000000000000000, Result=0000000000000100
[270000] REG MONITOR: x12=0000000000000000 x13=0000000000000000 x16=0000000000000000 x17=0000000000000000 x18=0000000000000000 x19=0000000000000000 x20=0000000000000000
[275000] ALU OP: 0010, A=0000000000000100, B=0000000000000004, Result=0000000000000104
[280000] REG MONITOR: x12=0000000000000000 x13=0000000000000000 x16=0000000000000000 x17=0000000000000000 x18=0000000000000000 x19=0000000000000000 x20=0000000000000000
[285000] ALU OP: 0010, A=0000000000000100, B=0000000000000000, Result=0000000000000100
[290000] REG MONITOR: x12=0000000000000000 x13=0000000000000000 x16=0000000000000000 x17=0000000000000000 x18=0000000000000000 x19=0000000000000000 x20=0000000000000000
[290000] ALU OP: 0010, A=0000000000000000, B=0000000000000000, Result=0000000000000000
[295000] ALU OP: 0010, A=0000000000000104, B=0000000000000000, Result=0000000000000104
[300000] REG MONITOR: x12=0000000000000000 x13=0000000000000000 x16=0000000000000000 x17=0000000000000100 x18=0000000000000000 x19=0000000000000000 x20=0000000000000000
[300000] ALU OP: 0010, A=0000000000000000, B=0000000000000000, Result=0000000000000000
[310000] REG MONITOR: x12=0000000000000000 x13=0000000000000000 x16=0000000000000000 x17=0000000000000100 x18=0000000000000104 x19=0000000000000000 x20=0000000000000000
[315000] ALU OP: 0011, A=0000000000000000, B=0000000000000000, Result=0000000000000000
[320000] REG MONITOR: x12=0000000000000000 x13=0000000000000000 x16=0000000000000000 x17=0000000000000100 x18=0000000000000104 x19=0000000000000000 x20=0000000000000000
[325000] ALU OP: 0010, A=0000000000000000, B=0000000000000000, Result=0000000000000000
[325000] ALU OP: 0010, A=0000000000000000, B=0000000000000001, Result=0000000000000001
[330000] REG MONITOR: x12=0000000000000000 x13=0000000000000000 x16=0000000000000000 x17=0000000000000100 x18=0000000000000104 x19=0000000000000000 x20=0000000000000000
[335000] ALU OP: 0011, A=0000000000000000, B=0000000000000001, Result=ffffffffffffffff
[335000] ALU OP: 0011, A=0000000000000000, B=0000000000000009, Result=fffffffffffffff7
[335000] ALU OP: 0011, A=0000000000000000, B=0000000000000000, Result=0000000000000000
[340000] REG MONITOR: x12=0000000000000000 x13=0000000000000000 x16=0000000000000000 x17=0000000000000100 x18=0000000000000104 x19=0000000000000000 x20=0000000000000000
[345000] ALU OP: 0010, A=0000000000000000, B=0000000000000000, Result=0000000000000000
[345000] ALU OP: 0010, A=0000000000000100, B=0000000000000000, Result=0000000000000100
[350000] REG MONITOR: x12=0000000000000000 x13=0000000000000000 x16=0000000000000000 x17=0000000000000100 x18=0000000000000104 x19=0000000000000000 x20=0000000000000000
[355000] ALU OP: 0010, A=0000000000000000, B=0000000000000000, Result=0000000000000000
[360000] REG MONITOR: x12=0000000000000000 x13=0000000000000001 x16=0000000000000000 x17=0000000000000100 x18=0000000000000104 x19=0000000000000000 x20=0000000000000000
[370000] REG MONITOR: x12=0000000000000000 x13=0000000000000001 x16=0000000000000000 x17=0000000000000100 x18=0000000000000104 x19=0000000000000000 x20=0000000000000000
[375000] ALU OP: 0011, A=0000000000000000, B=0000000000000000, Result=0000000000000000
[375000] ALU OP: 0011, A=0000000000000006, B=0000000000000000, Result=0000000000000006
[380000] REG MONITOR: x12=0000000000000000 x13=0000000000000001 x16=0000000000000000 x17=0000000000000100 x18=0000000000000104 x19=0000000000000000 x20=0000000000000000
[385000] ALU OP: 0011, A=0000000000000001, B=0000000000000000, Result=0000000000000001
[385000] ALU OP: 0011, A=0000000000000001, B=0000000000000006, Result=fffffffffffffffb
[390000] REG MONITOR: x12=0000000000000000 x13=0000000000000001 x16=0000000000000000 x17=0000000000000100 x18=0000000000000104 x19=0000000000000000 x20=0000000000000000
[395000] ALU OP: 0101, A=0000000000000001, B=0000000000000006, Result=0000000000000040
[395000] ALU OP: 0101, A=0000000000000001, B=0000000000000002, Result=0000000000000004
[400000] REG MONITOR: x12=0000000000000000 x13=0000000000000001 x16=0000000000000000 x17=0000000000000100 x18=0000000000000104 x19=0000000000000000 x20=0000000000000000
[405000] ALU OP: 0010, A=0000000000000001, B=0000000000000002, Result=0000000000000003
[405000] ALU OP: 0010, A=0000000000000100, B=0000000000000002, Result=0000000000000102
[405000] ALU OP: 0010, A=0000000000000100, B=0000000000000004, Result=0000000000000104
[410000] REG MONITOR: x12=0000000000000000 x13=0000000000000001 x16=0000000000000000 x17=0000000000000100 x18=0000000000000104 x19=0000000000000000 x20=0000000000000000
[415000] ALU OP: 0010, A=0000000000000104, B=0000000000000004, Result=0000000000000108
[420000] REG MONITOR: x12=0000000000000000 x13=0000000000000001 x16=0000000000000000 x17=0000000000000100 x18=0000000000000104 x19=0000000000000000 x20=0000000000000000
[425000] ALU OP: 0010, A=0000000000000104, B=0000000000000000, Result=0000000000000104
[430000] REG MONITOR: x12=0000000000000000 x13=0000000000000001 x16=0000000000000004 x17=0000000000000100 x18=0000000000000104 x19=0000000000000000 x20=0000000000000000
[430000] ALU OP: 0010, A=0000000000000100, B=0000000000000000, Result=0000000000000100
[435000] ALU OP: 0010, A=0000000000000108, B=0000000000000000, Result=0000000000000108
[440000] REG MONITOR: x12=0000000000000000 x13=0000000000000001 x16=0000000000000004 x17=0000000000000104 x18=0000000000000104 x19=0000000000000000 x20=0000000000000000
[440000] ALU OP: 0010, A=0000000000000104, B=0000000000000000, Result=0000000000000104
[445000] ALU OP: 0010, A=0000000000000000, B=0000000000000000, Result=0000000000000000
[450000] REG MONITOR: x12=0000000000000000 x13=0000000000000001 x16=0000000000000004 x17=0000000000000104 x18=0000000000000108 x19=0000000000000000 x20=0000000000000000
[455000] ALU OP: 0011, A=0000000000000000, B=0000000000000000, Result=0000000000000000
[455000] ALU OP: 0011, A=0000000000000002, B=0000000000000000, Result=0000000000000002
[455000] ALU OP: 0011, A=0000000000000002, B=0000000000000009, Result=fffffffffffffff9
[460000] REG MONITOR: x12=0000000000000000 x13=0000000000000001 x16=0000000000000004 x17=0000000000000104 x18=0000000000000108 x19=0000000000000009 x20=0000000000000000
[460000] ALU OP: 0011, A=0000000000000000, B=0000000000000009, Result=fffffffffffffff7
[465000] ALU OP: 0010, A=0000000000000000, B=0000000000000009, Result=0000000000000009
[465000] ALU OP: 0010, A=0000000000000001, B=0000000000000001, Result=0000000000000002
[470000] REG MONITOR: x12=0000000000000000 x13=0000000000000001 x16=0000000000000004 x17=0000000000000104 x18=0000000000000108 x19=0000000000000009 x20=0000000000000002
[475000] ALU OP: 0010, A=0000000000000000, B=0000000000000009, Result=0000000000000009
[475000] ALU OP: 0010, A=0000000000000000, B=0000000000000000, Result=0000000000000000
[480000] REG MONITOR: x12=0000000000000000 x13=0000000000000001 x16=0000000000000004 x17=0000000000000104 x18=0000000000000108 x19=0000000000000009 x20=0000000000000002
[490000] REG MONITOR: x12=0000000000000000 x13=0000000000000001 x16=0000000000000004 x17=0000000000000104 x18=0000000000000108 x19=0000000000000009 x20=0000000000000002
[495000] ALU OP: 0010, A=0000000000000104, B=0000000000000000, Result=0000000000000104
[500000] REG MONITOR: x12=0000000000000000 x13=0000000000000001 x16=0000000000000004 x17=0000000000000104 x18=0000000000000108 x19=0000000000000009 x20=0000000000000002
[505000] ALU OP: 0010, A=0000000000000108, B=0000000000000000, Result=0000000000000108
[510000] REG MONITOR: x12=0000000000000000 x13=0000000000000001 x16=0000000000000004 x17=0000000000000104 x18=0000000000000108 x19=0000000000000009 x20=0000000000000002
[515000] ALU OP: 0011, A=0000000000000108, B=0000000000000000, Result=0000000000000108
[515000] ALU OP: 0011, A=0000000000000000, B=0000000000000009, Result=fffffffffffffff7
[515000] ALU OP: 0011, A=0000000000000000, B=0000000000000000, Result=0000000000000000
[520000] REG MONITOR: x12=0000000000000000 x13=0000000000000001 x16=0000000000000004 x17=0000000000000104 x18=0000000000000108 x19=0000000000000009 x20=0000000000000002
[525000] ALU OP: 0010, A=0000000000000000, B=0000000000000000, Result=0000000000000000
[525000] ALU OP: 0010, A=0000000000000000, B=0000000000000001, Result=0000000000000001
[530000] REG MONITOR: x12=0000000000000000 x13=0000000000000001 x16=0000000000000004 x17=0000000000000104 x18=0000000000000108 x19=0000000000000009 x20=0000000000000002
[535000] ALU OP: 0010, A=0000000000000000, B=0000000000000009, Result=0000000000000009
[535000] ALU OP: 0010, A=0000000000000000, B=0000000000000000, Result=0000000000000000
[540000] REG MONITOR: x12=0000000000000000 x13=0000000000000001 x16=0000000000000004 x17=0000000000000104 x18=0000000000000108 x19=0000000000000009 x20=0000000000000002
[550000] REG MONITOR: x12=0000000000000000 x13=0000000000000001 x16=0000000000000004 x17=0000000000000104 x18=0000000000000108 x19=0000000000000009 x20=0000000000000002
[555000] ALU OP: 0010, A=0000000000000001, B=0000000000000001, Result=0000000000000002
[560000] REG MONITOR: x12=0000000000000000 x13=0000000000000001 x16=0000000000000004 x17=0000000000000104 x18=0000000000000108 x19=0000000000000009 x20=0000000000000002
[565000] ALU OP: 0011, A=0000000000000001, B=0000000000000001, Result=0000000000000000
[565000] ALU OP: 0011, A=0000000000000000, B=0000000000000009, Result=fffffffffffffff7
[565000] ALU OP: 0011, A=0000000000000000, B=0000000000000000, Result=0000000000000000
[570000] REG MONITOR: x12=0000000000000000 x13=0000000000000001 x16=0000000000000004 x17=0000000000000104 x18=0000000000000108 x19=0000000000000009 x20=0000000000000002
[575000] ALU OP: 0010, A=0000000000000000, B=0000000000000000, Result=0000000000000000
[575000] ALU OP: 0010, A=0000000000000104, B=0000000000000000, Result=0000000000000104
[580000] REG MONITOR: x12=0000000000000000 x13=0000000000000001 x16=0000000000000004 x17=0000000000000104 x18=0000000000000108 x19=0000000000000009 x20=0000000000000002
[585000] ALU OP: 0010, A=0000000000000000, B=0000000000000002, Result=0000000000000002
[585000] ALU OP: 0010, A=0000000000000000, B=0000000000000000, Result=0000000000000000
[590000] REG MONITOR: x12=0000000000000000 x13=0000000000000002 x16=0000000000000004 x17=0000000000000104 x18=0000000000000108 x19=0000000000000009 x20=0000000000000002
[600000] REG MONITOR: x12=0000000000000000 x13=0000000000000002 x16=0000000000000004 x17=0000000000000104 x18=0000000000000108 x19=0000000000000009 x20=0000000000000002
[605000] ALU OP: 0011, A=0000000000000000, B=0000000000000000, Result=0000000000000000
[605000] ALU OP: 0011, A=0000000000000006, B=0000000000000000, Result=0000000000000006
[610000] REG MONITOR: x12=0000000000000000 x13=0000000000000002 x16=0000000000000004 x17=0000000000000104 x18=0000000000000108 x19=0000000000000009 x20=0000000000000002
[615000] ALU OP: 0011, A=0000000000000002, B=0000000000000000, Result=0000000000000002
[615000] ALU OP: 0011, A=0000000000000002, B=0000000000000006, Result=fffffffffffffffc
[620000] REG MONITOR: x12=0000000000000000 x13=0000000000000002 x16=0000000000000004 x17=0000000000000104 x18=0000000000000108 x19=0000000000000009 x20=0000000000000002
[625000] ALU OP: 0101, A=0000000000000002, B=0000000000000006, Result=0000000000000080
[625000] ALU OP: 0101, A=0000000000000002, B=0000000000000002, Result=0000000000000008
[630000] REG MONITOR: x12=0000000000000000 x13=0000000000000002 x16=0000000000000004 x17=0000000000000104 x18=0000000000000108 x19=0000000000000009 x20=0000000000000002
[635000] ALU OP: 0010, A=0000000000000002, B=0000000000000002, Result=0000000000000004
[635000] ALU OP: 0010, A=0000000000000100, B=0000000000000002, Result=0000000000000102
[635000] ALU OP: 0010, A=0000000000000100, B=0000000000000008, Result=0000000000000108
[640000] REG MONITOR: x12=0000000000000000 x13=0000000000000002 x16=0000000000000004 x17=0000000000000104 x18=0000000000000108 x19=0000000000000009 x20=0000000000000002
[645000] ALU OP: 0010, A=0000000000000108, B=0000000000000004, Result=000000000000010c
[650000] REG MONITOR: x12=0000000000000000 x13=0000000000000002 x16=0000000000000004 x17=0000000000000104 x18=0000000000000108 x19=0000000000000009 x20=0000000000000002
[655000] ALU OP: 0010, A=0000000000000108, B=0000000000000000, Result=0000000000000108
[660000] REG MONITOR: x12=0000000000000000 x13=0000000000000002 x16=0000000000000008 x17=0000000000000104 x18=0000000000000108 x19=0000000000000009 x20=0000000000000002
[660000] ALU OP: 0010, A=0000000000000104, B=0000000000000000, Result=0000000000000104
[665000] ALU OP: 0010, A=000000000000010c, B=0000000000000000, Result=000000000000010c
[670000] REG MONITOR: x12=0000000000000000 x13=0000000000000002 x16=0000000000000008 x17=0000000000000108 x18=0000000000000108 x19=0000000000000009 x20=0000000000000002
[670000] ALU OP: 0010, A=0000000000000108, B=0000000000000000, Result=0000000000000108
[675000] ALU OP: 0010, A=0000000000000000, B=0000000000000000, Result=0000000000000000
[680000] REG MONITOR: x12=0000000000000000 x13=0000000000000002 x16=0000000000000008 x17=0000000000000108 x18=000000000000010c x19=0000000000000009 x20=0000000000000002
[685000] ALU OP: 0011, A=0000000000000000, B=0000000000000000, Result=0000000000000000
[685000] ALU OP: 0011, A=0000000000000009, B=0000000000000000, Result=0000000000000009
[685000] ALU OP: 0011, A=0000000000000009, B=0000000000000002, Result=0000000000000007
[690000] REG MONITOR: x12=0000000000000000 x13=0000000000000002 x16=0000000000000008 x17=0000000000000108 x18=000000000000010c x19=0000000000000002 x20=0000000000000002
[690000] ALU OP: 0011, A=0000000000000002, B=0000000000000002, Result=0000000000000000
[695000] ALU OP: 0010, A=0000000000000002, B=0000000000000002, Result=0000000000000004
[695000] ALU OP: 0010, A=0000000000000002, B=0000000000000001, Result=0000000000000003
[700000] REG MONITOR: x12=0000000000000000 x13=0000000000000002 x16=0000000000000008 x17=0000000000000108 x18=000000000000010c x19=0000000000000002 x20=0000000000000009
[705000] ALU OP: 0011, A=0000000000000002, B=0000000000000001, Result=0000000000000001
[705000] ALU OP: 0011, A=0000000000000000, B=0000000000000009, Result=fffffffffffffff7
[705000] ALU OP: 0011, A=0000000000000000, B=0000000000000000, Result=0000000000000000
[710000] REG MONITOR: x12=0000000000000000 x13=0000000000000002 x16=0000000000000008 x17=0000000000000108 x18=000000000000010c x19=0000000000000002 x20=0000000000000009
[715000] ALU OP: 0010, A=0000000000000000, B=0000000000000000, Result=0000000000000000
[715000] ALU OP: 0010, A=0000000000000108, B=0000000000000000, Result=0000000000000108
[720000] REG MONITOR: x12=0000000000000000 x13=0000000000000002 x16=0000000000000008 x17=0000000000000108 x18=000000000000010c x19=0000000000000002 x20=0000000000000009
[725000] ALU OP: 0010, A=0000000000000000, B=0000000000000009, Result=0000000000000009
[725000] ALU OP: 0010, A=0000000000000000, B=0000000000000000, Result=0000000000000000
[730000] REG MONITOR: x12=0000000000000000 x13=0000000000000003 x16=0000000000000008 x17=0000000000000108 x18=000000000000010c x19=0000000000000002 x20=0000000000000009
[740000] REG MONITOR: x12=0000000000000000 x13=0000000000000003 x16=0000000000000008 x17=0000000000000108 x18=000000000000010c x19=0000000000000002 x20=0000000000000009
[745000] ALU OP: 0011, A=0000000000000000, B=0000000000000000, Result=0000000000000000
[745000] ALU OP: 0011, A=0000000000000006, B=0000000000000000, Result=0000000000000006
[750000] REG MONITOR: x12=0000000000000000 x13=0000000000000003 x16=0000000000000008 x17=0000000000000108 x18=000000000000010c x19=0000000000000002 x20=0000000000000009
[755000] ALU OP: 0011, A=0000000000000003, B=0000000000000000, Result=0000000000000003
[755000] ALU OP: 0011, A=0000000000000003, B=0000000000000006, Result=fffffffffffffffd
[760000] REG MONITOR: x12=0000000000000000 x13=0000000000000003 x16=0000000000000008 x17=0000000000000108 x18=000000000000010c x19=0000000000000002 x20=0000000000000009
[765000] ALU OP: 0101, A=0000000000000003, B=0000000000000006, Result=00000000000000c0
[765000] ALU OP: 0101, A=0000000000000003, B=0000000000000002, Result=000000000000000c
[770000] REG MONITOR: x12=0000000000000000 x13=0000000000000003 x16=0000000000000008 x17=0000000000000108 x18=000000000000010c x19=0000000000000002 x20=0000000000000009
[775000] ALU OP: 0010, A=0000000000000003, B=0000000000000002, Result=0000000000000005
[775000] ALU OP: 0010, A=0000000000000100, B=0000000000000002, Result=0000000000000102
[775000] ALU OP: 0010, A=0000000000000100, B=000000000000000c, Result=000000000000010c
[780000] REG MONITOR: x12=0000000000000000 x13=0000000000000003 x16=0000000000000008 x17=0000000000000108 x18=000000000000010c x19=0000000000000002 x20=0000000000000009
[785000] ALU OP: 0010, A=000000000000010c, B=0000000000000004, Result=0000000000000110
[790000] REG MONITOR: x12=0000000000000000 x13=0000000000000003 x16=0000000000000008 x17=0000000000000108 x18=000000000000010c x19=0000000000000002 x20=0000000000000009
[795000] ALU OP: 0010, A=000000000000010c, B=0000000000000000, Result=000000000000010c
[800000] REG MONITOR: x12=0000000000000000 x13=0000000000000003 x16=000000000000000c x17=0000000000000108 x18=000000000000010c x19=0000000000000002 x20=0000000000000009
[800000] ALU OP: 0010, A=0000000000000108, B=0000000000000000, Result=0000000000000108
[805000] ALU OP: 0010, A=0000000000000110, B=0000000000000000, Result=0000000000000110
[810000] REG MONITOR: x12=0000000000000000 x13=0000000000000003 x16=000000000000000c x17=000000000000010c x18=000000000000010c x19=0000000000000002 x20=0000000000000009
[810000] ALU OP: 0010, A=000000000000010c, B=0000000000000000, Result=000000000000010c
[815000] ALU OP: 0010, A=0000000000000000, B=0000000000000000, Result=0000000000000000
[820000] REG MONITOR: x12=0000000000000000 x13=0000000000000003 x16=000000000000000c x17=000000000000010c x18=0000000000000110 x19=0000000000000002 x20=0000000000000009
[825000] ALU OP: 0011, A=0000000000000000, B=0000000000000000, Result=0000000000000000
[825000] ALU OP: 0011, A=0000000000000001, B=0000000000000000, Result=0000000000000001
[825000] ALU OP: 0011, A=0000000000000001, B=0000000000000009, Result=fffffffffffffff8
[830000] REG MONITOR: x12=0000000000000000 x13=0000000000000003 x16=000000000000000c x17=000000000000010c x18=0000000000000110 x19=0000000000000009 x20=0000000000000009
[830000] ALU OP: 0011, A=0000000000000009, B=0000000000000009, Result=0000000000000000
[835000] ALU OP: 0010, A=0000000000000009, B=0000000000000009, Result=0000000000000012
[835000] ALU OP: 0010, A=0000000000000003, B=0000000000000001, Result=0000000000000004
[840000] REG MONITOR: x12=0000000000000000 x13=0000000000000003 x16=000000000000000c x17=000000000000010c x18=0000000000000110 x19=0000000000000009 x20=0000000000000001
[845000] ALU OP: 0011, A=0000000000000003, B=0000000000000001, Result=0000000000000002
[845000] ALU OP: 0011, A=0000000000000000, B=0000000000000009, Result=fffffffffffffff7
[845000] ALU OP: 0011, A=0000000000000000, B=0000000000000000, Result=0000000000000000
[850000] REG MONITOR: x12=0000000000000000 x13=0000000000000003 x16=000000000000000c x17=000000000000010c x18=0000000000000110 x19=0000000000000009 x20=0000000000000001
[855000] ALU OP: 0010, A=0000000000000000, B=0000000000000000, Result=0000000000000000
[855000] ALU OP: 0010, A=000000000000010c, B=0000000000000000, Result=000000000000010c
[860000] REG MONITOR: x12=0000000000000000 x13=0000000000000003 x16=000000000000000c x17=000000000000010c x18=0000000000000110 x19=0000000000000009 x20=0000000000000001
[865000] ALU OP: 0010, A=0000000000000000, B=0000000000000001, Result=0000000000000001
[865000] ALU OP: 0010, A=0000000000000000, B=0000000000000000, Result=0000000000000000
[870000] REG MONITOR: x12=0000000000000000 x13=0000000000000004 x16=000000000000000c x17=000000000000010c x18=0000000000000110 x19=0000000000000009 x20=0000000000000001
[880000] REG MONITOR: x12=0000000000000000 x13=0000000000000004 x16=000000000000000c x17=000000000000010c x18=0000000000000110 x19=0000000000000009 x20=0000000000000001
[885000] ALU OP: 0011, A=0000000000000000, B=0000000000000000, Result=0000000000000000
[885000] ALU OP: 0011, A=0000000000000006, B=0000000000000000, Result=0000000000000006
[890000] REG MONITOR: x12=0000000000000000 x13=0000000000000004 x16=000000000000000c x17=000000000000010c x18=0000000000000110 x19=0000000000000009 x20=0000000000000001
[895000] ALU OP: 0011, A=0000000000000004, B=0000000000000000, Result=0000000000000004
[895000] ALU OP: 0011, A=0000000000000004, B=0000000000000006, Result=fffffffffffffffe
[900000] REG MONITOR: x12=0000000000000000 x13=0000000000000004 x16=000000000000000c x17=000000000000010c x18=0000000000000110 x19=0000000000000009 x20=0000000000000001
[905000] ALU OP: 0101, A=0000000000000004, B=0000000000000006, Result=0000000000000100
[905000] ALU OP: 0101, A=0000000000000004, B=0000000000000002, Result=0000000000000010
[910000] REG MONITOR: x12=0000000000000000 x13=0000000000000004 x16=000000000000000c x17=000000000000010c x18=0000000000000110 x19=0000000000000009 x20=0000000000000001
[915000] ALU OP: 0010, A=0000000000000004, B=0000000000000002, Result=0000000000000006
[915000] ALU OP: 0010, A=0000000000000100, B=0000000000000002, Result=0000000000000102
[915000] ALU OP: 0010, A=0000000000000100, B=0000000000000010, Result=0000000000000110
[920000] REG MONITOR: x12=0000000000000000 x13=0000000000000004 x16=000000000000000c x17=000000000000010c x18=0000000000000110 x19=0000000000000009 x20=0000000000000001
[925000] ALU OP: 0010, A=0000000000000110, B=0000000000000004, Result=0000000000000114
[930000] REG MONITOR: x12=0000000000000000 x13=0000000000000004 x16=000000000000000c x17=000000000000010c x18=0000000000000110 x19=0000000000000009 x20=0000000000000001
[935000] ALU OP: 0010, A=0000000000000110, B=0000000000000000, Result=0000000000000110
[940000] REG MONITOR: x12=0000000000000000 x13=0000000000000004 x16=0000000000000010 x17=000000000000010c x18=0000000000000110 x19=0000000000000009 x20=0000000000000001
[940000] ALU OP: 0010, A=000000000000010c, B=0000000000000000, Result=000000000000010c
[945000] ALU OP: 0010, A=0000000000000114, B=0000000000000000, Result=0000000000000114
[950000] REG MONITOR: x12=0000000000000000 x13=0000000000000004 x16=0000000000000010 x17=0000000000000110 x18=0000000000000110 x19=0000000000000009 x20=0000000000000001
[950000] ALU OP: 0010, A=0000000000000110, B=0000000000000000, Result=0000000000000110
[955000] ALU OP: 0010, A=0000000000000000, B=0000000000000000, Result=0000000000000000
[960000] REG MONITOR: x12=0000000000000000 x13=0000000000000004 x16=0000000000000010 x17=0000000000000110 x18=0000000000000114 x19=0000000000000009 x20=0000000000000001
[965000] ALU OP: 0011, A=0000000000000000, B=0000000000000000, Result=0000000000000000
[965000] ALU OP: 0011, A=0000000000000008, B=0000000000000000, Result=0000000000000008
[965000] ALU OP: 0011, A=0000000000000008, B=0000000000000001, Result=0000000000000007
[970000] REG MONITOR: x12=0000000000000000 x13=0000000000000004 x16=0000000000000010 x17=0000000000000110 x18=0000000000000114 x19=0000000000000001 x20=0000000000000001
[970000] ALU OP: 0011, A=0000000000000001, B=0000000000000001, Result=0000000000000000
[975000] ALU OP: 0010, A=0000000000000001, B=0000000000000001, Result=0000000000000002
