CA_proj/CA_proj.sim/sim_1/behav/xsim/simulate.log
Vivado Simulator 2020.1
Time resolution is 1 ps
[5000] REG MONITOR: x12=0000000000000000 x13=0000000000000000 x17=0000000000000000 x18=0000000000000000 x19=0000000000000000 x20=0000000000000000
[15000] REG MONITOR: x12=0000000000000000 x13=0000000000000000 x17=0000000000000000 x18=0000000000000000 x19=0000000000000000 x20=0000000000000000
[25000] REG MONITOR: x12=0000000000000000 x13=0000000000000000 x17=0000000000000000 x18=0000000000000000 x19=0000000000000000 x20=0000000000000000
[35000] REG MONITOR: x12=0000000000000000 x13=0000000000000000 x17=0000000000000000 x18=0000000000000000 x19=0000000000000000 x20=0000000000000000
[45000] REG MONITOR: x12=0000000000000000 x13=0000000000000000 x17=0000000000000000 x18=0000000000000000 x19=0000000000000000 x20=0000000000000000
[55000] REG MONITOR: x12=0000000000000000 x13=0000000000000000 x17=0000000000000000 x18=0000000000000000 x19=0000000000000000 x20=0000000000000000
[65000] REG MONITOR: x12=0000000000000000 x13=0000000000000000 x17=0000000000000000 x18=0000000000000000 x19=0000000000000000 x20=0000000000000000
[75000] REG MONITOR: x12=0000000000000000 x13=0000000000000000 x17=0000000000000000 x18=0000000000000000 x19=0000000000000000 x20=0000000000000000
[85000] REG MONITOR: x12=0000000000000000 x13=0000000000000000 x17=0000000000000000 x18=0000000000000000 x19=0000000000000000 x20=0000000000000000
[95000] REG MONITOR: x12=0000000000000000 x13=0000000000000000 x17=0000000000000000 x18=0000000000000000 x19=0000000000000000 x20=0000000000000000
[105000] REG MONITOR: x12=0000000000000000 x13=0000000000000000 x17=0000000000000000 x18=0000000000000000 x19=0000000000000000 x20=0000000000000000
[115000] REG MONITOR: x12=0000000000000000 x13=0000000000000000 x17=0000000000000000 x18=0000000000000000 x19=0000000000000000 x20=0000000000000000
[125000] REG MONITOR: x12=0000000000000000 x13=0000000000000000 x17=0000000000000000 x18=0000000000000000 x19=0000000000000000 x20=0000000000000000
[135000] REG MONITOR: x12=0000000000000000 x13=0000000000000000 x17=0000000000000000 x18=0000000000000000 x19=0000000000000000 x20=0000000000000000
[145000] REG MONITOR: x12=0000000000000000 x13=0000000000000000 x17=0000000000000000 x18=0000000000000000 x19=0000000000000000 x20=0000000000000000
[155000] REG MONITOR: x12=0000000000000000 x13=0000000000000000 x17=0000000000000000 x18=0000000000000000 x19=0000000000000000 x20=0000000000000000
[165000] REG MONITOR: x12=0000000000000000 x13=0000000000000000 x17=0000000000000000 x18=0000000000000000 x19=0000000000000000 x20=0000000000000000
[175000] REG MONITOR: x12=0000000000000000 x13=0000000000000000 x17=0000000000000000 x18=0000000000000000 x19=0000000000000000 x20=0000000000000000
[185000] REG MONITOR: x12=0000000000000000 x13=0000000000000000 x17=0000000000000000 x18=0000000000000000 x19=0000000000000000 x20=0000000000000000
[195000] REG MONITOR: x12=0000000000000000 x13=0000000000000000 x17=0000000000000000 x18=0000000000000000 x19=0000000000000000 x20=0000000000000000
[205000] REG MONITOR: x12=0000000000000000 x13=0000000000000000 x17=0000000000000000 x18=0000000000000000 x19=0000000000000000 x20=0000000000000000
[215000] REG MONITOR: x12=0000000000000000 x13=0000000000000000 x17=0000000000000000 x18=0000000000000000 x19=0000000000000000 x20=0000000000000000
[225000] REG MONITOR: x12=0000000000000000 x13=0000000000000000 x17=0000000000000000 x18=0000000000000000 x19=0000000000000000 x20=0000000000000000
[235000] REG MONITOR: x12=0000000000000000 x13=0000000000000000 x17=0000000000000000 x18=0000000000000000 x19=0000000000000000 x20=0000000000000000
[245000] REG MONITOR: x12=0000000000000000 x13=0000000000000000 x17=0000000000000000 x18=0000000000000000 x19=0000000000000000 x20=0000000000000000
[255000] REG MONITOR: x12=0000000000000000 x13=0000000000000000 x17=0000000000000000 x18=0000000000000000 x19=0000000000000000 x20=0000000000000000
[265000] REG MONITOR: x12=0000000000000000 x13=0000000000000000 x17=0000000000000100 x18=0000000000000000 x19=0000000000000000 x20=0000000000000000
[275000] REG MONITOR: x12=0000000000000000 x13=0000000000000000 x17=0000000000000100 x18=0000000000000104 x19=0000000000000000 x20=0000000000000000
[285000] REG MONITOR: x12=0000000000000000 x13=0000000000000000 x17=0000000000000100 x18=0000000000000104 x19=0000000000000009 x20=0000000000000000
[295000] REG MONITOR: x12=0000000000000000 x13=0000000000000000 x17=0000000000000100 x18=0000000000000104 x19=0000000000000009 x20=0000000000000002
[305000] REG MONITOR: x12=0000000000000000 x13=0000000000000000 x17=0000000000000100 x18=0000000000000104 x19=0000000000000009 x20=0000000000000002
[315000] REG MONITOR: x12=0000000000000000 x13=0000000000000000 x17=0000000000000100 x18=0000000000000104 x19=0000000000000009 x20=0000000000000002
[325000] REG MONITOR: x12=0000000000000000 x13=0000000000000000 x17=0000000000000100 x18=0000000000000104 x19=0000000000000009 x20=0000000000000002
[335000] REG MONITOR: x12=0000000000000000 x13=0000000000000000 x17=0000000000000100 x18=0000000000000104 x19=0000000000000009 x20=0000000000000002
[345000] REG MONITOR: x12=0000000000000000 x13=0000000000000001 x17=0000000000000100 x18=0000000000000104 x19=0000000000000009 x20=0000000000000002
[355000] REG MONITOR: x12=0000000000000000 x13=0000000000000001 x17=0000000000000100 x18=0000000000000104 x19=0000000000000009 x20=0000000000000002
[365000] REG MONITOR: x12=0000000000000000 x13=0000000000000001 x17=0000000000000100 x18=0000000000000104 x19=0000000000000009 x20=0000000000000002
[375000] REG MONITOR: x12=0000000000000000 x13=0000000000000001 x17=0000000000000100 x18=0000000000000104 x19=0000000000000009 x20=0000000000000002
[385000] REG MONITOR: x12=0000000000000000 x13=0000000000000001 x17=0000000000000100 x18=0000000000000104 x19=0000000000000009 x20=0000000000000002
[395000] REG MONITOR: x12=0000000000000000 x13=0000000000000001 x17=0000000000000100 x18=0000000000000104 x19=0000000000000009 x20=0000000000000002
[405000] REG MONITOR: x12=0000000000000000 x13=0000000000000001 x17=0000000000000104 x18=0000000000000104 x19=0000000000000009 x20=0000000000000002
[415000] REG MONITOR: x12=0000000000000000 x13=0000000000000001 x17=0000000000000104 x18=0000000000000108 x19=0000000000000009 x20=0000000000000002
[425000] REG MONITOR: x12=0000000000000000 x13=0000000000000001 x17=0000000000000104 x18=0000000000000108 x19=0000000000000009 x20=0000000000000002
[435000] REG MONITOR: x12=0000000000000000 x13=0000000000000001 x17=0000000000000104 x18=0000000000000108 x19=0000000000000009 x20=0000000000000007
[445000] REG MONITOR: x12=0000000000000000 x13=0000000000000001 x17=0000000000000104 x18=0000000000000108 x19=0000000000000009 x20=0000000000000007
[455000] REG MONITOR: x12=0000000000000000 x13=0000000000000001 x17=0000000000000104 x18=0000000000000108 x19=0000000000000009 x20=0000000000000007
[465000] REG MONITOR: x12=0000000000000000 x13=0000000000000001 x17=0000000000000104 x18=0000000000000108 x19=0000000000000009 x20=0000000000000007
[475000] REG MONITOR: x12=0000000000000000 x13=0000000000000001 x17=0000000000000104 x18=0000000000000108 x19=0000000000000009 x20=0000000000000007
[485000] REG MONITOR: x12=0000000000000000 x13=0000000000000002 x17=0000000000000104 x18=0000000000000108 x19=0000000000000009 x20=0000000000000007
[495000] REG MONITOR: x12=0000000000000000 x13=0000000000000002 x17=0000000000000104 x18=0000000000000108 x19=0000000000000009 x20=0000000000000007
[505000] REG MONITOR: x12=0000000000000000 x13=0000000000000002 x17=0000000000000104 x18=0000000000000108 x19=0000000000000009 x20=0000000000000007
[515000] REG MONITOR: x12=0000000000000000 x13=0000000000000002 x17=0000000000000104 x18=0000000000000108 x19=0000000000000009 x20=0000000000000007
[525000] REG MONITOR: x12=0000000000000000 x13=0000000000000002 x17=0000000000000104 x18=0000000000000108 x19=0000000000000009 x20=0000000000000007
[535000] REG MONITOR: x12=0000000000000000 x13=0000000000000002 x17=0000000000000104 x18=0000000000000108 x19=0000000000000009 x20=0000000000000007
[545000] REG MONITOR: x12=0000000000000000 x13=0000000000000002 x17=0000000000000108 x18=0000000000000108 x19=0000000000000009 x20=0000000000000007
[555000] REG MONITOR: x12=0000000000000000 x13=0000000000000002 x17=0000000000000108 x18=000000000000010c x19=0000000000000009 x20=0000000000000007
[565000] REG MONITOR: x12=0000000000000000 x13=0000000000000002 x17=0000000000000108 x18=000000000000010c x19=0000000000000009 x20=0000000000000007
[575000] REG MONITOR: x12=0000000000000000 x13=0000000000000002 x17=0000000000000108 x18=000000000000010c x19=0000000000000009 x20=0000000000000001
[585000] REG MONITOR: x12=0000000000000000 x13=0000000000000002 x17=0000000000000108 x18=000000000000010c x19=0000000000000009 x20=0000000000000001
[595000] REG MONITOR: x12=0000000000000000 x13=0000000000000002 x17=0000000000000108 x18=000000000000010c x19=0000000000000009 x20=0000000000000001
[605000] REG MONITOR: x12=0000000000000000 x13=0000000000000002 x17=0000000000000108 x18=000000000000010c x19=0000000000000009 x20=0000000000000001
[615000] REG MONITOR: x12=0000000000000000 x13=0000000000000002 x17=0000000000000108 x18=000000000000010c x19=0000000000000009 x20=0000000000000001
[625000] REG MONITOR: x12=0000000000000000 x13=0000000000000003 x17=0000000000000108 x18=000000000000010c x19=0000000000000009 x20=0000000000000001
[635000] REG MONITOR: x12=0000000000000000 x13=0000000000000003 x17=0000000000000108 x18=000000000000010c x19=0000000000000009 x20=0000000000000001
[645000] REG MONITOR: x12=0000000000000000 x13=0000000000000003 x17=0000000000000108 x18=000000000000010c x19=0000000000000009 x20=0000000000000001
[655000] REG MONITOR: x12=0000000000000000 x13=0000000000000003 x17=0000000000000108 x18=000000000000010c x19=0000000000000009 x20=0000000000000001
[665000] REG MONITOR: x12=0000000000000000 x13=0000000000000003 x17=0000000000000108 x18=000000000000010c x19=0000000000000009 x20=0000000000000001
[675000] REG MONITOR: x12=0000000000000000 x13=0000000000000003 x17=0000000000000108 x18=000000000000010c x19=0000000000000009 x20=0000000000000001
[685000] REG MONITOR: x12=0000000000000000 x13=0000000000000003 x17=000000000000010c x18=000000000000010c x19=0000000000000009 x20=0000000000000001
[695000] REG MONITOR: x12=0000000000000000 x13=0000000000000003 x17=000000000000010c x18=0000000000000110 x19=0000000000000009 x20=0000000000000001
[705000] REG MONITOR: x12=0000000000000000 x13=0000000000000003 x17=000000000000010c x18=0000000000000110 x19=0000000000000009 x20=0000000000000001
[715000] REG MONITOR: x12=0000000000000000 x13=0000000000000003 x17=000000000000010c x18=0000000000000110 x19=0000000000000009 x20=0000000000000008
[725000] REG MONITOR: x12=0000000000000000 x13=0000000000000003 x17=000000000000010c x18=0000000000000110 x19=0000000000000009 x20=0000000000000008
[735000] REG MONITOR: x12=0000000000000000 x13=0000000000000003 x17=000000000000010c x18=0000000000000110 x19=0000000000000009 x20=0000000000000008
[745000] REG MONITOR: x12=0000000000000000 x13=0000000000000003 x17=000000000000010c x18=0000000000000110 x19=0000000000000009 x20=0000000000000008
[755000] REG MONITOR: x12=0000000000000000 x13=0000000000000003 x17=000000000000010c x18=0000000000000110 x19=0000000000000009 x20=0000000000000008
[765000] REG MONITOR: x12=0000000000000000 x13=0000000000000004 x17=000000000000010c x18=0000000000000110 x19=0000000000000009 x20=0000000000000008
[775000] REG MONITOR: x12=0000000000000000 x13=0000000000000004 x17=000000000000010c x18=0000000000000110 x19=0000000000000009 x20=0000000000000008
[785000] REG MONITOR: x12=0000000000000000 x13=0000000000000004 x17=000000000000010c x18=0000000000000110 x19=0000000000000009 x20=0000000000000008
[795000] REG MONITOR: x12=0000000000000000 x13=0000000000000004 x17=000000000000010c x18=0000000000000110 x19=0000000000000009 x20=0000000000000008
[805000] REG MONITOR: x12=0000000000000000 x13=0000000000000004 x17=000000000000010c x18=0000000000000110 x19=0000000000000009 x20=0000000000000008
[815000] REG MONITOR: x12=0000000000000000 x13=0000000000000004 x17=000000000000010c x18=0000000000000110 x19=0000000000000009 x20=0000000000000008
[825000] REG MONITOR: x12=0000000000000000 x13=0000000000000004 x17=0000000000000110 x18=0000000000000110 x19=0000000000000009 x20=0000000000000008
[835000] REG MONITOR: x12=0000000000000000 x13=0000000000000004 x17=0000000000000110 x18=0000000000000114 x19=0000000000000009 x20=0000000000000008
[845000] REG MONITOR: x12=0000000000000000 x13=0000000000000004 x17=0000000000000110 x18=0000000000000114 x19=0000000000000009 x20=0000000000000008
[855000] REG MONITOR: x12=0000000000000000 x13=0000000000000004 x17=0000000000000110 x18=0000000000000114 x19=0000000000000009 x20=0000000000000004
[865000] REG MONITOR: x12=0000000000000000 x13=0000000000000004 x17=0000000000000110 x18=0000000000000114 x19=0000000000000009 x20=0000000000000004
[875000] REG MONITOR: x12=0000000000000000 x13=0000000000000004 x17=0000000000000110 x18=0000000000000114 x19=0000000000000009 x20=0000000000000004
[885000] REG MONITOR: x12=0000000000000000 x13=0000000000000004 x17=0000000000000110 x18=0000000000000114 x19=0000000000000009 x20=0000000000000004
[895000] REG MONITOR: x12=0000000000000000 x13=0000000000000004 x17=0000000000000110 x18=0000000000000114 x19=0000000000000009 x20=0000000000000004
[905000] REG MONITOR: x12=0000000000000000 x13=0000000000000005 x17=0000000000000110 x18=0000000000000114 x19=0000000000000009 x20=0000000000000004
[915000] REG MONITOR: x12=0000000000000000 x13=0000000000000005 x17=0000000000000110 x18=0000000000000114 x19=0000000000000009 x20=0000000000000004
[925000] REG MONITOR: x12=0000000000000000 x13=0000000000000005 x17=0000000000000110 x18=0000000000000114 x19=0000000000000009 x20=0000000000000004
[935000] REG MONITOR: x12=0000000000000000 x13=0000000000000005 x17=0000000000000110 x18=0000000000000114 x19=0000000000000009 x20=0000000000000004
[945000] REG MONITOR: x12=0000000000000000 x13=0000000000000005 x17=0000000000000110 x18=0000000000000114 x19=0000000000000009 x20=0000000000000004
[955000] REG MONITOR: x12=0000000000000000 x13=0000000000000005 x17=0000000000000110 x18=0000000000000114 x19=0000000000000009 x20=0000000000000004
[965000] REG MONITOR: x12=0000000000000000 x13=0000000000000005 x17=0000000000000114 x18=0000000000000114 x19=0000000000000009 x20=0000000000000004
[975000] REG MONITOR: x12=0000000000000000 x13=0000000000000005 x17=0000000000000114 x18=0000000000000118 x19=0000000000000009 x20=0000000000000004
[985000] REG MONITOR: x12=0000000000000000 x13=0000000000000005 x17=0000000000000114 x18=0000000000000118 x19=0000000000000009 x20=0000000000000004
[995000] REG MONITOR: x12=0000000000000000 x13=0000000000000005 x17=0000000000000114 x18=0000000000000118 x19=0000000000000009 x20=0000000000000006
[1005000] REG MONITOR: x12=0000000000000000 x13=0000000000000005 x17=0000000000000114 x18=0000000000000118 x19=0000000000000009 x20=0000000000000006
[1015000] REG MONITOR: x12=0000000000000000 x13=0000000000000005 x17=0000000000000114 x18=0000000000000118 x19=0000000000000009 x20=0000000000000006
[1025000] REG MONITOR: x12=0000000000000000 x13=0000000000000005 x17=0000000000000114 x18=0000000000000118 x19=0000000000000009 x20=0000000000000006
[1035000] REG MONITOR: x12=0000000000000000 x13=0000000000000005 x17=0000000000000114 x18=0000000000000118 x19=0000000000000009 x20=0000000000000006
[1045000] REG MONITOR: x12=0000000000000000 x13=0000000000000006 x17=0000000000000114 x18=0000000000000118 x19=0000000000000009 x20=0000000000000006
[1055000] REG MONITOR: x12=0000000000000000 x13=0000000000000006 x17=0000000000000114 x18=0000000000000118 x19=0000000000000009 x20=0000000000000006
[1065000] REG MONITOR: x12=0000000000000000 x13=0000000000000006 x17=0000000000000114 x18=0000000000000118 x19=0000000000000009 x20=0000000000000006
[1075000] REG MONITOR: x12=0000000000000000 x13=0000000000000006 x17=0000000000000114 x18=0000000000000118 x19=0000000000000009 x20=0000000000000006
[1085000] REG MONITOR: x12=0000000000000000 x13=0000000000000006 x17=0000000000000114 x18=0000000000000118 x19=0000000000000009 x20=0000000000000006
[1095000] REG MONITOR: x12=0000000000000001 x13=0000000000000006 x17=0000000000000114 x18=0000000000000118 x19=0000000000000009 x20=0000000000000006
[1105000] REG MONITOR: x12=0000000000000001 x13=0000000000000006 x17=0000000000000114 x18=0000000000000118 x19=0000000000000009 x20=0000000000000006
[1115000] REG MONITOR: x12=0000000000000001 x13=0000000000000000 x17=0000000000000114 x18=0000000000000118 x19=0000000000000009 x20=0000000000000006
[1125000] REG MONITOR: x12=0000000000000001 x13=0000000000000000 x17=0000000000000114 x18=0000000000000118 x19=0000000000000009 x20=0000000000000006
[1135000] REG MONITOR: x12=0000000000000001 x13=0000000000000000 x17=0000000000000114 x18=0000000000000118 x19=0000000000000009 x20=0000000000000006
[1145000] REG MONITOR: x12=0000000000000001 x13=0000000000000000 x17=0000000000000114 x18=0000000000000118 x19=0000000000000009 x20=0000000000000006
[1155000] REG MONITOR: x12=0000000000000001 x13=0000000000000000 x17=0000000000000114 x18=0000000000000118 x19=0000000000000009 x20=0000000000000006
[1165000] REG MONITOR: x12=0000000000000001 x13=0000000000000000 x17=0000000000000114 x18=0000000000000118 x19=0000000000000009 x20=0000000000000006
[1175000] REG MONITOR: x12=0000000000000001 x13=0000000000000000 x17=0000000000000114 x18=0000000000000118 x19=0000000000000009 x20=0000000000000006
[1185000] REG MONITOR: x12=0000000000000001 x13=0000000000000000 x17=0000000000000100 x18=0000000000000118 x19=0000000000000009 x20=0000000000000006
[1195000] REG MONITOR: x12=0000000000000001 x13=0000000000000000 x17=0000000000000100 x18=0000000000000104 x19=0000000000000009 x20=0000000000000006
[1205000] REG MONITOR: x12=0000000000000001 x13=0000000000000000 x17=0000000000000100 x18=0000000000000104 x19=0000000000000002 x20=0000000000000006
[1215000] REG MONITOR: x12=0000000000000001 x13=0000000000000000 x17=0000000000000100 x18=0000000000000104 x19=0000000000000002 x20=0000000000000007
[1225000] REG MONITOR: x12=0000000000000001 x13=0000000000000000 x17=0000000000000100 x18=0000000000000104 x19=0000000000000002 x20=0000000000000007
[1235000] REG MONITOR: x12=0000000000000001 x13=0000000000000001 x17=0000000000000100 x18=0000000000000104 x19=0000000000000002 x20=0000000000000007
[1245000] REG MONITOR: x12=0000000000000001 x13=0000000000000001 x17=0000000000000100 x18=0000000000000104 x19=0000000000000002 x20=0000000000000007
[1255000] REG MONITOR: x12=0000000000000001 x13=0000000000000001 x17=0000000000000100 x18=0000000000000104 x19=0000000000000002 x20=0000000000000007
[1265000] REG MONITOR: x12=0000000000000001 x13=0000000000000001 x17=0000000000000100 x18=0000000000000104 x19=0000000000000002 x20=0000000000000007
[1275000] REG MONITOR: x12=0000000000000001 x13=0000000000000001 x17=0000000000000100 x18=0000000000000104 x19=0000000000000002 x20=0000000000000007
[1285000] REG MONITOR: x12=0000000000000001 x13=0000000000000001 x17=0000000000000100 x18=0000000000000104 x19=0000000000000002 x20=0000000000000007
[1295000] REG MONITOR: x12=0000000000000001 x13=0000000000000001 x17=0000000000000104 x18=0000000000000104 x19=0000000000000002 x20=0000000000000007
[1305000] REG MONITOR: x12=0000000000000001 x13=0000000000000001 x17=0000000000000104 x18=0000000000000108 x19=0000000000000002 x20=0000000000000007
[1315000] REG MONITOR: x12=0000000000000001 x13=0000000000000001 x17=0000000000000104 x18=0000000000000108 x19=0000000000000007 x20=0000000000000007
[1325000] REG MONITOR: x12=0000000000000001 x13=0000000000000001 x17=0000000000000104 x18=0000000000000108 x19=0000000000000007 x20=0000000000000001
[1335000] REG MONITOR: x12=0000000000000001 x13=0000000000000001 x17=0000000000000104 x18=0000000000000108 x19=0000000000000007 x20=0000000000000001
[1345000] REG MONITOR: x12=0000000000000001 x13=0000000000000001 x17=0000000000000104 x18=0000000000000108 x19=0000000000000007 x20=0000000000000001
[1355000] REG MONITOR: x12=0000000000000001 x13=0000000000000001 x17=0000000000000104 x18=0000000000000108 x19=0000000000000007 x20=0000000000000001
[1365000] REG MONITOR: x12=0000000000000001 x13=0000000000000001 x17=0000000000000104 x18=0000000000000108 x19=0000000000000007 x20=0000000000000001
[1375000] REG MONITOR: x12=0000000000000001 x13=0000000000000002 x17=0000000000000104 x18=0000000000000108 x19=0000000000000007 x20=0000000000000001
[1385000] REG MONITOR: x12=0000000000000001 x13=0000000000000002 x17=0000000000000104 x18=0000000000000108 x19=0000000000000007 x20=0000000000000001
[1395000] REG MONITOR: x12=0000000000000001 x13=0000000000000002 x17=0000000000000104 x18=0000000000000108 x19=0000000000000007 x20=0000000000000001
[1405000] REG MONITOR: x12=0000000000000001 x13=0000000000000002 x17=0000000000000104 x18=0000000000000108 x19=0000000000000007 x20=0000000000000001
[1415000] REG MONITOR: x12=0000000000000001 x13=0000000000000002 x17=0000000000000104 x18=0000000000000108 x19=0000000000000007 x20=0000000000000001
[1425000] REG MONITOR: x12=0000000000000001 x13=0000000000000002 x17=0000000000000104 x18=0000000000000108 x19=0000000000000007 x20=0000000000000001
[1435000] REG MONITOR: x12=0000000000000001 x13=0000000000000002 x17=0000000000000108 x18=0000000000000108 x19=0000000000000007 x20=0000000000000001
[1445000] REG MONITOR: x12=0000000000000001 x13=0000000000000002 x17=0000000000000108 x18=000000000000010c x19=0000000000000007 x20=0000000000000001
[1455000] REG MONITOR: x12=0000000000000001 x13=0000000000000002 x17=0000000000000108 x18=000000000000010c x19=0000000000000007 x20=0000000000000001
[1465000] REG MONITOR: x12=0000000000000001 x13=0000000000000002 x17=0000000000000108 x18=000000000000010c x19=0000000000000007 x20=0000000000000008
[1475000] REG MONITOR: x12=0000000000000001 x13=0000000000000002 x17=0000000000000108 x18=000000000000010c x19=0000000000000007 x20=0000000000000008
[1485000] REG MONITOR: x12=0000000000000001 x13=0000000000000003 x17=0000000000000108 x18=000000000000010c x19=0000000000000007 x20=0000000000000008
[1495000] REG MONITOR: x12=0000000000000001 x13=0000000000000003 x17=0000000000000108 x18=000000000000010c x19=0000000000000007 x20=0000000000000008
[1505000] REG MONITOR: x12=0000000000000001 x13=0000000000000003 x17=0000000000000108 x18=000000000000010c x19=0000000000000007 x20=0000000000000008
[1515000] REG MONITOR: x12=0000000000000001 x13=0000000000000003 x17=0000000000000108 x18=000000000000010c x19=0000000000000007 x20=0000000000000008
[1525000] REG MONITOR: x12=0000000000000001 x13=0000000000000003 x17=0000000000000108 x18=000000000000010c x19=0000000000000007 x20=0000000000000008
[1535000] REG MONITOR: x12=0000000000000001 x13=0000000000000003 x17=0000000000000108 x18=000000000000010c x19=0000000000000007 x20=0000000000000008
[1545000] REG MONITOR: x12=0000000000000001 x13=0000000000000003 x17=000000000000010c x18=000000000000010c x19=0000000000000007 x20=0000000000000008
[1555000] REG MONITOR: x12=0000000000000001 x13=0000000000000003 x17=000000000000010c x18=0000000000000110 x19=0000000000000007 x20=0000000000000008
[1565000] REG MONITOR: x12=0000000000000001 x13=0000000000000003 x17=000000000000010c x18=0000000000000110 x19=0000000000000008 x20=0000000000000008
[1575000] REG MONITOR: x12=0000000000000001 x13=0000000000000003 x17=000000000000010c x18=0000000000000110 x19=0000000000000008 x20=0000000000000004
[1585000] REG MONITOR: x12=0000000000000001 x13=0000000000000003 x17=000000000000010c x18=0000000000000110 x19=0000000000000008 x20=0000000000000004
[1595000] REG MONITOR: x12=0000000000000001 x13=0000000000000003 x17=000000000000010c x18=0000000000000110 x19=0000000000000008 x20=0000000000000004
[1605000] REG MONITOR: x12=0000000000000001 x13=0000000000000003 x17=000000000000010c x18=0000000000000110 x19=0000000000000008 x20=0000000000000004
[1615000] REG MONITOR: x12=0000000000000001 x13=0000000000000003 x17=000000000000010c x18=0000000000000110 x19=0000000000000008 x20=0000000000000004
[1625000] REG MONITOR: x12=0000000000000001 x13=0000000000000004 x17=000000000000010c x18=0000000000000110 x19=0000000000000008 x20=0000000000000004
[1635000] REG MONITOR: x12=0000000000000001 x13=0000000000000004 x17=000000000000010c x18=0000000000000110 x19=0000000000000008 x20=0000000000000004
[1645000] REG MONITOR: x12=0000000000000001 x13=0000000000000004 x17=000000000000010c x18=0000000000000110 x19=0000000000000008 x20=0000000000000004
[1655000] REG MONITOR: x12=0000000000000001 x13=0000000000000004 x17=000000000000010c x18=0000000000000110 x19=0000000000000008 x20=0000000000000004
[1665000] REG MONITOR: x12=0000000000000001 x13=0000000000000004 x17=000000000000010c x18=0000000000000110 x19=0000000000000008 x20=0000000000000004
[1675000] REG MONITOR: x12=0000000000000001 x13=0000000000000004 x17=000000000000010c x18=0000000000000110 x19=0000000000000008 x20=0000000000000004
[1685000] REG MONITOR: x12=0000000000000001 x13=0000000000000004 x17=0000000000000110 x18=0000000000000110 x19=0000000000000008 x20=0000000000000004
[1695000] REG MONITOR: x12=0000000000000001 x13=0000000000000004 x17=0000000000000110 x18=0000000000000114 x19=0000000000000008 x20=0000000000000004
[1705000] REG MONITOR: x12=0000000000000001 x13=0000000000000004 x17=0000000000000110 x18=0000000000000114 x19=0000000000000008 x20=0000000000000004
[1715000] REG MONITOR: x12=0000000000000001 x13=0000000000000004 x17=0000000000000110 x18=0000000000000114 x19=0000000000000008 x20=0000000000000006
[1725000] REG MONITOR: x12=0000000000000001 x13=0000000000000004 x17=0000000000000110 x18=0000000000000114 x19=0000000000000008 x20=0000000000000006
[1735000] REG MONITOR: x12=0000000000000001 x13=0000000000000004 x17=0000000000000110 x18=0000000000000114 x19=0000000000000008 x20=0000000000000006
[1745000] REG MONITOR: x12=0000000000000001 x13=0000000000000004 x17=0000000000000110 x18=0000000000000114 x19=0000000000000008 x20=0000000000000006
[1755000] REG MONITOR: x12=0000000000000001 x13=0000000000000004 x17=0000000000000110 x18=0000000000000114 x19=0000000000000008 x20=0000000000000006
[1765000] REG MONITOR: x12=0000000000000001 x13=0000000000000005 x17=0000000000000110 x18=0000000000000114 x19=0000000000000008 x20=0000000000000006
[1775000] REG MONITOR: x12=0000000000000001 x13=0000000000000005 x17=0000000000000110 x18=0000000000000114 x19=0000000000000008 x20=0000000000000006
[1785000] REG MONITOR: x12=0000000000000001 x13=0000000000000005 x17=0000000000000110 x18=0000000000000114 x19=0000000000000008 x20=0000000000000006
[1795000] REG MONITOR: x12=0000000000000001 x13=0000000000000005 x17=0000000000000110 x18=0000000000000114 x19=0000000000000008 x20=0000000000000006
[1805000] REG MONITOR: x12=0000000000000001 x13=0000000000000005 x17=0000000000000110 x18=0000000000000114 x19=0000000000000008 x20=0000000000000006
[1815000] REG MONITOR: x12=0000000000000002 x13=0000000000000005 x17=0000000000000110 x18=0000000000000114 x19=0000000000000008 x20=0000000000000006
[1825000] REG MONITOR: x12=0000000000000002 x13=0000000000000005 x17=0000000000000110 x18=0000000000000114 x19=0000000000000008 x20=0000000000000006
[1835000] REG MONITOR: x12=0000000000000002 x13=0000000000000000 x17=0000000000000110 x18=0000000000000114 x19=0000000000000008 x20=0000000000000006
[1845000] REG MONITOR: x12=0000000000000002 x13=0000000000000000 x17=0000000000000110 x18=0000000000000114 x19=0000000000000008 x20=0000000000000006
[1855000] REG MONITOR: x12=0000000000000002 x13=0000000000000000 x17=0000000000000110 x18=0000000000000114 x19=0000000000000008 x20=0000000000000006
[1865000] REG MONITOR: x12=0000000000000002 x13=0000000000000000 x17=0000000000000110 x18=0000000000000114 x19=0000000000000008 x20=0000000000000006
[1875000] REG MONITOR: x12=0000000000000002 x13=0000000000000000 x17=0000000000000110 x18=0000000000000114 x19=0000000000000008 x20=0000000000000006
[1885000] REG MONITOR: x12=0000000000000002 x13=0000000000000000 x17=0000000000000110 x18=0000000000000114 x19=0000000000000008 x20=0000000000000006
[1895000] REG MONITOR: x12=0000000000000002 x13=0000000000000000 x17=0000000000000110 x18=0000000000000114 x19=0000000000000008 x20=0000000000000006
[1905000] REG MONITOR: x12=0000000000000002 x13=0000000000000000 x17=0000000000000100 x18=0000000000000114 x19=0000000000000008 x20=0000000000000006
[1915000] REG MONITOR: x12=0000000000000002 x13=0000000000000000 x17=0000000000000100 x18=0000000000000104 x19=0000000000000008 x20=0000000000000006
[1925000] REG MONITOR: x12=0000000000000002 x13=0000000000000000 x17=0000000000000100 x18=0000000000000104 x19=0000000000000002 x20=0000000000000006
[1935000] REG MONITOR: x12=0000000000000002 x13=0000000000000000 x17=0000000000000100 x18=0000000000000104 x19=0000000000000002 x20=0000000000000001
[1945000] REG MONITOR: x12=0000000000000002 x13=0000000000000000 x17=0000000000000100 x18=0000000000000104 x19=0000000000000002 x20=0000000000000001
[1955000] REG MONITOR: x12=0000000000000002 x13=0000000000000000 x17=0000000000000100 x18=0000000000000104 x19=0000000000000002 x20=0000000000000001
[1965000] REG MONITOR: x12=0000000000000002 x13=0000000000000000 x17=0000000000000100 x18=0000000000000104 x19=0000000000000002 x20=0000000000000001
[1975000] REG MONITOR: x12=0000000000000002 x13=0000000000000000 x17=0000000000000100 x18=0000000000000104 x19=0000000000000002 x20=0000000000000001
[1985000] REG MONITOR: x12=0000000000000002 x13=0000000000000001 x17=0000000000000100 x18=0000000000000104 x19=0000000000000002 x20=0000000000000001
[1995000] REG MONITOR: x12=0000000000000002 x13=0000000000000001 x17=0000000000000100 x18=0000000000000104 x19=0000000000000002 x20=0000000000000001
[2005000] REG MONITOR: x12=0000000000000002 x13=0000000000000001 x17=0000000000000100 x18=0000000000000104 x19=0000000000000002 x20=0000000000000001
[2015000] REG MONITOR: x12=0000000000000002 x13=0000000000000001 x17=0000000000000100 x18=0000000000000104 x19=0000000000000002 x20=0000000000000001
[2025000] REG MONITOR: x12=0000000000000002 x13=0000000000000001 x17=0000000000000100 x18=0000000000000104 x19=0000000000000002 x20=0000000000000001
[2035000] REG MONITOR: x12=0000000000000002 x13=0000000000000001 x17=0000000000000100 x18=0000000000000104 x19=0000000000000002 x20=0000000000000001
[2045000] REG MONITOR: x12=0000000000000002 x13=0000000000000001 x17=0000000000000104 x18=0000000000000104 x19=0000000000000002 x20=0000000000000001
[2055000] REG MONITOR: x12=0000000000000002 x13=0000000000000001 x17=0000000000000104 x18=0000000000000108 x19=0000000000000002 x20=0000000000000001
