CA_proj/CA_proj.sim/sim_1/behav/xsim/simulate.log
Vivado Simulator 2020.1
Time resolution is 1 ps
[5000] REG MONITOR: x12=0000000000000000 x13=0000000000000000 x16=0000000000000000 x17=0000000000000000 x18=0000000000000000 x19=0000000000000000 x20=0000000000000000
[5000] ALU OP: 0010, A=xxxxxxxxxxxxxxxx, B=xxxxxxxxxxxxxxxx, Result=xxxxxxxxxxxxxxxx
[5000] ALU OP: 0010, A=0000000000000000, B=xxxxxxxxxxxxxxxx, Result=xxxxxxxxxxxxxxxx
[5000] ALU OP: 0010, A=0000000000000000, B=0000000000000000, Result=0000000000000000
[15000] REG MONITOR: x12=0000000000000000 x13=0000000000000000 x16=0000000000000000 x17=0000000000000000 x18=0000000000000000 x19=0000000000000000 x20=0000000000000000
[25000] REG MONITOR: x12=0000000000000000 x13=0000000000000000 x16=0000000000000000 x17=0000000000000000 x18=0000000000000000 x19=0000000000000000 x20=0000000000000000
[25000] ALU OP: 0010, A=0000000000000000, B=0000000000000009, Result=0000000000000009
[35000] REG MONITOR: x12=0000000000000000 x13=0000000000000000 x16=0000000000000000 x17=0000000000000000 x18=0000000000000000 x19=0000000000000000 x20=0000000000000000
[35000] ALU OP: 0010, A=0000000000000000, B=0000000000000002, Result=0000000000000002
[45000] REG MONITOR: x12=0000000000000000 x13=0000000000000000 x16=0000000000000000 x17=0000000000000000 x18=0000000000000000 x19=0000000000000000 x20=0000000000000000
[45000] ALU OP: 0010, A=0000000000000000, B=0000000000000007, Result=0000000000000007
[55000] REG MONITOR: x12=0000000000000000 x13=0000000000000000 x16=0000000000000000 x17=0000000000000000 x18=0000000000000000 x19=0000000000000000 x20=0000000000000000
[55000] ALU OP: 0010, A=0000000000000000, B=0000000000000001, Result=0000000000000001
[65000] REG MONITOR: x12=0000000000000000 x13=0000000000000000 x16=0000000000000000 x17=0000000000000000 x18=0000000000000000 x19=0000000000000000 x20=0000000000000000
[65000] ALU OP: 0010, A=0000000000000000, B=0000000000000008, Result=0000000000000008
[75000] REG MONITOR: x12=0000000000000000 x13=0000000000000000 x16=0000000000000000 x17=0000000000000000 x18=0000000000000000 x19=0000000000000000 x20=0000000000000000
[75000] ALU OP: 0010, A=0000000000000000, B=0000000000000004, Result=0000000000000004
[85000] REG MONITOR: x12=0000000000000000 x13=0000000000000000 x16=0000000000000000 x17=0000000000000000 x18=0000000000000000 x19=0000000000000000 x20=0000000000000000
[85000] ALU OP: 0010, A=0000000000000000, B=0000000000000006, Result=0000000000000006
[95000] REG MONITOR: x12=0000000000000000 x13=0000000000000000 x16=0000000000000000 x17=0000000000000000 x18=0000000000000000 x19=0000000000000000 x20=0000000000000000
[95000] ALU OP: 0010, A=0000000000000000, B=0000000000000100, Result=0000000000000100
[105000] REG MONITOR: x12=0000000000000000 x13=0000000000000000 x16=0000000000000000 x17=0000000000000000 x18=0000000000000000 x19=0000000000000000 x20=0000000000000000
[105000] ALU OP: 0010, A=0000000000000000, B=0000000000000104, Result=0000000000000104
[115000] REG MONITOR: x12=0000000000000000 x13=0000000000000000 x16=0000000000000000 x17=0000000000000000 x18=0000000000000000 x19=0000000000000000 x20=0000000000000000
[115000] ALU OP: 0010, A=0000000000000000, B=0000000000000108, Result=0000000000000108
[125000] REG MONITOR: x12=0000000000000000 x13=0000000000000000 x16=0000000000000000 x17=0000000000000000 x18=0000000000000000 x19=0000000000000000 x20=0000000000000000
[125000] ALU OP: 0010, A=0000000000000000, B=000000000000010c, Result=000000000000010c
[135000] REG MONITOR: x12=0000000000000000 x13=0000000000000000 x16=0000000000000000 x17=0000000000000000 x18=0000000000000000 x19=0000000000000000 x20=0000000000000000
[135000] ALU OP: 0010, A=0000000000000000, B=0000000000000110, Result=0000000000000110
[145000] REG MONITOR: x12=0000000000000000 x13=0000000000000000 x16=0000000000000000 x17=0000000000000000 x18=0000000000000000 x19=0000000000000000 x20=0000000000000000
[145000] ALU OP: 0010, A=0000000000000000, B=0000000000000114, Result=0000000000000114
[155000] REG MONITOR: x12=0000000000000000 x13=0000000000000000 x16=0000000000000000 x17=0000000000000000 x18=0000000000000000 x19=0000000000000000 x20=0000000000000000
[155000] ALU OP: 0010, A=0000000000000000, B=0000000000000118, Result=0000000000000118
[165000] REG MONITOR: x12=0000000000000000 x13=0000000000000000 x16=0000000000000000 x17=0000000000000000 x18=0000000000000000 x19=0000000000000000 x20=0000000000000000
[165000] ALU OP: 0010, A=0000000000000000, B=0000000000000100, Result=0000000000000100
[175000] REG MONITOR: x12=0000000000000000 x13=0000000000000000 x16=0000000000000000 x17=0000000000000000 x18=0000000000000000 x19=0000000000000000 x20=0000000000000000
[175000] ALU OP: 0010, A=0000000000000000, B=0000000000000007, Result=0000000000000007
[185000] REG MONITOR: x12=0000000000000000 x13=0000000000000000 x16=0000000000000000 x17=0000000000000000 x18=0000000000000000 x19=0000000000000000 x20=0000000000000000
[185000] ALU OP: 0010, A=0000000000000000, B=0000000000000000, Result=0000000000000000
[195000] REG MONITOR: x12=0000000000000000 x13=0000000000000000 x16=0000000000000000 x17=0000000000000000 x18=0000000000000000 x19=0000000000000000 x20=0000000000000000
[205000] REG MONITOR: x12=0000000000000000 x13=0000000000000000 x16=0000000000000000 x17=0000000000000000 x18=0000000000000000 x19=0000000000000000 x20=0000000000000000
[205000] ALU OP: 0010, A=0000000000000007, B=ffffffffffffffff, Result=0000000000000006
[215000] REG MONITOR: x12=0000000000000000 x13=0000000000000000 x16=0000000000000000 x17=0000000000000000 x18=0000000000000000 x19=0000000000000000 x20=0000000000000000
[215000] ALU OP: 0011, A=0000000000000007, B=ffffffffffffffff, Result=0000000000000008
[215000] ALU OP: 0011, A=0000000000000000, B=0000000000000000, Result=0000000000000000
[215000] ALU OP: 0011, A=0000000000000000, B=0000000000000006, Result=fffffffffffffffa
[225000] REG MONITOR: x12=0000000000000000 x13=0000000000000000 x16=0000000000000000 x17=0000000000000000 x18=0000000000000000 x19=0000000000000000 x20=0000000000000000
[225000] ALU OP: 0010, A=0000000000000000, B=0000000000000006, Result=0000000000000006
[225000] ALU OP: 0010, A=0000000000000007, B=ffffffffffffffff, Result=0000000000000006
[235000] REG MONITOR: x12=0000000000000000 x13=0000000000000000 x16=0000000000000000 x17=0000000000000000 x18=0000000000000000 x19=0000000000000000 x20=0000000000000000
[235000] ALU OP: 0011, A=0000000000000007, B=ffffffffffffffff, Result=0000000000000008
[235000] ALU OP: 0011, A=0000000000000006, B=0000000000000000, Result=0000000000000006
[245000] REG MONITOR: x12=0000000000000000 x13=0000000000000000 x16=0000000000000000 x17=0000000000000000 x18=0000000000000000 x19=0000000000000000 x20=0000000000000000
[245000] ALU OP: 0011, A=0000000000000000, B=0000000000000000, Result=0000000000000000
[245000] ALU OP: 0011, A=0000000000000000, B=0000000000000006, Result=fffffffffffffffa
[255000] REG MONITOR: x12=0000000000000000 x13=0000000000000000 x16=0000000000000000 x17=0000000000000000 x18=0000000000000000 x19=0000000000000000 x20=0000000000000000
[255000] ALU OP: 0010, A=0000000000000000, B=0000000000000006, Result=0000000000000006
[255000] ALU OP: 0010, A=0000000000000000, B=0000000000000000, Result=0000000000000000
[265000] REG MONITOR: x12=0000000000000000 x13=0000000000000000 x16=0000000000000000 x17=0000000000000000 x18=0000000000000000 x19=0000000000000000 x20=0000000000000000
[265000] ALU OP: 0010, A=xxxxxxxxxxxxxxxx, B=0000000000000000, Result=xxxxxxxxxxxxxxxx
[265000] ALU OP: 0010, A=xxxxxxxxxxxxxxxx, B=xxxxxxxxxxxxxxxx, Result=xxxxxxxxxxxxxxxx
[275000] REG MONITOR: x12=0000000000000000 x13=0000000000000000 x16=0000000000000000 x17=0000000000000000 x18=0000000000000000 x19=0000000000000000 x20=0000000000000000
[285000] REG MONITOR: x12=0000000000000000 x13=0000000000000000 x16=0000000000000000 x17=0000000000000000 x18=0000000000000000 x19=0000000000000000 x20=0000000000000000
[285000] ALU OP: 0010, A=0000000000000000, B=0000000000000001, Result=0000000000000001
[295000] REG MONITOR: x12=0000000000000000 x13=0000000000000000 x16=0000000000000000 x17=0000000000000000 x18=0000000000000000 x19=0000000000000000 x20=0000000000000000
[295000] ALU OP: 0011, A=0000000000000000, B=0000000000000001, Result=ffffffffffffffff
[295000] ALU OP: 0011, A=0000000000000000, B=0000000000000009, Result=fffffffffffffff7
[295000] ALU OP: 0011, A=0000000000000000, B=0000000000000000, Result=0000000000000000
[305000] REG MONITOR: x12=0000000000000000 x13=0000000000000000 x16=0000000000000000 x17=0000000000000000 x18=0000000000000000 x19=0000000000000000 x20=0000000000000000
[305000] ALU OP: 0010, A=0000000000000000, B=0000000000000000, Result=0000000000000000
[315000] REG MONITOR: x12=0000000000000001 x13=0000000000000000 x16=0000000000000000 x17=0000000000000000 x18=0000000000000000 x19=0000000000000000 x20=0000000000000000
[315000] ALU OP: 0010, A=xxxxxxxxxxxxxxxx, B=0000000000000000, Result=xxxxxxxxxxxxxxxx
[315000] ALU OP: 0010, A=xxxxxxxxxxxxxxxx, B=xxxxxxxxxxxxxxxx, Result=xxxxxxxxxxxxxxxx
[325000] REG MONITOR: x12=0000000000000001 x13=0000000000000000 x16=0000000000000000 x17=0000000000000000 x18=0000000000000000 x19=0000000000000000 x20=0000000000000000
[325000] ALU OP: 0010, A=0000000000000000, B=xxxxxxxxxxxxxxxx, Result=xxxxxxxxxxxxxxxx
[325000] ALU OP: 0010, A=0000000000000000, B=0000000000000000, Result=0000000000000000
[335000] REG MONITOR: x12=0000000000000001 x13=0000000000000000 x16=0000000000000000 x17=0000000000000000 x18=0000000000000000 x19=0000000000000000 x20=0000000000000000
[345000] REG MONITOR: x12=0000000000000001 x13=0000000000000000 x16=0000000000000000 x17=0000000000000000 x18=0000000000000000 x19=0000000000000000 x20=0000000000000000
[345000] ALU OP: 0010, A=0000000000000007, B=ffffffffffffffff, Result=0000000000000006
[355000] REG MONITOR: x12=0000000000000001 x13=0000000000000000 x16=0000000000000000 x17=0000000000000000 x18=0000000000000000 x19=0000000000000000 x20=0000000000000000
[355000] ALU OP: 0011, A=0000000000000007, B=ffffffffffffffff, Result=0000000000000008
[355000] ALU OP: 0011, A=0000000000000001, B=0000000000000000, Result=0000000000000001
[355000] ALU OP: 0011, A=0000000000000001, B=0000000000000006, Result=fffffffffffffffb
[365000] REG MONITOR: x12=0000000000000001 x13=0000000000000000 x16=0000000000000000 x17=0000000000000000 x18=0000000000000000 x19=0000000000000000 x20=0000000000000000
[365000] ALU OP: 0010, A=0000000000000001, B=0000000000000006, Result=0000000000000007
[365000] ALU OP: 0010, A=0000000000000007, B=ffffffffffffffff, Result=0000000000000006
[375000] REG MONITOR: x12=0000000000000001 x13=0000000000000000 x16=0000000000000000 x17=0000000000000000 x18=0000000000000000 x19=0000000000000000 x20=0000000000000000
[375000] ALU OP: 0011, A=0000000000000007, B=ffffffffffffffff, Result=0000000000000008
[375000] ALU OP: 0011, A=0000000000000006, B=0000000000000000, Result=0000000000000006
[375000] ALU OP: 0011, A=0000000000000006, B=0000000000000001, Result=0000000000000005
[385000] REG MONITOR: x12=0000000000000001 x13=0000000000000000 x16=0000000000000000 x17=0000000000000000 x18=0000000000000000 x19=0000000000000000 x20=0000000000000000
[385000] ALU OP: 0011, A=0000000000000000, B=0000000000000001, Result=ffffffffffffffff
[385000] ALU OP: 0011, A=0000000000000000, B=0000000000000005, Result=fffffffffffffffb
[395000] REG MONITOR: x12=0000000000000001 x13=0000000000000000 x16=0000000000000000 x17=0000000000000000 x18=0000000000000000 x19=0000000000000000 x20=0000000000000000
[395000] ALU OP: 0010, A=0000000000000000, B=0000000000000005, Result=0000000000000005
[395000] ALU OP: 0010, A=0000000000000000, B=0000000000000000, Result=0000000000000000
[405000] REG MONITOR: x12=0000000000000001 x13=0000000000000000 x16=0000000000000000 x17=0000000000000000 x18=0000000000000000 x19=0000000000000000 x20=0000000000000000
[405000] ALU OP: 0010, A=xxxxxxxxxxxxxxxx, B=0000000000000000, Result=xxxxxxxxxxxxxxxx
[405000] ALU OP: 0010, A=xxxxxxxxxxxxxxxx, B=xxxxxxxxxxxxxxxx, Result=xxxxxxxxxxxxxxxx
[415000] REG MONITOR: x12=0000000000000001 x13=0000000000000000 x16=0000000000000000 x17=0000000000000000 x18=0000000000000000 x19=0000000000000000 x20=0000000000000000
[425000] REG MONITOR: x12=0000000000000001 x13=0000000000000000 x16=0000000000000000 x17=0000000000000000 x18=0000000000000000 x19=0000000000000000 x20=0000000000000000
[425000] ALU OP: 0010, A=0000000000000001, B=0000000000000001, Result=0000000000000002
[435000] REG MONITOR: x12=0000000000000001 x13=0000000000000000 x16=0000000000000000 x17=0000000000000000 x18=0000000000000000 x19=0000000000000000 x20=0000000000000000
[435000] ALU OP: 0011, A=0000000000000001, B=0000000000000001, Result=0000000000000000
[435000] ALU OP: 0011, A=0000000000000000, B=0000000000000009, Result=fffffffffffffff7
[435000] ALU OP: 0011, A=0000000000000000, B=0000000000000000, Result=0000000000000000
[445000] REG MONITOR: x12=0000000000000001 x13=0000000000000000 x16=0000000000000000 x17=0000000000000000 x18=0000000000000000 x19=0000000000000000 x20=0000000000000000
[445000] ALU OP: 0010, A=0000000000000000, B=0000000000000000, Result=0000000000000000
[455000] REG MONITOR: x12=0000000000000002 x13=0000000000000000 x16=0000000000000000 x17=0000000000000000 x18=0000000000000000 x19=0000000000000000 x20=0000000000000000
[455000] ALU OP: 0010, A=xxxxxxxxxxxxxxxx, B=0000000000000000, Result=xxxxxxxxxxxxxxxx
[455000] ALU OP: 0010, A=xxxxxxxxxxxxxxxx, B=xxxxxxxxxxxxxxxx, Result=xxxxxxxxxxxxxxxx
[465000] REG MONITOR: x12=0000000000000002 x13=0000000000000000 x16=0000000000000000 x17=0000000000000000 x18=0000000000000000 x19=0000000000000000 x20=0000000000000000
[465000] ALU OP: 0010, A=0000000000000000, B=xxxxxxxxxxxxxxxx, Result=xxxxxxxxxxxxxxxx
[465000] ALU OP: 0010, A=0000000000000000, B=0000000000000000, Result=0000000000000000
[475000] REG MONITOR: x12=0000000000000002 x13=0000000000000000 x16=0000000000000000 x17=0000000000000000 x18=0000000000000000 x19=0000000000000000 x20=0000000000000000
[485000] REG MONITOR: x12=0000000000000002 x13=0000000000000000 x16=0000000000000000 x17=0000000000000000 x18=0000000000000000 x19=0000000000000000 x20=0000000000000000
[485000] ALU OP: 0010, A=0000000000000007, B=ffffffffffffffff, Result=0000000000000006
[495000] REG MONITOR: x12=0000000000000002 x13=0000000000000000 x16=0000000000000000 x17=0000000000000000 x18=0000000000000000 x19=0000000000000000 x20=0000000000000000
[495000] ALU OP: 0011, A=0000000000000007, B=ffffffffffffffff, Result=0000000000000008
[495000] ALU OP: 0011, A=0000000000000002, B=0000000000000000, Result=0000000000000002
[495000] ALU OP: 0011, A=0000000000000002, B=0000000000000006, Result=fffffffffffffffc
[505000] REG MONITOR: x12=0000000000000002 x13=0000000000000000 x16=0000000000000000 x17=0000000000000000 x18=0000000000000000 x19=0000000000000000 x20=0000000000000000
[505000] ALU OP: 0010, A=0000000000000002, B=0000000000000006, Result=0000000000000008
[505000] ALU OP: 0010, A=0000000000000007, B=ffffffffffffffff, Result=0000000000000006
[515000] REG MONITOR: x12=0000000000000002 x13=0000000000000000 x16=0000000000000000 x17=0000000000000000 x18=0000000000000000 x19=0000000000000000 x20=0000000000000000
[515000] ALU OP: 0011, A=0000000000000007, B=ffffffffffffffff, Result=0000000000000008
[515000] ALU OP: 0011, A=0000000000000006, B=0000000000000000, Result=0000000000000006
[515000] ALU OP: 0011, A=0000000000000006, B=0000000000000002, Result=0000000000000004
[525000] REG MONITOR: x12=0000000000000002 x13=0000000000000000 x16=0000000000000000 x17=0000000000000000 x18=0000000000000000 x19=0000000000000000 x20=0000000000000000
[525000] ALU OP: 0011, A=0000000000000000, B=0000000000000002, Result=fffffffffffffffe
[525000] ALU OP: 0011, A=0000000000000000, B=0000000000000004, Result=fffffffffffffffc
[535000] REG MONITOR: x12=0000000000000002 x13=0000000000000000 x16=0000000000000000 x17=0000000000000000 x18=0000000000000000 x19=0000000000000000 x20=0000000000000000
[535000] ALU OP: 0010, A=0000000000000000, B=0000000000000004, Result=0000000000000004
[535000] ALU OP: 0010, A=0000000000000000, B=0000000000000000, Result=0000000000000000
[545000] REG MONITOR: x12=0000000000000002 x13=0000000000000000 x16=0000000000000000 x17=0000000000000000 x18=0000000000000000 x19=0000000000000000 x20=0000000000000000
[545000] ALU OP: 0010, A=xxxxxxxxxxxxxxxx, B=0000000000000000, Result=xxxxxxxxxxxxxxxx
[545000] ALU OP: 0010, A=xxxxxxxxxxxxxxxx, B=xxxxxxxxxxxxxxxx, Result=xxxxxxxxxxxxxxxx
[555000] REG MONITOR: x12=0000000000000002 x13=0000000000000000 x16=0000000000000000 x17=0000000000000000 x18=0000000000000000 x19=0000000000000000 x20=0000000000000000
[565000] REG MONITOR: x12=0000000000000002 x13=0000000000000000 x16=0000000000000000 x17=0000000000000000 x18=0000000000000000 x19=0000000000000000 x20=0000000000000000
[565000] ALU OP: 0010, A=0000000000000002, B=0000000000000001, Result=0000000000000003
[575000] REG MONITOR: x12=0000000000000002 x13=0000000000000000 x16=0000000000000000 x17=0000000000000000 x18=0000000000000000 x19=0000000000000000 x20=0000000000000000
[575000] ALU OP: 0011, A=0000000000000002, B=0000000000000001, Result=0000000000000001
[575000] ALU OP: 0011, A=0000000000000000, B=0000000000000009, Result=fffffffffffffff7
[575000] ALU OP: 0011, A=0000000000000000, B=0000000000000000, Result=0000000000000000
[585000] REG MONITOR: x12=0000000000000002 x13=0000000000000000 x16=0000000000000000 x17=0000000000000000 x18=0000000000000000 x19=0000000000000000 x20=0000000000000000
[585000] ALU OP: 0010, A=0000000000000000, B=0000000000000000, Result=0000000000000000
[595000] REG MONITOR: x12=0000000000000003 x13=0000000000000000 x16=0000000000000000 x17=0000000000000000 x18=0000000000000000 x19=0000000000000000 x20=0000000000000000
[595000] ALU OP: 0010, A=xxxxxxxxxxxxxxxx, B=0000000000000000, Result=xxxxxxxxxxxxxxxx
[595000] ALU OP: 0010, A=xxxxxxxxxxxxxxxx, B=xxxxxxxxxxxxxxxx, Result=xxxxxxxxxxxxxxxx
[605000] REG MONITOR: x12=0000000000000003 x13=0000000000000000 x16=0000000000000000 x17=0000000000000000 x18=0000000000000000 x19=0000000000000000 x20=0000000000000000
[605000] ALU OP: 0010, A=0000000000000000, B=xxxxxxxxxxxxxxxx, Result=xxxxxxxxxxxxxxxx
[605000] ALU OP: 0010, A=0000000000000000, B=0000000000000000, Result=0000000000000000
[615000] REG MONITOR: x12=0000000000000003 x13=0000000000000000 x16=0000000000000000 x17=0000000000000000 x18=0000000000000000 x19=0000000000000000 x20=0000000000000000
[625000] REG MONITOR: x12=0000000000000003 x13=0000000000000000 x16=0000000000000000 x17=0000000000000000 x18=0000000000000000 x19=0000000000000000 x20=0000000000000000
[625000] ALU OP: 0010, A=0000000000000007, B=ffffffffffffffff, Result=0000000000000006
[635000] REG MONITOR: x12=0000000000000003 x13=0000000000000000 x16=0000000000000000 x17=0000000000000000 x18=0000000000000000 x19=0000000000000000 x20=0000000000000000
[635000] ALU OP: 0011, A=0000000000000007, B=ffffffffffffffff, Result=0000000000000008
[635000] ALU OP: 0011, A=0000000000000003, B=0000000000000000, Result=0000000000000003
[635000] ALU OP: 0011, A=0000000000000003, B=0000000000000006, Result=fffffffffffffffd
[645000] REG MONITOR: x12=0000000000000003 x13=0000000000000000 x16=0000000000000000 x17=0000000000000000 x18=0000000000000000 x19=0000000000000000 x20=0000000000000000
[645000] ALU OP: 0010, A=0000000000000003, B=0000000000000006, Result=0000000000000009
[645000] ALU OP: 0010, A=0000000000000007, B=ffffffffffffffff, Result=0000000000000006
[655000] REG MONITOR: x12=0000000000000003 x13=0000000000000000 x16=0000000000000000 x17=0000000000000000 x18=0000000000000000 x19=0000000000000000 x20=0000000000000000
[655000] ALU OP: 0011, A=0000000000000007, B=ffffffffffffffff, Result=0000000000000008
[655000] ALU OP: 0011, A=0000000000000006, B=0000000000000000, Result=0000000000000006
[655000] ALU OP: 0011, A=0000000000000006, B=0000000000000003, Result=0000000000000003
[665000] REG MONITOR: x12=0000000000000003 x13=0000000000000000 x16=0000000000000000 x17=0000000000000000 x18=0000000000000000 x19=0000000000000000 x20=0000000000000000
[665000] ALU OP: 0011, A=0000000000000000, B=0000000000000003, Result=fffffffffffffffd
[675000] REG MONITOR: x12=0000000000000003 x13=0000000000000000 x16=0000000000000000 x17=0000000000000000 x18=0000000000000000 x19=0000000000000000 x20=0000000000000000
[675000] ALU OP: 0010, A=0000000000000000, B=0000000000000003, Result=0000000000000003
[675000] ALU OP: 0010, A=0000000000000000, B=0000000000000000, Result=0000000000000000
[685000] REG MONITOR: x12=0000000000000003 x13=0000000000000000 x16=0000000000000000 x17=0000000000000000 x18=0000000000000000 x19=0000000000000000 x20=0000000000000000
[685000] ALU OP: 0010, A=xxxxxxxxxxxxxxxx, B=0000000000000000, Result=xxxxxxxxxxxxxxxx
[685000] ALU OP: 0010, A=xxxxxxxxxxxxxxxx, B=xxxxxxxxxxxxxxxx, Result=xxxxxxxxxxxxxxxx
[695000] REG MONITOR: x12=0000000000000003 x13=0000000000000000 x16=0000000000000000 x17=0000000000000000 x18=0000000000000000 x19=0000000000000000 x20=0000000000000000
[705000] REG MONITOR: x12=0000000000000003 x13=0000000000000000 x16=0000000000000000 x17=0000000000000000 x18=0000000000000000 x19=0000000000000000 x20=0000000000000000
[705000] ALU OP: 0010, A=0000000000000003, B=0000000000000001, Result=0000000000000004
[715000] REG MONITOR: x12=0000000000000003 x13=0000000000000000 x16=0000000000000000 x17=0000000000000000 x18=0000000000000000 x19=0000000000000000 x20=0000000000000000
[715000] ALU OP: 0011, A=0000000000000003, B=0000000000000001, Result=0000000000000002
[715000] ALU OP: 0011, A=0000000000000000, B=0000000000000009, Result=fffffffffffffff7
[715000] ALU OP: 0011, A=0000000000000000, B=0000000000000000, Result=0000000000000000
[725000] REG MONITOR: x12=0000000000000003 x13=0000000000000000 x16=0000000000000000 x17=0000000000000000 x18=0000000000000000 x19=0000000000000000 x20=0000000000000000
[725000] ALU OP: 0010, A=0000000000000000, B=0000000000000000, Result=0000000000000000
[735000] REG MONITOR: x12=0000000000000004 x13=0000000000000000 x16=0000000000000000 x17=0000000000000000 x18=0000000000000000 x19=0000000000000000 x20=0000000000000000
[735000] ALU OP: 0010, A=xxxxxxxxxxxxxxxx, B=0000000000000000, Result=xxxxxxxxxxxxxxxx
[735000] ALU OP: 0010, A=xxxxxxxxxxxxxxxx, B=xxxxxxxxxxxxxxxx, Result=xxxxxxxxxxxxxxxx
[745000] REG MONITOR: x12=0000000000000004 x13=0000000000000000 x16=0000000000000000 x17=0000000000000000 x18=0000000000000000 x19=0000000000000000 x20=0000000000000000
[745000] ALU OP: 0010, A=0000000000000000, B=xxxxxxxxxxxxxxxx, Result=xxxxxxxxxxxxxxxx
[745000] ALU OP: 0010, A=0000000000000000, B=0000000000000000, Result=0000000000000000
[755000] REG MONITOR: x12=0000000000000004 x13=0000000000000000 x16=0000000000000000 x17=0000000000000000 x18=0000000000000000 x19=0000000000000000 x20=0000000000000000
[765000] REG MONITOR: x12=0000000000000004 x13=0000000000000000 x16=0000000000000000 x17=0000000000000000 x18=0000000000000000 x19=0000000000000000 x20=0000000000000000
[765000] ALU OP: 0010, A=0000000000000007, B=ffffffffffffffff, Result=0000000000000006
[775000] REG MONITOR: x12=0000000000000004 x13=0000000000000000 x16=0000000000000000 x17=0000000000000000 x18=0000000000000000 x19=0000000000000000 x20=0000000000000000
[775000] ALU OP: 0011, A=0000000000000007, B=ffffffffffffffff, Result=0000000000000008
[775000] ALU OP: 0011, A=0000000000000004, B=0000000000000000, Result=0000000000000004
[775000] ALU OP: 0011, A=0000000000000004, B=0000000000000006, Result=fffffffffffffffe
[785000] REG MONITOR: x12=0000000000000004 x13=0000000000000000 x16=0000000000000000 x17=0000000000000000 x18=0000000000000000 x19=0000000000000000 x20=0000000000000000
[785000] ALU OP: 0010, A=0000000000000004, B=0000000000000006, Result=000000000000000a
[785000] ALU OP: 0010, A=0000000000000007, B=ffffffffffffffff, Result=0000000000000006
[795000] REG MONITOR: x12=0000000000000004 x13=0000000000000000 x16=0000000000000000 x17=0000000000000000 x18=0000000000000000 x19=0000000000000000 x20=0000000000000000
[795000] ALU OP: 0011, A=0000000000000007, B=ffffffffffffffff, Result=0000000000000008
[795000] ALU OP: 0011, A=0000000000000006, B=0000000000000000, Result=0000000000000006
[795000] ALU OP: 0011, A=0000000000000006, B=0000000000000004, Result=0000000000000002
[805000] REG MONITOR: x12=0000000000000004 x13=0000000000000000 x16=0000000000000000 x17=0000000000000000 x18=0000000000000000 x19=0000000000000000 x20=0000000000000000
[805000] ALU OP: 0011, A=0000000000000000, B=0000000000000004, Result=fffffffffffffffc
[805000] ALU OP: 0011, A=0000000000000000, B=0000000000000002, Result=fffffffffffffffe
[815000] REG MONITOR: x12=0000000000000004 x13=0000000000000000 x16=0000000000000000 x17=0000000000000000 x18=0000000000000000 x19=0000000000000000 x20=0000000000000000
[815000] ALU OP: 0010, A=0000000000000000, B=0000000000000002, Result=0000000000000002
[815000] ALU OP: 0010, A=0000000000000000, B=0000000000000000, Result=0000000000000000
[825000] REG MONITOR: x12=0000000000000004 x13=0000000000000000 x16=0000000000000000 x17=0000000000000000 x18=0000000000000000 x19=0000000000000000 x20=0000000000000000
[825000] ALU OP: 0010, A=xxxxxxxxxxxxxxxx, B=0000000000000000, Result=xxxxxxxxxxxxxxxx
[825000] ALU OP: 0010, A=xxxxxxxxxxxxxxxx, B=xxxxxxxxxxxxxxxx, Result=xxxxxxxxxxxxxxxx
[835000] REG MONITOR: x12=0000000000000004 x13=0000000000000000 x16=0000000000000000 x17=0000000000000000 x18=0000000000000000 x19=0000000000000000 x20=0000000000000000
[845000] REG MONITOR: x12=0000000000000004 x13=0000000000000000 x16=0000000000000000 x17=0000000000000000 x18=0000000000000000 x19=0000000000000000 x20=0000000000000000
[845000] ALU OP: 0010, A=0000000000000004, B=0000000000000001, Result=0000000000000005
[855000] REG MONITOR: x12=0000000000000004 x13=0000000000000000 x16=0000000000000000 x17=0000000000000000 x18=0000000000000000 x19=0000000000000000 x20=0000000000000000
[855000] ALU OP: 0011, A=0000000000000004, B=0000000000000001, Result=0000000000000003
[855000] ALU OP: 0011, A=0000000000000000, B=0000000000000009, Result=fffffffffffffff7
[855000] ALU OP: 0011, A=0000000000000000, B=0000000000000000, Result=0000000000000000
[865000] REG MONITOR: x12=0000000000000004 x13=0000000000000000 x16=0000000000000000 x17=0000000000000000 x18=0000000000000000 x19=0000000000000000 x20=0000000000000000
[865000] ALU OP: 0010, A=0000000000000000, B=0000000000000000, Result=0000000000000000
[875000] REG MONITOR: x12=0000000000000005 x13=0000000000000000 x16=0000000000000000 x17=0000000000000000 x18=0000000000000000 x19=0000000000000000 x20=0000000000000000
[875000] ALU OP: 0010, A=xxxxxxxxxxxxxxxx, B=0000000000000000, Result=xxxxxxxxxxxxxxxx
[875000] ALU OP: 0010, A=xxxxxxxxxxxxxxxx, B=xxxxxxxxxxxxxxxx, Result=xxxxxxxxxxxxxxxx
[885000] REG MONITOR: x12=0000000000000005 x13=0000000000000000 x16=0000000000000000 x17=0000000000000000 x18=0000000000000000 x19=0000000000000000 x20=0000000000000000
[885000] ALU OP: 0010, A=0000000000000000, B=xxxxxxxxxxxxxxxx, Result=xxxxxxxxxxxxxxxx
[885000] ALU OP: 0010, A=0000000000000000, B=0000000000000000, Result=0000000000000000
[895000] REG MONITOR: x12=0000000000000005 x13=0000000000000000 x16=0000000000000000 x17=0000000000000000 x18=0000000000000000 x19=0000000000000000 x20=0000000000000000
[905000] REG MONITOR: x12=0000000000000005 x13=0000000000000000 x16=0000000000000000 x17=0000000000000000 x18=0000000000000000 x19=0000000000000000 x20=0000000000000000
[905000] ALU OP: 0010, A=0000000000000007, B=ffffffffffffffff, Result=0000000000000006
[915000] REG MONITOR: x12=0000000000000005 x13=0000000000000000 x16=0000000000000000 x17=0000000000000000 x18=0000000000000000 x19=0000000000000000 x20=0000000000000000
[915000] ALU OP: 0011, A=0000000000000007, B=ffffffffffffffff, Result=0000000000000008
[915000] ALU OP: 0011, A=0000000000000005, B=0000000000000000, Result=0000000000000005
[915000] ALU OP: 0011, A=0000000000000005, B=0000000000000006, Result=ffffffffffffffff
[925000] REG MONITOR: x12=0000000000000005 x13=0000000000000000 x16=0000000000000000 x17=0000000000000000 x18=0000000000000000 x19=0000000000000000 x20=0000000000000000
[925000] ALU OP: 0010, A=0000000000000005, B=0000000000000006, Result=000000000000000b
[925000] ALU OP: 0010, A=0000000000000007, B=ffffffffffffffff, Result=0000000000000006
[935000] REG MONITOR: x12=0000000000000005 x13=0000000000000000 x16=0000000000000000 x17=0000000000000000 x18=0000000000000000 x19=0000000000000000 x20=0000000000000000
[935000] ALU OP: 0011, A=0000000000000007, B=ffffffffffffffff, Result=0000000000000008
[935000] ALU OP: 0011, A=0000000000000006, B=0000000000000000, Result=0000000000000006
[935000] ALU OP: 0011, A=0000000000000006, B=0000000000000005, Result=0000000000000001
[945000] REG MONITOR: x12=0000000000000005 x13=0000000000000000 x16=0000000000000000 x17=0000000000000000 x18=0000000000000000 x19=0000000000000000 x20=0000000000000000
[945000] ALU OP: 0011, A=0000000000000000, B=0000000000000005, Result=fffffffffffffffb
[945000] ALU OP: 0011, A=0000000000000000, B=0000000000000001, Result=ffffffffffffffff
[955000] REG MONITOR: x12=0000000000000005 x13=0000000000000000 x16=0000000000000000 x17=0000000000000000 x18=0000000000000000 x19=0000000000000000 x20=0000000000000000
