CA_proj/CA_proj.sim/sim_1/behav/xsim/simulate.log
Vivado Simulator 2020.1
Time resolution is 1 ps
[5000] REG MONITOR: x12=0000000000000000 x13=0000000000000000 x16=0000000000000000 x17=0000000000000000 x18=0000000000000000 x19=0000000000000000 x20=0000000000000000
[5000] ALU OP: 0010, A=xxxxxxxxxxxxxxxx, B=xxxxxxxxxxxxxxxx, Result=xxxxxxxxxxxxxxxx
[5000] ALU OP: 0010, A=0000000000000000, B=xxxxxxxxxxxxxxxx, Result=xxxxxxxxxxxxxxxx
[5000] ALU OP: 0010, A=0000000000000000, B=0000000000000000, Result=0000000000000000
[15000] REG MONITOR: x12=0000000000000000 x13=0000000000000000 x16=0000000000000000 x17=0000000000000000 x18=0000000000000000 x19=0000000000000000 x20=0000000000000000
[25000] REG MONITOR: x12=0000000000000000 x13=0000000000000000 x16=0000000000000000 x17=0000000000000000 x18=0000000000000000 x19=0000000000000000 x20=0000000000000000
[25000] ALU OP: 0010, A=0000000000000000, B=0000000000000009, Result=0000000000000009
[35000] REG MONITOR: x12=0000000000000000 x13=0000000000000000 x16=0000000000000000 x17=0000000000000000 x18=0000000000000000 x19=0000000000000000 x20=0000000000000000
[35000] ALU OP: 0010, A=0000000000000000, B=0000000000000002, Result=0000000000000002
[45000] REG MONITOR: x12=0000000000000000 x13=0000000000000000 x16=0000000000000000 x17=0000000000000000 x18=0000000000000000 x19=0000000000000000 x20=0000000000000000
[45000] ALU OP: 0010, A=0000000000000000, B=0000000000000007, Result=0000000000000007
[55000] REG MONITOR: x12=0000000000000000 x13=0000000000000000 x16=0000000000000000 x17=0000000000000000 x18=0000000000000000 x19=0000000000000000 x20=0000000000000000
[55000] ALU OP: 0010, A=0000000000000000, B=0000000000000001, Result=0000000000000001
[65000] REG MONITOR: x12=0000000000000000 x13=0000000000000000 x16=0000000000000000 x17=0000000000000000 x18=0000000000000000 x19=0000000000000000 x20=0000000000000000
[65000] ALU OP: 0010, A=0000000000000000, B=0000000000000008, Result=0000000000000008
[75000] REG MONITOR: x12=0000000000000000 x13=0000000000000000 x16=0000000000000000 x17=0000000000000000 x18=0000000000000000 x19=0000000000000000 x20=0000000000000000
[75000] ALU OP: 0010, A=0000000000000000, B=0000000000000004, Result=0000000000000004
[85000] REG MONITOR: x12=0000000000000000 x13=0000000000000000 x16=0000000000000000 x17=0000000000000000 x18=0000000000000000 x19=0000000000000000 x20=0000000000000000
[85000] ALU OP: 0010, A=0000000000000000, B=0000000000000006, Result=0000000000000006
[95000] REG MONITOR: x12=0000000000000000 x13=0000000000000000 x16=0000000000000000 x17=0000000000000000 x18=0000000000000000 x19=0000000000000000 x20=0000000000000000
[95000] ALU OP: 0010, A=0000000000000000, B=0000000000000100, Result=0000000000000100
[105000] REG MONITOR: x12=0000000000000000 x13=0000000000000000 x16=0000000000000000 x17=0000000000000000 x18=0000000000000000 x19=0000000000000000 x20=0000000000000000
[105000] ALU OP: 0010, A=0000000000000000, B=0000000000000104, Result=0000000000000104
[115000] REG MONITOR: x12=0000000000000000 x13=0000000000000000 x16=0000000000000000 x17=0000000000000000 x18=0000000000000000 x19=0000000000000000 x20=0000000000000000
[115000] ALU OP: 0010, A=0000000000000000, B=0000000000000108, Result=0000000000000108
[125000] REG MONITOR: x12=0000000000000000 x13=0000000000000000 x16=0000000000000000 x17=0000000000000000 x18=0000000000000000 x19=0000000000000000 x20=0000000000000000
[125000] ALU OP: 0010, A=0000000000000000, B=000000000000010c, Result=000000000000010c
[135000] REG MONITOR: x12=0000000000000000 x13=0000000000000000 x16=0000000000000000 x17=0000000000000000 x18=0000000000000000 x19=0000000000000000 x20=0000000000000000
[135000] ALU OP: 0010, A=0000000000000000, B=0000000000000110, Result=0000000000000110
[145000] REG MONITOR: x12=0000000000000000 x13=0000000000000000 x16=0000000000000000 x17=0000000000000000 x18=0000000000000000 x19=0000000000000000 x20=0000000000000000
[145000] ALU OP: 0010, A=0000000000000000, B=0000000000000114, Result=0000000000000114
[155000] REG MONITOR: x12=0000000000000000 x13=0000000000000000 x16=0000000000000000 x17=0000000000000000 x18=0000000000000000 x19=0000000000000000 x20=0000000000000000
[155000] ALU OP: 0010, A=0000000000000000, B=0000000000000118, Result=0000000000000118
[165000] REG MONITOR: x12=0000000000000000 x13=0000000000000000 x16=0000000000000000 x17=0000000000000000 x18=0000000000000000 x19=0000000000000000 x20=0000000000000000
[165000] ALU OP: 0010, A=0000000000000000, B=0000000000000100, Result=0000000000000100
[175000] REG MONITOR: x12=0000000000000000 x13=0000000000000000 x16=0000000000000000 x17=0000000000000000 x18=0000000000000000 x19=0000000000000000 x20=0000000000000000
[175000] ALU OP: 0010, A=0000000000000000, B=0000000000000007, Result=0000000000000007
[185000] REG MONITOR: x12=0000000000000000 x13=0000000000000000 x16=0000000000000000 x17=0000000000000000 x18=0000000000000000 x19=0000000000000000 x20=0000000000000000
[185000] ALU OP: 0010, A=0000000000000000, B=0000000000000000, Result=0000000000000000
[195000] REG MONITOR: x12=0000000000000000 x13=0000000000000000 x16=0000000000000000 x17=0000000000000000 x18=0000000000000000 x19=0000000000000000 x20=0000000000000000
[205000] REG MONITOR: x12=0000000000000000 x13=0000000000000000 x16=0000000000000000 x17=0000000000000000 x18=0000000000000000 x19=0000000000000000 x20=0000000000000000
[205000] ALU OP: 0010, A=0000000000000007, B=ffffffffffffffff, Result=0000000000000006
[215000] REG MONITOR: x12=0000000000000000 x13=0000000000000000 x16=0000000000000000 x17=0000000000000000 x18=0000000000000000 x19=0000000000000000 x20=0000000000000000
[215000] ALU OP: 0011, A=0000000000000007, B=ffffffffffffffff, Result=0000000000000008
[215000] ALU OP: 0011, A=0000000000000000, B=0000000000000000, Result=0000000000000000
[215000] ALU OP: 0011, A=0000000000000000, B=0000000000000006, Result=fffffffffffffffa
[225000] REG MONITOR: x12=0000000000000000 x13=0000000000000000 x16=0000000000000000 x17=0000000000000000 x18=0000000000000000 x19=0000000000000000 x20=0000000000000000
[225000] ALU OP: 0010, A=0000000000000000, B=0000000000000006, Result=0000000000000006
[225000] ALU OP: 0010, A=0000000000000007, B=ffffffffffffffff, Result=0000000000000006
[235000] REG MONITOR: x12=0000000000000000 x13=0000000000000000 x16=0000000000000000 x17=0000000000000000 x18=0000000000000000 x19=0000000000000000 x20=0000000000000000
[235000] ALU OP: 0011, A=0000000000000007, B=ffffffffffffffff, Result=0000000000000008
[235000] ALU OP: 0011, A=0000000000000006, B=0000000000000000, Result=0000000000000006
[245000] REG MONITOR: x12=0000000000000000 x13=0000000000000000 x16=0000000000000000 x17=0000000000000000 x18=0000000000000000 x19=0000000000000000 x20=0000000000000000
[245000] ALU OP: 0010, A=0000000000000006, B=0000000000000000, Result=0000000000000006
[245000] ALU OP: 0010, A=0000000000000000, B=0000000000000000, Result=0000000000000000
[255000] REG MONITOR: x12=0000000000000000 x13=0000000000000000 x16=0000000000000000 x17=0000000000000000 x18=0000000000000000 x19=0000000000000000 x20=0000000000000000
[265000] REG MONITOR: x12=0000000000000000 x13=0000000000000000 x16=0000000000000000 x17=0000000000000000 x18=0000000000000000 x19=0000000000000000 x20=0000000000000000
[265000] ALU OP: 0010, A=xxxxxxxxxxxxxxxx, B=0000000000000000, Result=xxxxxxxxxxxxxxxx
[265000] ALU OP: 0010, A=xxxxxxxxxxxxxxxx, B=xxxxxxxxxxxxxxxx, Result=xxxxxxxxxxxxxxxx
[275000] REG MONITOR: x12=0000000000000000 x13=0000000000000000 x16=0000000000000000 x17=0000000000000000 x18=0000000000000000 x19=0000000000000000 x20=0000000000000000
[285000] REG MONITOR: x12=0000000000000000 x13=0000000000000000 x16=0000000000000000 x17=0000000000000000 x18=0000000000000000 x19=0000000000000000 x20=0000000000000000
[295000] REG MONITOR: x12=0000000000000000 x13=0000000000000000 x16=0000000000000000 x17=0000000000000000 x18=0000000000000000 x19=0000000000000000 x20=0000000000000000
[305000] REG MONITOR: x12=0000000000000000 x13=0000000000000000 x16=0000000000000000 x17=0000000000000000 x18=0000000000000000 x19=0000000000000000 x20=0000000000000000
[315000] REG MONITOR: x12=0000000000000000 x13=0000000000000000 x16=0000000000000000 x17=0000000000000000 x18=0000000000000000 x19=0000000000000000 x20=0000000000000000
[325000] REG MONITOR: x12=0000000000000000 x13=0000000000000000 x16=0000000000000000 x17=0000000000000000 x18=0000000000000000 x19=0000000000000000 x20=0000000000000000
[335000] REG MONITOR: x12=0000000000000000 x13=0000000000000000 x16=0000000000000000 x17=0000000000000000 x18=0000000000000000 x19=0000000000000000 x20=0000000000000000
[345000] REG MONITOR: x12=0000000000000000 x13=0000000000000000 x16=0000000000000000 x17=0000000000000000 x18=0000000000000000 x19=0000000000000000 x20=0000000000000000
[355000] REG MONITOR: x12=0000000000000000 x13=0000000000000000 x16=0000000000000000 x17=0000000000000000 x18=0000000000000000 x19=0000000000000000 x20=0000000000000000
[365000] REG MONITOR: x12=0000000000000000 x13=0000000000000000 x16=0000000000000000 x17=0000000000000000 x18=0000000000000000 x19=0000000000000000 x20=0000000000000000
[375000] REG MONITOR: x12=0000000000000000 x13=0000000000000000 x16=0000000000000000 x17=0000000000000000 x18=0000000000000000 x19=0000000000000000 x20=0000000000000000
[385000] REG MONITOR: x12=0000000000000000 x13=0000000000000000 x16=0000000000000000 x17=0000000000000000 x18=0000000000000000 x19=0000000000000000 x20=0000000000000000
[395000] REG MONITOR: x12=0000000000000000 x13=0000000000000000 x16=0000000000000000 x17=0000000000000000 x18=0000000000000000 x19=0000000000000000 x20=0000000000000000
[405000] REG MONITOR: x12=0000000000000000 x13=0000000000000000 x16=0000000000000000 x17=0000000000000000 x18=0000000000000000 x19=0000000000000000 x20=0000000000000000
[415000] REG MONITOR: x12=0000000000000000 x13=0000000000000000 x16=0000000000000000 x17=0000000000000000 x18=0000000000000000 x19=0000000000000000 x20=0000000000000000
[425000] REG MONITOR: x12=0000000000000000 x13=0000000000000000 x16=0000000000000000 x17=0000000000000000 x18=0000000000000000 x19=0000000000000000 x20=0000000000000000
[435000] REG MONITOR: x12=0000000000000000 x13=0000000000000000 x16=0000000000000000 x17=0000000000000000 x18=0000000000000000 x19=0000000000000000 x20=0000000000000000
[445000] REG MONITOR: x12=0000000000000000 x13=0000000000000000 x16=0000000000000000 x17=0000000000000000 x18=0000000000000000 x19=0000000000000000 x20=0000000000000000
[455000] REG MONITOR: x12=0000000000000000 x13=0000000000000000 x16=0000000000000000 x17=0000000000000000 x18=0000000000000000 x19=0000000000000000 x20=0000000000000000
[465000] REG MONITOR: x12=0000000000000000 x13=0000000000000000 x16=0000000000000000 x17=0000000000000000 x18=0000000000000000 x19=0000000000000000 x20=0000000000000000
[475000] REG MONITOR: x12=0000000000000000 x13=0000000000000000 x16=0000000000000000 x17=0000000000000000 x18=0000000000000000 x19=0000000000000000 x20=0000000000000000
[485000] REG MONITOR: x12=0000000000000000 x13=0000000000000000 x16=0000000000000000 x17=0000000000000000 x18=0000000000000000 x19=0000000000000000 x20=0000000000000000
[495000] REG MONITOR: x12=0000000000000000 x13=0000000000000000 x16=0000000000000000 x17=0000000000000000 x18=0000000000000000 x19=0000000000000000 x20=0000000000000000
[505000] REG MONITOR: x12=0000000000000000 x13=0000000000000000 x16=0000000000000000 x17=0000000000000000 x18=0000000000000000 x19=0000000000000000 x20=0000000000000000
[515000] REG MONITOR: x12=0000000000000000 x13=0000000000000000 x16=0000000000000000 x17=0000000000000000 x18=0000000000000000 x19=0000000000000000 x20=0000000000000000
[525000] REG MONITOR: x12=0000000000000000 x13=0000000000000000 x16=0000000000000000 x17=0000000000000000 x18=0000000000000000 x19=0000000000000000 x20=0000000000000000
[535000] REG MONITOR: x12=0000000000000000 x13=0000000000000000 x16=0000000000000000 x17=0000000000000000 x18=0000000000000000 x19=0000000000000000 x20=0000000000000000
[545000] REG MONITOR: x12=0000000000000000 x13=0000000000000000 x16=0000000000000000 x17=0000000000000000 x18=0000000000000000 x19=0000000000000000 x20=0000000000000000
[555000] REG MONITOR: x12=0000000000000000 x13=0000000000000000 x16=0000000000000000 x17=0000000000000000 x18=0000000000000000 x19=0000000000000000 x20=0000000000000000
[565000] REG MONITOR: x12=0000000000000000 x13=0000000000000000 x16=0000000000000000 x17=0000000000000000 x18=0000000000000000 x19=0000000000000000 x20=0000000000000000
[575000] REG MONITOR: x12=0000000000000000 x13=0000000000000000 x16=0000000000000000 x17=0000000000000000 x18=0000000000000000 x19=0000000000000000 x20=0000000000000000
[585000] REG MONITOR: x12=0000000000000000 x13=0000000000000000 x16=0000000000000000 x17=0000000000000000 x18=0000000000000000 x19=0000000000000000 x20=0000000000000000
[595000] REG MONITOR: x12=0000000000000000 x13=0000000000000000 x16=0000000000000000 x17=0000000000000000 x18=0000000000000000 x19=0000000000000000 x20=0000000000000000
[605000] REG MONITOR: x12=0000000000000000 x13=0000000000000000 x16=0000000000000000 x17=0000000000000000 x18=0000000000000000 x19=0000000000000000 x20=0000000000000000
[615000] REG MONITOR: x12=0000000000000000 x13=0000000000000000 x16=0000000000000000 x17=0000000000000000 x18=0000000000000000 x19=0000000000000000 x20=0000000000000000
[625000] REG MONITOR: x12=0000000000000000 x13=0000000000000000 x16=0000000000000000 x17=0000000000000000 x18=0000000000000000 x19=0000000000000000 x20=0000000000000000
[635000] REG MONITOR: x12=0000000000000000 x13=0000000000000000 x16=0000000000000000 x17=0000000000000000 x18=0000000000000000 x19=0000000000000000 x20=0000000000000000
[645000] REG MONITOR: x12=0000000000000000 x13=0000000000000000 x16=0000000000000000 x17=0000000000000000 x18=0000000000000000 x19=0000000000000000 x20=0000000000000000
[655000] REG MONITOR: x12=0000000000000000 x13=0000000000000000 x16=0000000000000000 x17=0000000000000000 x18=0000000000000000 x19=0000000000000000 x20=0000000000000000
[665000] REG MONITOR: x12=0000000000000000 x13=0000000000000000 x16=0000000000000000 x17=0000000000000000 x18=0000000000000000 x19=0000000000000000 x20=0000000000000000
[675000] REG MONITOR: x12=0000000000000000 x13=0000000000000000 x16=0000000000000000 x17=0000000000000000 x18=0000000000000000 x19=0000000000000000 x20=0000000000000000
[685000] REG MONITOR: x12=0000000000000000 x13=0000000000000000 x16=0000000000000000 x17=0000000000000000 x18=0000000000000000 x19=0000000000000000 x20=0000000000000000
[695000] REG MONITOR: x12=0000000000000000 x13=0000000000000000 x16=0000000000000000 x17=0000000000000000 x18=0000000000000000 x19=0000000000000000 x20=0000000000000000
[705000] REG MONITOR: x12=0000000000000000 x13=0000000000000000 x16=0000000000000000 x17=0000000000000000 x18=0000000000000000 x19=0000000000000000 x20=0000000000000000
[715000] REG MONITOR: x12=0000000000000000 x13=0000000000000000 x16=0000000000000000 x17=0000000000000000 x18=0000000000000000 x19=0000000000000000 x20=0000000000000000
[725000] REG MONITOR: x12=0000000000000000 x13=0000000000000000 x16=0000000000000000 x17=0000000000000000 x18=0000000000000000 x19=0000000000000000 x20=0000000000000000
[735000] REG MONITOR: x12=0000000000000000 x13=0000000000000000 x16=0000000000000000 x17=0000000000000000 x18=0000000000000000 x19=0000000000000000 x20=0000000000000000
[745000] REG MONITOR: x12=0000000000000000 x13=0000000000000000 x16=0000000000000000 x17=0000000000000000 x18=0000000000000000 x19=0000000000000000 x20=0000000000000000
[755000] REG MONITOR: x12=0000000000000000 x13=0000000000000000 x16=0000000000000000 x17=0000000000000000 x18=0000000000000000 x19=0000000000000000 x20=0000000000000000
[765000] REG MONITOR: x12=0000000000000000 x13=0000000000000000 x16=0000000000000000 x17=0000000000000000 x18=0000000000000000 x19=0000000000000000 x20=0000000000000000
[775000] REG MONITOR: x12=0000000000000000 x13=0000000000000000 x16=0000000000000000 x17=0000000000000000 x18=0000000000000000 x19=0000000000000000 x20=0000000000000000
[785000] REG MONITOR: x12=0000000000000000 x13=0000000000000000 x16=0000000000000000 x17=0000000000000000 x18=0000000000000000 x19=0000000000000000 x20=0000000000000000
[795000] REG MONITOR: x12=0000000000000000 x13=0000000000000000 x16=0000000000000000 x17=0000000000000000 x18=0000000000000000 x19=0000000000000000 x20=0000000000000000
[805000] REG MONITOR: x12=0000000000000000 x13=0000000000000000 x16=0000000000000000 x17=0000000000000000 x18=0000000000000000 x19=0000000000000000 x20=0000000000000000
[815000] REG MONITOR: x12=0000000000000000 x13=0000000000000000 x16=0000000000000000 x17=0000000000000000 x18=0000000000000000 x19=0000000000000000 x20=0000000000000000
[825000] REG MONITOR: x12=0000000000000000 x13=0000000000000000 x16=0000000000000000 x17=0000000000000000 x18=0000000000000000 x19=0000000000000000 x20=0000000000000000
[835000] REG MONITOR: x12=0000000000000000 x13=0000000000000000 x16=0000000000000000 x17=0000000000000000 x18=0000000000000000 x19=0000000000000000 x20=0000000000000000
[845000] REG MONITOR: x12=0000000000000000 x13=0000000000000000 x16=0000000000000000 x17=0000000000000000 x18=0000000000000000 x19=0000000000000000 x20=0000000000000000
[855000] REG MONITOR: x12=0000000000000000 x13=0000000000000000 x16=0000000000000000 x17=0000000000000000 x18=0000000000000000 x19=0000000000000000 x20=0000000000000000
[865000] REG MONITOR: x12=0000000000000000 x13=0000000000000000 x16=0000000000000000 x17=0000000000000000 x18=0000000000000000 x19=0000000000000000 x20=0000000000000000
[875000] REG MONITOR: x12=0000000000000000 x13=0000000000000000 x16=0000000000000000 x17=0000000000000000 x18=0000000000000000 x19=0000000000000000 x20=0000000000000000
[885000] REG MONITOR: x12=0000000000000000 x13=0000000000000000 x16=0000000000000000 x17=0000000000000000 x18=0000000000000000 x19=0000000000000000 x20=0000000000000000
[895000] REG MONITOR: x12=0000000000000000 x13=0000000000000000 x16=0000000000000000 x17=0000000000000000 x18=0000000000000000 x19=0000000000000000 x20=0000000000000000
[905000] REG MONITOR: x12=0000000000000000 x13=0000000000000000 x16=0000000000000000 x17=0000000000000000 x18=0000000000000000 x19=0000000000000000 x20=0000000000000000
[915000] REG MONITOR: x12=0000000000000000 x13=0000000000000000 x16=0000000000000000 x17=0000000000000000 x18=0000000000000000 x19=0000000000000000 x20=0000000000000000
[925000] REG MONITOR: x12=0000000000000000 x13=0000000000000000 x16=0000000000000000 x17=0000000000000000 x18=0000000000000000 x19=0000000000000000 x20=0000000000000000
[935000] REG MONITOR: x12=0000000000000000 x13=0000000000000000 x16=0000000000000000 x17=0000000000000000 x18=0000000000000000 x19=0000000000000000 x20=0000000000000000
[945000] REG MONITOR: x12=0000000000000000 x13=0000000000000000 x16=0000000000000000 x17=0000000000000000 x18=0000000000000000 x19=0000000000000000 x20=0000000000000000
[955000] REG MONITOR: x12=0000000000000000 x13=0000000000000000 x16=0000000000000000 x17=0000000000000000 x18=0000000000000000 x19=0000000000000000 x20=0000000000000000
[965000] REG MONITOR: x12=0000000000000000 x13=0000000000000000 x16=0000000000000000 x17=0000000000000000 x18=0000000000000000 x19=0000000000000000 x20=0000000000000000
[975000] REG MONITOR: x12=0000000000000000 x13=0000000000000000 x16=0000000000000000 x17=0000000000000000 x18=0000000000000000 x19=0000000000000000 x20=0000000000000000
[985000] REG MONITOR: x12=0000000000000000 x13=0000000000000000 x16=0000000000000000 x17=0000000000000000 x18=0000000000000000 x19=0000000000000000 x20=0000000000000000
[995000] REG MONITOR: x12=0000000000000000 x13=0000000000000000 x16=0000000000000000 x17=0000000000000000 x18=0000000000000000 x19=0000000000000000 x20=0000000000000000
[1005000] REG MONITOR: x12=0000000000000000 x13=0000000000000000 x16=0000000000000000 x17=0000000000000000 x18=0000000000000000 x19=0000000000000000 x20=0000000000000000
[1015000] REG MONITOR: x12=0000000000000000 x13=0000000000000000 x16=0000000000000000 x17=0000000000000000 x18=0000000000000000 x19=0000000000000000 x20=0000000000000000
[1025000] REG MONITOR: x12=0000000000000000 x13=0000000000000000 x16=0000000000000000 x17=0000000000000000 x18=0000000000000000 x19=0000000000000000 x20=0000000000000000
[1035000] REG MONITOR: x12=0000000000000000 x13=0000000000000000 x16=0000000000000000 x17=0000000000000000 x18=0000000000000000 x19=0000000000000000 x20=0000000000000000
[1045000] REG MONITOR: x12=0000000000000000 x13=0000000000000000 x16=0000000000000000 x17=0000000000000000 x18=0000000000000000 x19=0000000000000000 x20=0000000000000000
[1055000] REG MONITOR: x12=0000000000000000 x13=0000000000000000 x16=0000000000000000 x17=0000000000000000 x18=0000000000000000 x19=0000000000000000 x20=0000000000000000
[1065000] REG MONITOR: x12=0000000000000000 x13=0000000000000000 x16=0000000000000000 x17=0000000000000000 x18=0000000000000000 x19=0000000000000000 x20=0000000000000000
[1075000] REG MONITOR: x12=0000000000000000 x13=0000000000000000 x16=0000000000000000 x17=0000000000000000 x18=0000000000000000 x19=0000000000000000 x20=0000000000000000
[1085000] REG MONITOR: x12=0000000000000000 x13=0000000000000000 x16=0000000000000000 x17=0000000000000000 x18=0000000000000000 x19=0000000000000000 x20=0000000000000000
[1095000] REG MONITOR: x12=0000000000000000 x13=0000000000000000 x16=0000000000000000 x17=0000000000000000 x18=0000000000000000 x19=0000000000000000 x20=0000000000000000
[1105000] REG MONITOR: x12=0000000000000000 x13=0000000000000000 x16=0000000000000000 x17=0000000000000000 x18=0000000000000000 x19=0000000000000000 x20=0000000000000000
[1115000] REG MONITOR: x12=0000000000000000 x13=0000000000000000 x16=0000000000000000 x17=0000000000000000 x18=0000000000000000 x19=0000000000000000 x20=0000000000000000
[1125000] REG MONITOR: x12=0000000000000000 x13=0000000000000000 x16=0000000000000000 x17=0000000000000000 x18=0000000000000000 x19=0000000000000000 x20=0000000000000000
[1135000] REG MONITOR: x12=0000000000000000 x13=0000000000000000 x16=0000000000000000 x17=0000000000000000 x18=0000000000000000 x19=0000000000000000 x20=0000000000000000
[1145000] REG MONITOR: x12=0000000000000000 x13=0000000000000000 x16=0000000000000000 x17=0000000000000000 x18=0000000000000000 x19=0000000000000000 x20=0000000000000000
[1155000] REG MONITOR: x12=0000000000000000 x13=0000000000000000 x16=0000000000000000 x17=0000000000000000 x18=0000000000000000 x19=0000000000000000 x20=0000000000000000
[1165000] REG MONITOR: x12=0000000000000000 x13=0000000000000000 x16=0000000000000000 x17=0000000000000000 x18=0000000000000000 x19=0000000000000000 x20=0000000000000000
[1175000] REG MONITOR: x12=0000000000000000 x13=0000000000000000 x16=0000000000000000 x17=0000000000000000 x18=0000000000000000 x19=0000000000000000 x20=0000000000000000
[1185000] REG MONITOR: x12=0000000000000000 x13=0000000000000000 x16=0000000000000000 x17=0000000000000000 x18=0000000000000000 x19=0000000000000000 x20=0000000000000000
[1195000] REG MONITOR: x12=0000000000000000 x13=0000000000000000 x16=0000000000000000 x17=0000000000000000 x18=0000000000000000 x19=0000000000000000 x20=0000000000000000
[1205000] REG MONITOR: x12=0000000000000000 x13=0000000000000000 x16=0000000000000000 x17=0000000000000000 x18=0000000000000000 x19=0000000000000000 x20=0000000000000000
[1215000] REG MONITOR: x12=0000000000000000 x13=0000000000000000 x16=0000000000000000 x17=0000000000000000 x18=0000000000000000 x19=0000000000000000 x20=0000000000000000
[1225000] REG MONITOR: x12=0000000000000000 x13=0000000000000000 x16=0000000000000000 x17=0000000000000000 x18=0000000000000000 x19=0000000000000000 x20=0000000000000000
[1235000] REG MONITOR: x12=0000000000000000 x13=0000000000000000 x16=0000000000000000 x17=0000000000000000 x18=0000000000000000 x19=0000000000000000 x20=0000000000000000
[1245000] REG MONITOR: x12=0000000000000000 x13=0000000000000000 x16=0000000000000000 x17=0000000000000000 x18=0000000000000000 x19=0000000000000000 x20=0000000000000000
[1255000] REG MONITOR: x12=0000000000000000 x13=0000000000000000 x16=0000000000000000 x17=0000000000000000 x18=0000000000000000 x19=0000000000000000 x20=0000000000000000
[1265000] REG MONITOR: x12=0000000000000000 x13=0000000000000000 x16=0000000000000000 x17=0000000000000000 x18=0000000000000000 x19=0000000000000000 x20=0000000000000000
[1275000] REG MONITOR: x12=0000000000000000 x13=0000000000000000 x16=0000000000000000 x17=0000000000000000 x18=0000000000000000 x19=0000000000000000 x20=0000000000000000
[1285000] REG MONITOR: x12=0000000000000000 x13=0000000000000000 x16=0000000000000000 x17=0000000000000000 x18=0000000000000000 x19=0000000000000000 x20=0000000000000000
[1295000] REG MONITOR: x12=0000000000000000 x13=0000000000000000 x16=0000000000000000 x17=0000000000000000 x18=0000000000000000 x19=0000000000000000 x20=0000000000000000
[1305000] REG MONITOR: x12=0000000000000000 x13=0000000000000000 x16=0000000000000000 x17=0000000000000000 x18=0000000000000000 x19=0000000000000000 x20=0000000000000000
[1315000] REG MONITOR: x12=0000000000000000 x13=0000000000000000 x16=0000000000000000 x17=0000000000000000 x18=0000000000000000 x19=0000000000000000 x20=0000000000000000
[1325000] REG MONITOR: x12=0000000000000000 x13=0000000000000000 x16=0000000000000000 x17=0000000000000000 x18=0000000000000000 x19=0000000000000000 x20=0000000000000000
[1335000] REG MONITOR: x12=0000000000000000 x13=0000000000000000 x16=0000000000000000 x17=0000000000000000 x18=0000000000000000 x19=0000000000000000 x20=0000000000000000
[1345000] REG MONITOR: x12=0000000000000000 x13=0000000000000000 x16=0000000000000000 x17=0000000000000000 x18=0000000000000000 x19=0000000000000000 x20=0000000000000000
[1355000] REG MONITOR: x12=0000000000000000 x13=0000000000000000 x16=0000000000000000 x17=0000000000000000 x18=0000000000000000 x19=0000000000000000 x20=0000000000000000
[1365000] REG MONITOR: x12=0000000000000000 x13=0000000000000000 x16=0000000000000000 x17=0000000000000000 x18=0000000000000000 x19=0000000000000000 x20=0000000000000000
[1375000] REG MONITOR: x12=0000000000000000 x13=0000000000000000 x16=0000000000000000 x17=0000000000000000 x18=0000000000000000 x19=0000000000000000 x20=0000000000000000
[1385000] REG MONITOR: x12=0000000000000000 x13=0000000000000000 x16=0000000000000000 x17=0000000000000000 x18=0000000000000000 x19=0000000000000000 x20=0000000000000000
[1395000] REG MONITOR: x12=0000000000000000 x13=0000000000000000 x16=0000000000000000 x17=0000000000000000 x18=0000000000000000 x19=0000000000000000 x20=0000000000000000
[1405000] REG MONITOR: x12=0000000000000000 x13=0000000000000000 x16=0000000000000000 x17=0000000000000000 x18=0000000000000000 x19=0000000000000000 x20=0000000000000000
[1415000] REG MONITOR: x12=0000000000000000 x13=0000000000000000 x16=0000000000000000 x17=0000000000000000 x18=0000000000000000 x19=0000000000000000 x20=0000000000000000
[1425000] REG MONITOR: x12=0000000000000000 x13=0000000000000000 x16=0000000000000000 x17=0000000000000000 x18=0000000000000000 x19=0000000000000000 x20=0000000000000000
[1435000] REG MONITOR: x12=0000000000000000 x13=0000000000000000 x16=0000000000000000 x17=0000000000000000 x18=0000000000000000 x19=0000000000000000 x20=0000000000000000
[1445000] REG MONITOR: x12=0000000000000000 x13=0000000000000000 x16=0000000000000000 x17=0000000000000000 x18=0000000000000000 x19=0000000000000000 x20=0000000000000000
[1455000] REG MONITOR: x12=0000000000000000 x13=0000000000000000 x16=0000000000000000 x17=0000000000000000 x18=0000000000000000 x19=0000000000000000 x20=0000000000000000
[1465000] REG MONITOR: x12=0000000000000000 x13=0000000000000000 x16=0000000000000000 x17=0000000000000000 x18=0000000000000000 x19=0000000000000000 x20=0000000000000000
[1475000] REG MONITOR: x12=0000000000000000 x13=0000000000000000 x16=0000000000000000 x17=0000000000000000 x18=0000000000000000 x19=0000000000000000 x20=0000000000000000
[1485000] REG MONITOR: x12=0000000000000000 x13=0000000000000000 x16=0000000000000000 x17=0000000000000000 x18=0000000000000000 x19=0000000000000000 x20=0000000000000000
[1495000] REG MONITOR: x12=0000000000000000 x13=0000000000000000 x16=0000000000000000 x17=0000000000000000 x18=0000000000000000 x19=0000000000000000 x20=0000000000000000
[1505000] REG MONITOR: x12=0000000000000000 x13=0000000000000000 x16=0000000000000000 x17=0000000000000000 x18=0000000000000000 x19=0000000000000000 x20=0000000000000000
[1515000] REG MONITOR: x12=0000000000000000 x13=0000000000000000 x16=0000000000000000 x17=0000000000000000 x18=0000000000000000 x19=0000000000000000 x20=0000000000000000
[1525000] REG MONITOR: x12=0000000000000000 x13=0000000000000000 x16=0000000000000000 x17=0000000000000000 x18=0000000000000000 x19=0000000000000000 x20=0000000000000000
[1535000] REG MONITOR: x12=0000000000000000 x13=0000000000000000 x16=0000000000000000 x17=0000000000000000 x18=0000000000000000 x19=0000000000000000 x20=0000000000000000
[1545000] REG MONITOR: x12=0000000000000000 x13=0000000000000000 x16=0000000000000000 x17=0000000000000000 x18=0000000000000000 x19=0000000000000000 x20=0000000000000000
[1555000] REG MONITOR: x12=0000000000000000 x13=0000000000000000 x16=0000000000000000 x17=0000000000000000 x18=0000000000000000 x19=0000000000000000 x20=0000000000000000
[1565000] REG MONITOR: x12=0000000000000000 x13=0000000000000000 x16=0000000000000000 x17=0000000000000000 x18=0000000000000000 x19=0000000000000000 x20=0000000000000000
[1575000] REG MONITOR: x12=0000000000000000 x13=0000000000000000 x16=0000000000000000 x17=0000000000000000 x18=0000000000000000 x19=0000000000000000 x20=0000000000000000
[1585000] REG MONITOR: x12=0000000000000000 x13=0000000000000000 x16=0000000000000000 x17=0000000000000000 x18=0000000000000000 x19=0000000000000000 x20=0000000000000000
[1595000] REG MONITOR: x12=0000000000000000 x13=0000000000000000 x16=0000000000000000 x17=0000000000000000 x18=0000000000000000 x19=0000000000000000 x20=0000000000000000
[1605000] REG MONITOR: x12=0000000000000000 x13=0000000000000000 x16=0000000000000000 x17=0000000000000000 x18=0000000000000000 x19=0000000000000000 x20=0000000000000000
[1615000] REG MONITOR: x12=0000000000000000 x13=0000000000000000 x16=0000000000000000 x17=0000000000000000 x18=0000000000000000 x19=0000000000000000 x20=0000000000000000
[1625000] REG MONITOR: x12=0000000000000000 x13=0000000000000000 x16=0000000000000000 x17=0000000000000000 x18=0000000000000000 x19=0000000000000000 x20=0000000000000000
