CA_proj/CA_proj.sim/sim_1/behav/xsim/simulate.log
Vivado Simulator 2020.1
Time resolution is 1 ps
arr0:          9, arr1:          2, arr2:          7, arr3:          1, arr4:          8, arr5:          4, arr6:          6
arr0:          9, arr1:          7, arr2:          7, arr3:          1, arr4:          8, arr5:          4, arr6:          6
arr0:          9, arr1:          7, arr2:          2, arr3:          1, arr4:          8, arr5:          4, arr6:          6
arr0:          9, arr1:          2, arr2:          2, arr3:          1, arr4:          8, arr5:          4, arr6:          6
arr0:          9, arr1:          2, arr2:          7, arr3:          1, arr4:          8, arr5:          4, arr6:          6
arr0:          9, arr1:          7, arr2:          7, arr3:          1, arr4:          8, arr5:          4, arr6:          6
arr0:          9, arr1:          7, arr2:          2, arr3:          1, arr4:          8, arr5:          4, arr6:          6
arr0:          9, arr1:          7, arr2:          2, arr3:          8, arr4:          8, arr5:          4, arr6:          6
arr0:          9, arr1:          7, arr2:          2, arr3:          8, arr4:          1, arr5:          4, arr6:          6
arr0:          9, arr1:          7, arr2:          8, arr3:          8, arr4:          1, arr5:          4, arr6:          6
arr0:          9, arr1:          7, arr2:          8, arr3:          2, arr4:          1, arr5:          4, arr6:          6
arr0:          9, arr1:          7, arr2:          2, arr3:          2, arr4:          1, arr5:          4, arr6:          6
arr0:          9, arr1:          7, arr2:          2, arr3:          8, arr4:          1, arr5:          4, arr6:          6
arr0:          9, arr1:          7, arr2:          8, arr3:          8, arr4:          1, arr5:          4, arr6:          6
arr0:          9, arr1:          7, arr2:          8, arr3:          2, arr4:          1, arr5:          4, arr6:          6
arr0:          9, arr1:          7, arr2:          2, arr3:          2, arr4:          1, arr5:          4, arr6:          6
arr0:          9, arr1:          7, arr2:          2, arr3:          8, arr4:          1, arr5:          4, arr6:          6
arr0:          9, arr1:          7, arr2:          8, arr3:          8, arr4:          1, arr5:          4, arr6:          6
arr0:          9, arr1:          7, arr2:          8, arr3:          2, arr4:          1, arr5:          4, arr6:          6
arr0:          9, arr1:          7, arr2:          2, arr3:          2, arr4:          1, arr5:          4, arr6:          6
arr0:          9, arr1:          7, arr2:          2, arr3:          8, arr4:          1, arr5:          4, arr6:          6
arr0:          9, arr1:          7, arr2:          8, arr3:          8, arr4:          1, arr5:          4, arr6:          6
arr0:          9, arr1:          7, arr2:          8, arr3:          2, arr4:          1, arr5:          4, arr6:          6
arr0:          9, arr1:          8, arr2:          8, arr3:          2, arr4:          1, arr5:          4, arr6:          6
arr0:          9, arr1:          8, arr2:          7, arr3:          2, arr4:          1, arr5:          4, arr6:          6
arr0:          9, arr1:          7, arr2:          7, arr3:          2, arr4:          1, arr5:          4, arr6:          6
arr0:          9, arr1:          7, arr2:          8, arr3:          2, arr4:          1, arr5:          4, arr6:          6
arr0:          9, arr1:          8, arr2:          8, arr3:          2, arr4:          1, arr5:          4, arr6:          6
arr0:          9, arr1:          8, arr2:          7, arr3:          2, arr4:          1, arr5:          4, arr6:          6
arr0:          9, arr1:          8, arr2:          2, arr3:          2, arr4:          1, arr5:          4, arr6:          6
arr0:          9, arr1:          8, arr2:          2, arr3:          7, arr4:          1, arr5:          4, arr6:          6
arr0:          9, arr1:          8, arr2:          7, arr3:          7, arr4:          1, arr5:          4, arr6:          6
arr0:          9, arr1:          8, arr2:       