CA_proj/CA_proj.sim/sim_1/behav/xsim/simulate.log
Vivado Simulator 2020.1
Time resolution is 1 ps
[0] REG MONITOR: x12=0000000000000000 x13=0000000000000000 x16=0000000000000000 x17=0000000000000000 x18=0000000000000000 x19=0000000000000000 x20=0000000000000000
[10000] REG MONITOR: x12=0000000000000000 x13=0000000000000000 x16=0000000000000000 x17=0000000000000000 x18=0000000000000000 x19=0000000000000000 x20=0000000000000000
[15000] ALU OP: 0010, A=xxxxxxxxxxxxxxxx, B=xxxxxxxxxxxxxxxx, Result=xxxxxxxxxxxxxxxx
[15000] ALU OP: 0010, A=0000000000000000, B=0000000000000009, Result=0000000000000009
[20000] REG MONITOR: x12=0000000000000000 x13=0000000000000000 x16=0000000000000000 x17=0000000000000000 x18=0000000000000000 x19=0000000000000000 x20=0000000000000000
[30000] REG MONITOR: x12=0000000000000000 x13=0000000000000000 x16=0000000000000000 x17=0000000000000000 x18=0000000000000000 x19=0000000000000000 x20=0000000000000000
[35000] ALU OP: 0010, A=0000000000000000, B=0000000000000002, Result=0000000000000002
[40000] REG MONITOR: x12=0000000000000000 x13=0000000000000000 x16=0000000000000000 x17=0000000000000000 x18=0000000000000000 x19=0000000000000000 x20=0000000000000000
[45000] ALU OP: 0010, A=0000000000000000, B=0000000000000007, Result=0000000000000007
[50000] REG MONITOR: x12=0000000000000000 x13=0000000000000000 x16=0000000000000000 x17=0000000000000000 x18=0000000000000000 x19=0000000000000000 x20=0000000000000000
[55000] ALU OP: 0010, A=0000000000000000, B=0000000000000001, Result=0000000000000001
[60000] REG MONITOR: x12=0000000000000000 x13=0000000000000000 x16=0000000000000000 x17=0000000000000000 x18=0000000000000000 x19=0000000000000000 x20=0000000000000000
[65000] ALU OP: 0010, A=0000000000000000, B=0000000000000008, Result=0000000000000008
[70000] REG MONITOR: x12=0000000000000000 x13=0000000000000000 x16=0000000000000000 x17=0000000000000000 x18=0000000000000000 x19=0000000000000000 x20=0000000000000000
[75000] ALU OP: 0010, A=0000000000000000, B=0000000000000004, Result=0000000000000004
[80000] REG MONITOR: x12=0000000000000000 x13=0000000000000000 x16=0000000000000000 x17=0000000000000000 x18=0000000000000000 x19=0000000000000000 x20=0000000000000000
[85000] ALU OP: 0010, A=0000000000000000, B=0000000000000006, Result=0000000000000006
[90000] REG MONITOR: x12=0000000000000000 x13=0000000000000000 x16=0000000000000000 x17=0000000000000000 x18=0000000000000000 x19=0000000000000000 x20=0000000000000000
[95000] ALU OP: 0010, A=0000000000000000, B=0000000000000100, Result=0000000000000100
[100000] REG MONITOR: x12=0000000000000000 x13=0000000000000000 x16=0000000000000000 x17=0000000000000000 x18=0000000000000000 x19=0000000000000000 x20=0000000000000000
[105000] ALU OP: 0010, A=0000000000000000, B=0000000000000104, Result=0000000000000104
[110000] REG MONITOR: x12=0000000000000000 x13=0000000000000000 x16=0000000000000000 x17=0000000000000000 x18=0000000000000000 x19=0000000000000000 x20=0000000000000000
[115000] ALU OP: 0010, A=0000000000000000, B=0000000000000108, Result=0000000000000108
[120000] REG MONITOR: x12=0000000000000000 x13=0000000000000000 x16=0000000000000000 x17=0000000000000000 x18=0000000000000000 x19=0000000000000000 x20=0000000000000000
[125000] ALU OP: 0010, A=0000000000000000, B=000000000000010c, Result=000000000000010c
[130000] REG MONITOR: x12=0000000000000000 x13=0000000000000000 x16=0000000000000000 x17=0000000000000000 x18=0000000000000000 x19=0000000000000000 x20=0000000000000000
[135000] ALU OP: 0010, A=0000000000000000, B=0000000000000110, Result=0000000000000110
[140000] REG MONITOR: x12=0000000000000000 x13=0000000000000000 x16=0000000000000000 x17=0000000000000000 x18=0000000000000000 x19=0000000000000000 x20=0000000000000000
[145000] ALU OP: 0010, A=0000000000000000, B=0000000000000114, Result=0000000000000114
[150000] REG MONITOR: x12=0000000000000000 x13=0000000000000000 x16=0000000000000000 x17=0000000000000000 x18=0000000000000000 x19=0000000000000000 x20=0000000000000000
[155000] ALU OP: 0010, A=0000000000000000, B=0000000000000118, Result=0000000000000118
[160000] REG MONITOR: x12=0000000000000000 x13=0000000000000000 x16=0000000000000000 x17=0000000000000000 x18=0000000000000000 x19=0000000000000000 x20=0000000000000000
[165000] ALU OP: 0010, A=0000000000000000, B=0000000000000100, Result=0000000000000100
[170000] REG MONITOR: x12=0000000000000000 x13=0000000000000000 x16=0000000000000000 x17=0000000000000000 x18=0000000000000000 x19=0000000000000000 x20=0000000000000000
[175000] ALU OP: 0010, A=0000000000000000, B=0000000000000007, Result=0000000000000007
[180000] REG MONITOR: x12=0000000000000000 x13=0000000000000000 x16=0000000000000000 x17=0000000000000000 x18=0000000000000000 x19=0000000000000000 x20=0000000000000000
[185000] ALU OP: 0010, A=0000000000000000, B=0000000000000000, Result=0000000000000000
[190000] REG MONITOR: x12=0000000000000000 x13=0000000000000000 x16=0000000000000000 x17=0000000000000000 x18=0000000000000000 x19=0000000000000000 x20=0000000000000000
[200000] REG MONITOR: x12=0000000000000000 x13=0000000000000000 x16=0000000000000000 x17=0000000000000000 x18=0000000000000000 x19=0000000000000000 x20=0000000000000000
[205000] ALU OP: 0010, A=0000000000000007, B=ffffffffffffffff, Result=0000000000000006
[210000] REG MONITOR: x12=0000000000000000 x13=0000000000000000 x16=0000000000000000 x17=0000000000000000 x18=0000000000000000 x19=0000000000000000 x20=0000000000000000
[215000] ALU OP: 0011, A=0000000000000007, B=ffffffffffffffff, Result=0000000000000008
[215000] ALU OP: 0011, A=0000000000000000, B=0000000000000000, Result=0000000000000000
[215000] ALU OP: 0011, A=0000000000000000, B=0000000000000006, Result=fffffffffffffffa
[220000] REG MONITOR: x12=0000000000000000 x13=0000000000000000 x16=0000000000000000 x17=0000000000000000 x18=0000000000000000 x19=0000000000000000 x20=0000000000000000
[225000] ALU OP: 0010, A=0000000000000000, B=0000000000000006, Result=0000000000000006
[225000] ALU OP: 0010, A=0000000000000007, B=ffffffffffffffff, Result=0000000000000006
[230000] REG MONITOR: x12=0000000000000000 x13=0000000000000000 x16=0000000000000000 x17=0000000000000000 x18=0000000000000000 x19=0000000000000000 x20=0000000000000000
[235000] ALU OP: 0011, A=0000000000000007, B=ffffffffffffffff, Result=0000000000000008
[235000] ALU OP: 0011, A=0000000000000006, B=0000000000000000, Result=0000000000000006
[240000] REG MONITOR: x12=0000000000000000 x13=0000000000000000 x16=0000000000000000 x17=0000000000000000 x18=0000000000000000 x19=0000000000000000 x20=0000000000000000
[245000] ALU OP: 0011, A=0000000000000000, B=0000000000000000, Result=0000000000000000
[245000] ALU OP: 0011, A=0000000000000000, B=0000000000000006, Result=fffffffffffffffa
[250000] REG MONITOR: x12=0000000000000000 x13=0000000000000000 x16=0000000000000000 x17=0000000000000000 x18=0000000000000000 x19=0000000000000000 x20=0000000000000000
[255000] ALU OP: 0101, A=0000000000000000, B=0000000000000006, Result=0000000000000000
[255000] ALU OP: 0101, A=0000000000000000, B=0000000000000002, Result=0000000000000000
[260000] REG MONITOR: x12=0000000000000000 x13=0000000000000000 x16=0000000000000000 x17=0000000000000000 x18=0000000000000000 x19=0000000000000000 x20=0000000000000000
[265000] ALU OP: 0010, A=0000000000000000, B=0000000000000002, Result=0000000000000002
[265000] ALU OP: 0010, A=0000000000000100, B=0000000000000002, Result=0000000000000102
[265000] ALU OP: 0010, A=0000000000000100, B=0000000000000000, Result=0000000000000100
[270000] REG MONITOR: x12=0000000000000000 x13=0000000000000000 x16=0000000000000000 x17=0000000000000000 x18=0000000000000000 x19=0000000000000000 x20=0000000000000000
[275000] ALU OP: 0010, A=0000000000000100, B=0000000000000004, Result=0000000000000104
[280000] REG MONITOR: x12=0000000000000000 x13=0000000000000000 x16=0000000000000000 x17=0000000000000000 x18=0000000000000000 x19=0000000000000000 x20=0000000000000000
[285000] ALU OP: 0010, A=0000000000000100, B=0000000000000000, Result=0000000000000100
[290000] REG MONITOR: x12=0000000000000000 x13=0000000000000000 x16=0000000000000000 x17=0000000000000000 x18=0000000000000000 x19=0000000000000000 x20=0000000000000000
[290000] ALU OP: 0010, A=0000000000000000, B=0000000000000000, Result=0000000000000000
[295000] ALU OP: 0010, A=0000000000000104, B=0000000000000000, Result=0000000000000104
[300000] REG MONITOR: x12=0000000000000000 x13=0000000000000000 x16=0000000000000000 x17=0000000000000100 x18=0000000000000000 x19=0000000000000000 x20=0000000000000000
[300000] ALU OP: 0010, A=0000000000000000, B=0000000000000000, Result=0000000000000000
[305000] ALU OP: 0011, A=0000000000000000, B=0000000000000000, Result=0000000000000000
[310000] REG MONITOR: x12=0000000000000000 x13=0000000000000000 x16=0000000000000000 x17=0000000000000100 x18=0000000000000104 x19=0000000000000000 x20=0000000000000000
[320000] REG MONITOR: x12=0000000000000000 x13=0000000000000000 x16=0000000000000000 x17=0000000000000100 x18=0000000000000104 x19=0000000000000000 x20=0000000000000000
[325000] ALU OP: 0010, A=0000000000000000, B=0000000000000000, Result=0000000000000000
[325000] ALU OP: 0010, A=0000000000000000, B=0000000000000001, Result=0000000000000001
[330000] REG MONITOR: x12=0000000000000000 x13=0000000000000000 x16=0000000000000000 x17=0000000000000100 x18=0000000000000104 x19=0000000000000000 x20=0000000000000000
[335000] ALU OP: 0011, A=0000000000000000, B=0000000000000001, Result=ffffffffffffffff
[335000] ALU OP: 0011, A=0000000000000000, B=0000000000000009, Result=fffffffffffffff7
[335000] ALU OP: 0011, A=0000000000000000, B=0000000000000000, Result=0000000000000000
[340000] REG MONITOR: x12=0000000000000000 x13=0000000000000000 x16=0000000000000000 x17=0000000000000100 x18=0000000000000104 x19=0000000000000000 x20=0000000000000000
[345000] ALU OP: 0010, A=0000000000000000, B=0000000000000000, Result=0000000000000000
[345000] ALU OP: 0010, A=0000000000000100, B=0000000000000000, Result=0000000000000100
[350000] REG MONITOR: x12=0000000000000000 x13=0000000000000000 x16=0000000000000000 x17=0000000000000100 x18=0000000000000104 x19=0000000000000000 x20=0000000000000000
[355000] ALU OP: 0010, A=0000000000000000, B=0000000000000000, Result=0000000000000000
[360000] REG MONITOR: x12=0000000000000000 x13=0000000000000001 x16=0000000000000000 x17=0000000000000100 x18=0000000000000104 x19=0000000000000000 x20=0000000000000000
[370000] REG MONITOR: x12=0000000000000000 x13=0000000000000001 x16=0000000000000000 x17=0000000000000100 x18=0000000000000104 x19=0000000000000000 x20=0000000000000000
[375000] ALU OP: 0010, A=0000000000000007, B=ffffffffffffffff, Result=0000000000000006
[380000] REG MONITOR: x12=0000000000000000 x13=0000000000000001 x16=0000000000000000 x17=0000000000000100 x18=0000000000000104 x19=0000000000000000 x20=0000000000000000
[385000] ALU OP: 0011, A=0000000000000007, B=ffffffffffffffff, Result=0000000000000008
[385000] ALU OP: 0011, A=0000000000000006, B=0000000000000000, Result=0000000000000006
[390000] REG MONITOR: x12=0000000000000000 x13=0000000000000001 x16=0000000000000000 x17=0000000000000100 x18=0000000000000104 x19=0000000000000000 x20=0000000000000000
[395000] ALU OP: 0011, A=0000000000000001, B=0000000000000000, Result=0000000000000001
[395000] ALU OP: 0011, A=0000000000000001, B=0000000000000006, Result=fffffffffffffffb
[400000] REG MONITOR: x12=0000000000000000 x13=0000000000000001 x16=0000000000000000 x17=0000000000000100 x18=0000000000000104 x19=0000000000000000 x20=0000000000000000
[405000] ALU OP: 0101, A=0000000000000001, B=0000000000000006, Result=0000000000000040
[405000] ALU OP: 0101, A=0000000000000001, B=0000000000000002, Result=0000000000000004
[410000] REG MONITOR: x12=0000000000000000 x13=0000000000000001 x16=0000000000000000 x17=0000000000000100 x18=0000000000000104 x19=0000000000000000 x20=0000000000000000
[415000] ALU OP: 0010, A=0000000000000001, B=0000000000000002, Result=0000000000000003
[415000] ALU OP: 0010, A=0000000000000100, B=0000000000000002, Result=0000000000000102
[415000] ALU OP: 0010, A=0000000000000100, B=0000000000000004, Result=0000000000000104
[420000] REG MONITOR: x12=0000000000000000 x13=0000000000000001 x16=0000000000000000 x17=0000000000000100 x18=0000000000000104 x19=0000000000000000 x20=0000000000000000
[425000] ALU OP: 0010, A=0000000000000104, B=0000000000000004, Result=0000000000000108
[430000] REG MONITOR: x12=0000000000000000 x13=0000000000000001 x16=0000000000000000 x17=0000000000000100 x18=0000000000000104 x19=0000000000000000 x20=0000000000000000
[435000] ALU OP: 0010, A=0000000000000104, B=0000000000000000, Result=0000000000000104
[440000] REG MONITOR: x12=0000000000000000 x13=0000000000000001 x16=0000000000000004 x17=0000000000000100 x18=0000000000000104 x19=0000000000000000 x20=0000000000000000
[440000] ALU OP: 0010, A=0000000000000100, B=0000000000000000, Result=0000000000000100
[445000] ALU OP: 0010, A=0000000000000108, B=0000000000000000, Result=0000000000000108
[450000] REG MONITOR: x12=0000000000000000 x13=0000000000000001 x16=0000000000000004 x17=0000000000000104 x18=0000000000000104 x19=0000000000000000 x20=0000000000000000
[450000] ALU OP: 0010, A=0000000000000104, B=0000000000000000, Result=0000000000000104
[455000] ALU OP: 0011, A=0000000000000104, B=0000000000000000, Result=0000000000000104
[455000] ALU OP: 0011, A=0000000000000104, B=0000000000000009, Result=00000000000000fb
[460000] REG MONITOR: x12=0000000000000000 x13=0000000000000001 x16=0000000000000004 x17=0000000000000104 x18=0000000000000108 x19=0000000000000000 x20=0000000000000000
[460000] ALU OP: 0011, A=0000000000000104, B=0000000000000000, Result=0000000000000104
[465000] ALU OP: 0011, A=0000000000000002, B=0000000000000000, Result=0000000000000002
[465000] ALU OP: 0011, A=0000000000000002, B=0000000000000009, Result=fffffffffffffff9
[470000] REG MONITOR: x12=0000000000000000 x13=0000000000000001 x16=0000000000000004 x17=0000000000000104 x18=0000000000000108 x19=0000000000000009 x20=0000000000000000
[470000] ALU OP: 0011, A=0000000000000000, B=0000000000000009, Result=fffffffffffffff7
[475000] ALU OP: 0010, A=0000000000000000, B=0000000000000009, Result=0000000000000009
[475000] ALU OP: 0010, A=0000000000000001, B=0000000000000001, Result=0000000000000002
[480000] REG MONITOR: x12=0000000000000000 x13=0000000000000001 x16=0000000000000004 x17=0000000000000104 x18=0000000000000108 x19=0000000000000009 x20=0000000000000002
[485000] ALU OP: 0010, A=0000000000000000, B=0000000000000009, Result=0000000000000009
[485000] ALU OP: 0010, A=0000000000000000, B=0000000000000000, Result=0000000000000000
[490000] REG MONITOR: x12=0000000000000000 x13=0000000000000001 x16=0000000000000004 x17=0000000000000104 x18=0000000000000108 x19=0000000000000009 x20=0000000000000002
[500000] REG MONITOR: x12=0000000000000000 x13=0000000000000001 x16=0000000000000004 x17=0000000000000104 x18=0000000000000108 x19=0000000000000009 x20=0000000000000002
[505000] ALU OP: 0010, A=0000000000000104, B=0000000000000000, Result=0000000000000104
[510000] REG MONITOR: x12=0000000000000000 x13=0000000000000001 x16=0000000000000004 x17=0000000000000104 x18=0000000000000108 x19=0000000000000009 x20=0000000000000002
[515000] ALU OP: 0010, A=0000000000000108, B=0000000000000000, Result=0000000000000108
[520000] REG MONITOR: x12=0000000000000000 x13=0000000000000001 x16=0000000000000004 x17=0000000000000104 x18=0000000000000108 x19=0000000000000009 x20=0000000000000002
[525000] ALU OP: 0011, A=0000000000000108, B=0000000000000000, Result=0000000000000108
[525000] ALU OP: 0011, A=0000000000000000, B=0000000000000009, Result=fffffffffffffff7
[525000] ALU OP: 0011, A=0000000000000000, B=0000000000000000, Result=0000000000000000
[530000] REG MONITOR: x12=0000000000000000 x13=0000000000000001 x16=0000000000000004 x17=0000000000000104 x18=0000000000000108 x19=0000000000000009 x20=0000000000000002
[535000] ALU OP: 0010, A=0000000000000000, B=0000000000000000, Result=0000000000000000
[535000] ALU OP: 0010, A=0000000000000000, B=0000000000000001, Result=0000000000000001
[540000] REG MONITOR: x12=0000000000000000 x13=0000000000000001 x16=0000000000000004 x17=0000000000000104 x18=0000000000000108 x19=0000000000000009 x20=0000000000000002
[545000] ALU OP: 0010, A=0000000000000000, B=0000000000000009, Result=0000000000000009
[545000] ALU OP: 0010, A=0000000000000000, B=0000000000000000, Result=0000000000000000
[550000] REG MONITOR: x12=0000000000000000 x13=0000000000000001 x16=0000000000000004 x17=0000000000000104 x18=0000000000000108 x19=0000000000000009 x20=0000000000000002
[560000] REG MONITOR: x12=0000000000000000 x13=0000000000000001 x16=0000000000000004 x17=0000000000000104 x18=0000000000000108 x19=0000000000000009 x20=0000000000000002
[565000] ALU OP: 0010, A=0000000000000001, B=0000000000000001, Result=0000000000000002
[570000] REG MONITOR: x12=0000000000000000 x13=0000000000000001 x16=0000000000000004 x17=0000000000000104 x18=0000000000000108 x19=0000000000000009 x20=0000000000000002
[575000] ALU OP: 0011, A=0000000000000001, B=0000000000000001, Result=0000000000000000
[575000] ALU OP: 0011, A=0000000000000000, B=0000000000000009, Result=fffffffffffffff7
[575000] ALU OP: 0011, A=0000000000000000, B=0000000000000000, Result=0000000000000000
[580000] REG MONITOR: x12=0000000000000000 x13=0000000000000001 x16=0000000000000004 x17=0000000000000104 x18=0000000000000108 x19=0000000000000009 x20=0000000000000002
[585000] ALU OP: 0010, A=0000000000000000, B=0000000000000000, Result=0000000000000000
[585000] ALU OP: 0010, A=0000000000000104, B=0000000000000000, Result=0000000000000104
[590000] REG MONITOR: x12=0000000000000000 x13=0000000000000001 x16=0000000000000004 x17=0000000000000104 x18=0000000000000108 x19=0000000000000009 x20=0000000000000002
[595000] ALU OP: 0010, A=0000000000000000, B=0000000000000002, Result=0000000000000002
[595000] ALU OP: 0010, A=0000000000000000, B=0000000000000000, Result=0000000000000000
[600000] REG MONITOR: x12=0000000000000000 x13=0000000000000002 x16=0000000000000004 x17=0000000000000104 x18=0000000000000108 x19=0000000000000009 x20=0000000000000002
[610000] REG MONITOR: x12=0000000000000000 x13=0000000000000002 x16=0000000000000004 x17=0000000000000104 x18=0000000000000108 x19=0000000000000009 x20=0000000000000002
[615000] ALU OP: 0010, A=0000000000000007, B=ffffffffffffffff, Result=0000000000000006
[620000] REG MONITOR: x12=0000000000000000 x13=0000000000000002 x16=0000000000000004 x17=0000000000000104 x18=0000000000000108 x19=0000000000000009 x20=0000000000000002
[625000] ALU OP: 0011, A=0000000000000007, B=ffffffffffffffff, Result=0000000000000008
[625000] ALU OP: 0011, A=0000000000000006, B=0000000000000000, Result=0000000000000006
[630000] REG MONITOR: x12=0000000000000000 x13=0000000000000002 x16=0000000000000004 x17=0000000000000104 x18=0000000000000108 x19=0000000000000009 x20=0000000000000002
[635000] ALU OP: 0011, A=0000000000000002, B=0000000000000000, Result=0000000000000002
[635000] ALU OP: 0011, A=0000000000000002, B=0000000000000006, Result=fffffffffffffffc
[640000] REG MONITOR: x12=0000000000000000 x13=0000000000000002 x16=0000000000000004 x17=0000000000000104 x18=0000000000000108 x19=0000000000000009 x20=0000000000000002
[645000] ALU OP: 0101, A=0000000000000002, B=0000000000000006, Result=0000000000000080
[645000] ALU OP: 0101, A=0000000000000002, B=0000000000000002, Result=0000000000000008
[650000] REG MONITOR: x12=0000000000000000 x13=0000000000000002 x16=0000000000000004 x17=0000000000000104 x18=0000000000000108 x19=0000000000000009 x20=0000000000000002
[655000] ALU OP: 0010, A=0000000000000002, B=0000000000000002, Result=0000000000000004
[655000] ALU OP: 0010, A=0000000000000100, B=0000000000000002, Result=0000000000000102
[655000] ALU OP: 0010, A=0000000000000100, B=0000000000000008, Result=0000000000000108
[660000] REG MONITOR: x12=0000000000000000 x13=0000000000000002 x16=0000000000000004 x17=0000000000000104 x18=0000000000000108 x19=0000000000000009 x20=0000000000000002
[665000] ALU OP: 0010, A=0000000000000108, B=0000000000000004, Result=000000000000010c
[670000] REG MONITOR: x12=0000000000000000 x13=0000000000000002 x16=0000000000000004 x17=0000000000000104 x18=0000000000000108 x19=0000000000000009 x20=0000000000000002
[675000] ALU OP: 0010, A=0000000000000108, B=0000000000000000, Result=0000000000000108
[680000] REG MONITOR: x12=0000000000000000 x13=0000000000000002 x16=0000000000000008 x17=0000000000000104 x18=0000000000000108 x19=0000000000000009 x20=0000000000000002
[680000] ALU OP: 0010, A=0000000000000104, B=0000000000000000, Result=0000000000000104
[685000] ALU OP: 0010, A=000000000000010c, B=0000000000000000, Result=000000000000010c
[690000] REG MONITOR: x12=0000000000000000 x13=0000000000000002 x16=0000000000000008 x17=0000000000000108 x18=0000000000000108 x19=0000000000000009 x20=0000000000000002
[690000] ALU OP: 0010, A=0000000000000108, B=0000000000000000, Result=0000000000000108
[695000] ALU OP: 0011, A=0000000000000108, B=0000000000000000, Result=0000000000000108
[695000] ALU OP: 0011, A=0000000000000108, B=0000000000000002, Result=0000000000000106
[700000] REG MONITOR: x12=0000000000000000 x13=0000000000000002 x16=0000000000000008 x17=0000000000000108 x18=000000000000010c x19=0000000000000009 x20=0000000000000002
[700000] ALU OP: 0011, A=0000000000000108, B=0000000000000009, Result=00000000000000ff
[705000] ALU OP: 0011, A=0000000000000009, B=0000000000000009, Result=0000000000000000
[705000] ALU OP: 0011, A=0000000000000009, B=0000000000000002, Result=0000000000000007
[710000] REG MONITOR: x12=0000000000000000 x13=0000000000000002 x16=0000000000000008 x17=0000000000000108 x18=000000000000010c x19=0000000000000002 x20=0000000000000002
[710000] ALU OP: 0011, A=0000000000000002, B=0000000000000002, Result=0000000000000000
[715000] ALU OP: 0010, A=0000000000000002, B=0000000000000002, Result=0000000000000004
[715000] ALU OP: 0010, A=0000000000000002, B=0000000000000001, Result=0000000000000003
[720000] REG MONITOR: x12=0000000000000000 x13=0000000000000002 x16=0000000000000008 x17=0000000000000108 x18=000000000000010c x19=0000000000000002 x20=0000000000000009
[725000] ALU OP: 0011, A=0000000000000002, B=0000000000000001, Result=0000000000000001
[725000] ALU OP: 0011, A=0000000000000000, B=0000000000000009, Result=fffffffffffffff7
[725000] ALU OP: 0011, A=0000000000000000, B=0000000000000000, Result=0000000000000000
[730000] REG MONITOR: x12=0000000000000000 x13=0000000000000002 x16=0000000000000008 x17=0000000000000108 x18=000000000000010c x19=0000000000000002 x20=0000000000000009
[735000] ALU OP: 0010, A=0000000000000000, B=0000000000000000, Result=0000000000000000
[735000] ALU OP: 0010, A=0000000000000108, B=0000000000000000, Result=0000000000000108
[740000] REG MONITOR: x12=0000000000000000 x13=0000000000000002 x16=0000000000000008 x17=0000000000000108 x18=000000000000010c x19=0000000000000002 x20=0000000000000009
[745000] ALU OP: 0010, A=0000000000000000, B=0000000000000009, Result=0000000000000009
[745000] ALU OP: 0010, A=0000000000000000, B=0000000000000000, Result=0000000000000000
[750000] REG MONITOR: x12=0000000000000000 x13=0000000000000003 x16=0000000000000008 x17=0000000000000108 x18=000000000000010c x19=0000000000000002 x20=0000000000000009
[760000] REG MONITOR: x12=0000000000000000 x13=0000000000000003 x16=0000000000000008 x17=0000000000000108 x18=000000000000010c x19=0000000000000002 x20=0000000000000009
[765000] ALU OP: 0010, A=0000000000000007, B=ffffffffffffffff, Result=0000000000000006
[770000] REG MONITOR: x12=0000000000000000 x13=0000000000000003 x16=0000000000000008 x17=0000000000000108 x18=000000000000010c x19=0000000000000002 x20=0000000000000009
[775000] ALU OP: 0011, A=0000000000000007, B=ffffffffffffffff, Result=0000000000000008
[775000] ALU OP: 0011, A=0000000000000006, B=0000000000000000, Result=0000000000000006
[780000] REG MONITOR: x12=0000000000000000 x13=0000000000000003 x16=0000000000000008 x17=0000000000000108 x18=000000000000010c x19=0000000000000002 x20=0000000000000009
[785000] ALU OP: 0011, A=0000000000000003, B=0000000000000000, Result=0000000000000003
[785000] ALU OP: 0011, A=0000000000000003, B=0000000000000006, Result=fffffffffffffffd
[790000] REG MONITOR: x12=0000000000000000 x13=0000000000000003 x16=0000000000000008 x17=0000000000000108 x18=000000000000010c x19=0000000000000002 x20=0000000000000009
[795000] ALU OP: 0101, A=0000000000000003, B=0000000000000006, Result=00000000000000c0
[795000] ALU OP: 0101, A=0000000000000003, B=0000000000000002, Result=000000000000000c
[800000] REG MONITOR: x12=0000000000000000 x13=0000000000000003 x16=0000000000000008 x17=0000000000000108 x18=000000000000010c x19=0000000000000002 x20=0000000000000009
[805000] ALU OP: 0010, A=0000000000000003, B=0000000000000002, Result=0000000000000005
[805000] ALU OP: 0010, A=0000000000000100, B=0000000000000002, Result=0000000000000102
[805000] ALU OP: 0010, A=0000000000000100, B=000000000000000c, Result=000000000000010c
[810000] REG MONITOR: x12=0000000000000000 x13=0000000000000003 x16=0000000000000008 x17=0000000000000108 x18=000000000000010c x19=0000000000000002 x20=0000000000000009
[815000] ALU OP: 0010, A=000000000000010c, B=0000000000000004, Result=0000000000000110
[820000] REG MONITOR: x12=0000000000000000 x13=0000000000000003 x16=0000000000000008 x17=0000000000000108 x18=000000000000010c x19=0000000000000002 x20=0000000000000009
[825000] ALU OP: 0010, A=000000000000010c, B=0000000000000000, Result=000000000000010c
[830000] REG MONITOR: x12=0000000000000000 x13=0000000000000003 x16=000000000000000c x17=0000000000000108 x18=000000000000010c x19=0000000000000002 x20=0000000000000009
[830000] ALU OP: 0010, A=0000000000000108, B=0000000000000000, Result=0000000000000108
[835000] ALU OP: 0010, A=0000000000000110, B=0000000000000000, Result=0000000000000110
[840000] REG MONITOR: x12=0000000000000000 x13=0000000000000003 x16=000000000000000c x17=000000000000010c x18=000000000000010c x19=0000000000000002 x20=0000000000000009
[840000] ALU OP: 0010, A=000000000000010c, B=0000000000000000, Result=000000000000010c
[845000] ALU OP: 0011, A=000000000000010c, B=0000000000000000, Result=000000000000010c
[845000] ALU OP: 0011, A=000000000000010c, B=0000000000000009, Result=0000000000000103
[850000] REG MONITOR: x12=0000000000000000 x13=0000000000000003 x16=000000000000000c x17=000000000000010c x18=0000000000000110 x19=0000000000000002 x20=0000000000000009
[850000] ALU OP: 0011, A=000000000000010c, B=0000000000000002, Result=000000000000010a
[855000] ALU OP: 0011, A=0000000000000001, B=0000000000000002, Result=ffffffffffffffff
[855000] ALU OP: 0011, A=0000000000000001, B=0000000000000009, Result=fffffffffffffff8
[860000] REG MONITOR: x12=0000000000000000 x13=0000000000000003 x16=000000000000000c x17=000000000000010c x18=0000000000000110 x19=0000000000000009 x20=0000000000000009
[860000] ALU OP: 0011, A=0000000000000009, B=0000000000000009, Result=0000000000000000
[865000] ALU OP: 0010, A=0000000000000009, B=0000000000000009, Result=0000000000000012
[865000] ALU OP: 0010, A=0000000000000003, B=0000000000000001, Result=0000000000000004
[870000] REG MONITOR: x12=0000000000000000 x13=0000000000000003 x16=000000000000000c x17=000000000000010c x18=0000000000000110 x19=0000000000000009 x20=0000000000000001
[875000] ALU OP: 0011, A=0000000000000003, B=0000000000000001, Result=0000000000000002
[875000] ALU OP: 0011, A=0000000000000000, B=0000000000000009, Result=fffffffffffffff7
[875000] ALU OP: 0011, A=0000000000000000, B=0000000000000000, Result=0000000000000000
[880000] REG MONITOR: x12=0000000000000000 x13=0000000000000003 x16=000000000000000c x17=000000000000010c x18=0000000000000110 x19=0000000000000009 x20=0000000000000001
[885000] ALU OP: 0010, A=0000000000000000, B=0000000000000000, Result=0000000000000000
[885000] ALU OP: 0010, A=000000000000010c, B=0000000000000000, Result=000000000000010c
[890000] REG MONITOR: x12=0000000000000000 x13=0000000000000003 x16=000000000000000c x17=000000000000010c x18=0000000000000110 x19=0000000000000009 x20=0000000000000001
[895000] ALU OP: 0010, A=0000000000000000, B=0000000000000001, Result=0000000000000001
[895000] ALU OP: 0010, A=0000000000000000, B=0000000000000000, Result=0000000000000000
[900000] REG MONITOR: x12=0000000000000000 x13=0000000000000004 x16=000000000000000c x17=000000000000010c x18=0000000000000110 x19=0000000000000009 x20=0000000000000001
[910000] REG MONITOR: x12=0000000000000000 x13=0000000000000004 x16=000000000000000c x17=000000000000010c x18=0000000000000110 x19=0000000000000009 x20=0000000000000001
[915000] ALU OP: 0010, A=0000000000000007, B=ffffffffffffffff, Result=0000000000000006
[920000] REG MONITOR: x12=0000000000000000 x13=0000000000000004 x16=000000000000000c x17=000000000000010c x18=0000000000000110 x19=0000000000000009 x20=0000000000000001
[925000] ALU OP: 0011, A=0000000000000007, B=ffffffffffffffff, Result=0000000000000008
[925000] ALU OP: 0011, A=0000000000000006, B=0000000000000000, Result=0000000000000006
[930000] REG MONITOR: x12=0000000000000000 x13=0000000000000004 x16=000000000000000c x17=000000000000010c x18=0000000000000110 x19=0000000000000009 x20=0000000000000001
[935000] ALU OP: 0011, A=0000000000000004, B=0000000000000000, Result=0000000000000004
[935000] ALU OP: 0011, A=0000000000000004, B=0000000000000006, Result=fffffffffffffffe
[940000] REG MONITOR: x12=0000000000000000 x13=0000000000000004 x16=000000000000000c x17=000000000000010c x18=0000000000000110 x19=0000000000000009 x20=0000000000000001
[945000] ALU OP: 0101, A=0000000000000004, B=0000000000000006, Result=0000000000000100
[945000] ALU OP: 0101, A=0000000000000004, B=0000000000000002, Result=0000000000000010
[950000] REG MONITOR: x12=0000000000000000 x13=0000000000000004 x16=000000000000000c x17=000000000000010c x18=0000000000000110 x19=0000000000000009 x20=0000000000000001
[955000] ALU OP: 0010, A=0000000000000004, B=0000000000000002, Result=0000000000000006
[955000] ALU OP: 0010, A=0000000000000100, B=0000000000000002, Result=0000000000000102
[955000] ALU OP: 0010, A=0000000000000100, B=0000000000000010, Result=0000000000000110
[960000] REG MONITOR: x12=0000000000000000 x13=0000000000000004 x16=000000000000000c x17=000000000000010c x18=0000000000000110 x19=0000000000000009 x20=0000000000000001
[965000] ALU OP: 0010, A=0000000000000110, B=0000000000000004, Result=0000000000000114
[970000] REG MONITOR: x12=0000000000000000 x13=0000000000000004 x16=000000000000000c x17=000000000000010c x18=0000000000000110 x19=0000000000000009 x20=0000000000000001
[975000] ALU OP: 0010, A=0000000000000110, B=0000000000000000, Result=0000000000000110
