CA_proj/CA_proj.sim/sim_1/behav/xsim/simulate.log
Vivado Simulator 2020.1
Time resolution is 1 ps
ID_EX: rs1 =  x, rs2 =  x, rd =  x
EX_MEM: ALU_Result = xxxxxxxxxxxxxxxx, rd =  x, RegWrite = x
FORWARDING UNIT: Forward_A = 00, Forward_B = 00
FORWARDING UNIT: IDEX_rs1 =  0, IDEX_rs2 =  0, EXM_rd =  0, MWB_rd =  0, EXM_RegWrite = 0, MWB_RegWrite = 0
ID_EX: rs1 =  0, rs2 =  0, rd =  0
EX_MEM: ALU_Result = 0000000000000000, rd =  0, RegWrite = 0
ID_EX: rs1 =  0, rs2 =  0, rd =  0
EX_MEM: ALU_Result = 0000000000000000, rd =  0, RegWrite = 0
FORWARDING UNIT: Forward_A = 00, Forward_B = 00
FORWARDING UNIT: IDEX_rs1 =  0, IDEX_rs2 =  9, EXM_rd =  0, MWB_rd =  0, EXM_RegWrite = 0, MWB_RegWrite = 0
ID_EX: rs1 =  0, rs2 =  9, rd =  1
EX_MEM: ALU_Result = 0000000000000009, rd =  1, RegWrite = 1
FORWARDING UNIT: Forward_A = 00, Forward_B = 00
FORWARDING UNIT: IDEX_rs1 =  0, IDEX_rs2 =  2, EXM_rd =  1, MWB_rd =  0, EXM_RegWrite = 1, MWB_RegWrite = 0
ID_EX: rs1 =  0, rs2 =  2, rd =  2
EX_MEM: ALU_Result = 0000000000000002, rd =  2, RegWrite = 1
FORWARDING UNIT: Forward_A = 00, Forward_B = 00
FORWARDING UNIT: IDEX_rs1 =  0, IDEX_rs2 =  7, EXM_rd =  2, MWB_rd =  1, EXM_RegWrite = 1, MWB_RegWrite = 1
ID_EX: rs1 =  0, rs2 =  7, rd =  3
EX_MEM: ALU_Result = 0000000000000007, rd =  3, RegWrite = 1
FORWARDING UNIT: Forward_A = 00, Forward_B = 00
FORWARDING UNIT: IDEX_rs1 =  0, IDEX_rs2 =  1, EXM_rd =  3, MWB_rd =  2, EXM_RegWrite = 1, MWB_RegWrite = 1
ID_EX: rs1 =  0, rs2 =  1, rd =  4
EX_MEM: ALU_Result = 0000000000000001, rd =  4, RegWrite = 1
FORWARDING UNIT: Forward_A = 00, Forward_B = 00
FORWARDING UNIT: IDEX_rs1 =  0, IDEX_rs2 =  8, EXM_rd =  4, MWB_rd =  3, EXM_RegWrite = 1, MWB_RegWrite = 1
ID_EX: rs1 =  0, rs2 =  8, rd =  5
EX_MEM: ALU_Result = 0000000000000008, rd =  5, RegWrite = 1
FORWARDING UNIT: Forward_A = 00, Forward_B = 01
FORWARDING UNIT: IDEX_rs1 =  0, IDEX_rs2 =  4, EXM_rd =  5, MWB_rd =  4, EXM_RegWrite = 1, MWB_RegWrite = 1
ID_EX: rs1 =  0, rs2 =  4, rd =  6
EX_MEM: ALU_Result = 0000000000000004, rd =  6, RegWrite = 1
FORWARDING UNIT: Forward_A = 00, Forward_B = 10
FORWARDING UNIT: IDEX_rs1 =  0, IDEX_rs2 =  6, EXM_rd =  6, MWB_rd =  5, EXM_RegWrite = 1, MWB_RegWrite = 1
ID_EX: rs1 =  0, rs2 =  6, rd =  7
EX_MEM: ALU_Result = 0000000000000006, rd =  7, RegWrite = 1
FORWARDING UNIT: Forward_A = 00, Forward_B = 00
FORWARDING UNIT: IDEX_rs1 =  0, IDEX_rs2 =  1, EXM_rd =  7, MWB_rd =  6, EXM_RegWrite = 1, MWB_RegWrite = 1
ID_EX: rs1 =  0, rs2 =  1, rd =  0
EX_MEM: ALU_Result = 0000000000000100, rd =  0, RegWrite = 0
FORWARDING UNIT: Forward_A = 00, Forward_B = 00
FORWARDING UNIT: IDEX_rs1 =  0, IDEX_rs2 =  2, EXM_rd =  0, MWB_rd =  7, EXM_RegWrite = 0, MWB_RegWrite = 1
ID_EX: rs1 =  0, rs2 =  2, rd =  4
EX_MEM: ALU_Result = 0000000000000104, rd =  4, RegWrite = 0
FORWARDING UNIT: Forward_A = 00, Forward_B = 00
FORWARDING UNIT: IDEX_rs1 =  0, IDEX_rs2 =  3, EXM_rd =  4, MWB_rd =  0, EXM_RegWrite = 0, MWB_RegWrite = 0
ID_EX: rs1 =  0, rs2 =  3, rd =  8
EX_MEM: ALU_Result = 0000000000000108, rd =  8, RegWrite = 0
FORWARDING UNIT: Forward_A = 00, Forward_B = 00
FORWARDING UNIT: IDEX_rs1 =  0, IDEX_rs2 =  4, EXM_rd =  8, MWB_rd =  4, EXM_RegWrite = 0, MWB_RegWrite = 0
ID_EX: rs1 =  0, rs2 =  4, rd = 12
EX_MEM: ALU_Result = 000000000000010c, rd = 12, RegWrite = 0
FORWARDING UNIT: Forward_A = 00, Forward_B = 00
FORWARDING UNIT: IDEX_rs1 =  0, IDEX_rs2 =  5, EXM_rd = 12, MWB_rd =  8, EXM_RegWrite = 0, MWB_RegWrite = 0
ID_EX: rs1 =  0, rs2 =  5, rd = 16
EX_MEM: ALU_Result = 0000000000000110, rd = 16, RegWrite = 0
FORWARDING UNIT: Forward_A = 00, Forward_B = 00
FORWARDING UNIT: IDEX_rs1 =  0, IDEX_rs2 =  6, EXM_rd = 16, MWB_rd = 12, EXM_RegWrite = 0, MWB_RegWrite = 0
ID_EX: rs1 =  0, rs2 =  6, rd = 20
EX_MEM: ALU_Result = 0000000000000114, rd = 20, RegWrite = 0
FORWARDING UNIT: Forward_A = 00, Forward_B = 00
FORWARDING UNIT: IDEX_rs1 =  0, IDEX_rs2 =  7, EXM_rd = 20, MWB_rd = 16, EXM_RegWrite = 0, MWB_RegWrite = 0
ID_EX: rs1 =  0, rs2 =  7, rd = 24
EX_MEM: ALU_Result = 0000000000000118, rd = 24, RegWrite = 0
FORWARDING UNIT: Forward_A = 00, Forward_B = 00
FORWARDING UNIT: IDEX_rs1 =  0, IDEX_rs2 =  0, EXM_rd = 24, MWB_rd = 20, EXM_RegWrite = 0, MWB_RegWrite = 0
ID_EX: rs1 =  0, rs2 =  0, rd = 10
EX_MEM: ALU_Result = 0000000000000100, rd = 10, RegWrite = 1
FORWARDING UNIT: Forward_A = 00, Forward_B = 00
FORWARDING UNIT: IDEX_rs1 =  0, IDEX_rs2 =  7, EXM_rd = 10, MWB_rd = 24, EXM_RegWrite = 1, MWB_RegWrite = 0
ID_EX: rs1 =  0, rs2 =  7, rd = 11
EX_MEM: ALU_Result = 0000000000000007, rd = 11, RegWrite = 1
FORWARDING UNIT: Forward_A = 00, Forward_B = 00
FORWARDING UNIT: IDEX_rs1 =  0, IDEX_rs2 =  0, EXM_rd = 11, MWB_rd = 10, EXM_RegWrite = 1, MWB_RegWrite = 1
ID_EX: rs1 =  0, rs2 =  0, rd = 12
EX_MEM: ALU_Result = 0000000000000000, rd = 12, RegWrite = 1
FORWARDING UNIT: Forward_A = 00, Forward_B = 00
FORWARDING UNIT: IDEX_rs1 =  0, IDEX_rs2 =  0, EXM_rd = 12, MWB_rd = 11, EXM_RegWrite = 1, MWB_RegWrite = 1
ID_EX: rs1 =  0, rs2 =  0, rd = 13
EX_MEM: ALU_Result = 0000000000000000, rd = 13, RegWrite = 1
FORWARDING UNIT: Forward_A = 00, Forward_B = 00
FORWARDING UNIT: IDEX_rs1 = 11, IDEX_rs2 = 31, EXM_rd = 13, MWB_rd = 12, EXM_RegWrite = 1, MWB_RegWrite = 1
[205000] REG READ: x12 = 0000000000000000 (decimal: 0)
ID_EX: rs1 = 11, rs2 = 31, rd = 14
EX_MEM: ALU_Result = 0000000000000006, rd = 14, RegWrite = 1
FORWARDING UNIT: Forward_A = 00, Forward_B = 10
FORWARDING UNIT: IDEX_rs1 = 12, IDEX_rs2 = 14, EXM_rd = 14, MWB_rd = 13, EXM_RegWrite = 1, MWB_RegWrite = 1
ID_EX: rs1 = 12, rs2 = 14, rd =  4
EX_MEM: ALU_Result = fffffffffffffffa, rd =  4, RegWrite = 0
FORWARDING UNIT: Forward_A = 00, Forward_B = 00
FORWARDING UNIT: IDEX_rs1 = 11, IDEX_rs2 = 31, EXM_rd =  4, MWB_rd = 14, EXM_RegWrite = 0, MWB_RegWrite = 1
[225000] REG READ: x12 = 0000000000000000 (decimal: 0)
ID_EX: rs1 = 11, rs2 = 31, rd = 15
EX_MEM: ALU_Result = 0000000000000006, rd = 15, RegWrite = 1
FORWARDING UNIT: Forward_A = 10, Forward_B = 00
FORWARDING UNIT: IDEX_rs1 = 15, IDEX_rs2 = 12, EXM_rd = 15, MWB_rd =  4, EXM_RegWrite = 1, MWB_RegWrite = 0
[235000] REG READ: x13 = 0000000000000000 (decimal: 0)
ID_EX: rs1 = 15, rs2 = 12, rd = 15
EX_MEM: ALU_Result = 0000000000000006, rd = 15, RegWrite = 1
FORWARDING UNIT: Forward_A = 00, Forward_B = 10
FORWARDING UNIT: IDEX_rs1 = 13, IDEX_rs2 = 15, EXM_rd = 15, MWB_rd = 15, EXM_RegWrite = 1, MWB_RegWrite = 1
[245000] REG READ: x13 = 0000000000000000 (decimal: 0)
ID_EX: rs1 = 13, rs2 = 15, rd = 16
EX_MEM: ALU_Result = fffffffffffffffa, rd = 16, RegWrite = 0
FORWARDING UNIT: Forward_A = 00, Forward_B = 00
FORWARDING UNIT: IDEX_rs1 = 13, IDEX_rs2 =  2, EXM_rd = 16, MWB_rd = 15, EXM_RegWrite = 0, MWB_RegWrite = 1
ID_EX: rs1 = 13, rs2 =  2, rd = 16
EX_MEM: ALU_Result = 0000000000000000, rd = 16, RegWrite = 1
FORWARDING UNIT: Forward_A = 00, Forward_B = 10
FORWARDING UNIT: IDEX_rs1 = 10, IDEX_rs2 = 16, EXM_rd = 16, MWB_rd = 16, EXM_RegWrite = 1, MWB_RegWrite = 0
[265000] REG READ: x17 = 0000000000000000 (decimal: 0)
ID_EX: rs1 = 10, rs2 = 16, rd = 17
EX_MEM: ALU_Result = 0000000000000100, rd = 17, RegWrite = 1
FORWARDING UNIT: Forward_A = 10, Forward_B = 00
FORWARDING UNIT: IDEX_rs1 = 17, IDEX_rs2 =  4, EXM_rd = 17, MWB_rd = 16, EXM_RegWrite = 1, MWB_RegWrite = 1
[275000] REG READ: x17 = 0000000000000000 (decimal: 0)
ID_EX: rs1 = 17, rs2 =  4, rd = 18
EX_MEM: ALU_Result = 0000000000000104, rd = 18, RegWrite = 1
FORWARDING UNIT: Forward_A = 01, Forward_B = 00
FORWARDING UNIT: IDEX_rs1 = 17, IDEX_rs2 =  0, EXM_rd = 18, MWB_rd = 17, EXM_RegWrite = 1, MWB_RegWrite = 1
[285000] REG READ: x18 = 0000000000000000 (decimal: 0)
ID_EX: rs1 = 17, rs2 =  0, rd = 19
EX_MEM: ALU_Result = xxxxxxxxxxxxxxxx, rd = 19, RegWrite = 1
FORWARDING UNIT: Forward_A = 01, Forward_B = 00
FORWARDING UNIT: IDEX_rs1 = 18, IDEX_rs2 =  0, EXM_rd = 19, MWB_rd = 18, EXM_RegWrite = 1, MWB_RegWrite = 1
[295000] REG READ: x20 = 0000000000000000 (decimal: 0)
[295000] REG READ: x19 = 0000000000000000 (decimal: 0)
ID_EX: rs1 = 18, rs2 =  0, rd = 20
EX_MEM: ALU_Result = xxxxxxxxxxxxxxxx, rd = 20, RegWrite = 1
FORWARDING UNIT: Forward_A = 10, Forward_B = 01
FORWARDING UNIT: IDEX_rs1 = 20, IDEX_rs2 = 19, EXM_rd = 20, MWB_rd = 19, EXM_RegWrite = 1, MWB_RegWrite = 1
[305000] REG READ: x13 = 0000000000000000 (decimal: 0)
ID_EX: rs1 = 20, rs2 = 19, rd = 12
EX_MEM: ALU_Result = xxxxxxxxxxxxxxxx, rd = 12, RegWrite = 0
FORWARDING UNIT: Forward_A = 00, Forward_B = 00
FORWARDING UNIT: IDEX_rs1 = 13, IDEX_rs2 =  1, EXM_rd = 12, MWB_rd = 20, EXM_RegWrite = 0, MWB_RegWrite = 1
ID_EX: rs1 = 13, rs2 =  1, rd = 13
EX_MEM: ALU_Result = 0000000000000001, rd = 13, RegWrite = 1
FORWARDING UNIT: Forward_A = 00, Forward_B = 00
FORWARDING UNIT: IDEX_rs1 =  0, IDEX_rs2 =  0, EXM_rd = 13, MWB_rd = 12, EXM_RegWrite = 1, MWB_RegWrite = 0
[325000] REG READ: x17 = 0000000000000100 (decimal: 256)
[325000] REG READ: x20 = xxxxxxxxxxxxxxxx (decimal: x)
ID_EX: rs1 =  0, rs2 =  0, rd = 25
EX_MEM: ALU_Result = 0000000000000000, rd = 25, RegWrite = 0
FORWARDING UNIT: Forward_A = 00, Forward_B = 00
FORWARDING UNIT: IDEX_rs1 = 17, IDEX_rs2 = 20, EXM_rd = 25, MWB_rd = 13, EXM_RegWrite = 0, MWB_RegWrite = 1
[335000] REG READ: x18 = 0000000000000104 (decimal: 260)
[335000] REG READ: x19 = xxxxxxxxxxxxxxxx (decimal: x)
ID_EX: rs1 = 17, rs2 = 20, rd =  0
EX_MEM: ALU_Result = 0000000000000100, rd =  0, RegWrite = 0
FORWARDING UNIT: Forward_A = 00, Forward_B = 00
FORWARDING UNIT: IDEX_rs1 = 18, IDEX_rs2 = 19, EXM_rd =  0, MWB_rd = 25, EXM_RegWrite = 0, MWB_RegWrite = 0
ID_EX: rs1 = 18, rs2 = 19, rd =  0
EX_MEM: ALU_Result = 0000000000000104, rd =  0, RegWrite = 0
FORWARDING UNIT: Forward_A = 00, Forward_B = 00
FORWARDING UNIT: IDEX_rs1 =  0, IDEX_rs2 =  0, EXM_rd =  0, MWB_rd =  0, EXM_RegWrite = 0, MWB_RegWrite = 0
ID_EX: rs1 =  0, rs2 =  0, rd = 17
EX_MEM: ALU_Result = 0000000000000000, rd = 17, RegWrite = 0
FORWARDING UNIT: Forward_A = 00, Forward_B = 00
FORWARDING UNIT: IDEX_rs1 = 11, IDEX_rs2 = 31, EXM_rd = 17, MWB_rd =  0, EXM_RegWrite = 0, MWB_RegWrite = 0
[365000] REG READ: x12 = 0000000000000000 (decimal: 0)
ID_EX: rs1 = 11, rs2 = 31, rd = 15
EX_MEM: ALU_Result = 0000000000000006, rd = 15, RegWrite = 1
FORWARDING UNIT: Forward_A = 10, Forward_B = 00
FORWARDING UNIT: IDEX_rs1 = 15, IDEX_rs2 = 12, EXM_rd = 15, MWB_rd = 17, EXM_RegWrite = 1, MWB_RegWrite = 0
[375000] REG READ: x13 = 0000000000000001 (decimal: 1)
ID_EX: rs1 = 15, rs2 = 12, rd = 15
EX_MEM: ALU_Result = 0000000000000006, rd = 15, RegWrite = 1
FORWARDING UNIT: Forward_A = 00, Forward_B = 10
FORWARDING UNIT: IDEX_rs1 = 13, IDEX_rs2 = 15, EXM_rd = 15, MWB_rd = 15, EXM_RegWrite = 1, MWB_RegWrite = 1
[385000] REG READ: x13 = 0000000000000001 (decimal: 1)
ID_EX: rs1 = 13, rs2 = 15, rd = 16
EX_MEM: ALU_Result = fffffffffffffffb, rd = 16, RegWrite = 0
FORWARDING UNIT: Forward_A = 00, Forward_B = 00
FORWARDING UNIT: IDEX_rs1 = 13, IDEX_rs2 =  1, EXM_rd = 16, MWB_rd = 15, EXM_RegWrite = 0, MWB_RegWrite = 1
ID_EX: rs1 = 13, rs2 =  1, rd = 13
EX_MEM: ALU_Result = 0000000000000002, rd = 13, RegWrite = 1
FORWARDING UNIT: Forward_A = 00, Forward_B = 00
FORWARDING UNIT: IDEX_rs1 =  0, IDEX_rs2 =  0, EXM_rd = 13, MWB_rd = 16, EXM_RegWrite = 1, MWB_RegWrite = 0
[405000] REG READ: x17 = 0000000000000100 (decimal: 256)
[405000] REG READ: x20 = xxxxxxxxxxxxxxxx (decimal: x)
ID_EX: rs1 =  0, rs2 =  0, rd = 25
EX_MEM: ALU_Result = 0000000000000000, rd = 25, RegWrite = 0
FORWARDING UNIT: Forward_A = 00, Forward_B = 00
FORWARDING UNIT: IDEX_rs1 = 17, IDEX_rs2 = 20, EXM_rd = 25, MWB_rd = 13, EXM_RegWrite = 0, MWB_RegWrite = 1
[415000] REG READ: x18 = 0000000000000104 (decimal: 260)
[415000] REG READ: x19 = xxxxxxxxxxxxxxxx (decimal: x)
ID_EX: rs1 = 17, rs2 = 20, rd =  0
EX_MEM: ALU_Result = 0000000000000100, rd =  0, RegWrite = 0
FORWARDING UNIT: Forward_A = 00, Forward_B = 00
FORWARDING UNIT: IDEX_rs1 = 18, IDEX_rs2 = 19, EXM_rd =  0, MWB_rd = 25, EXM_RegWrite = 0, MWB_RegWrite = 0
ID_EX: rs1 = 18, rs2 = 19, rd =  0
EX_MEM: ALU_Result = 0000000000000104, rd =  0, RegWrite = 0
FORWARDING UNIT: Forward_A = 00, Forward_B = 00
FORWARDING UNIT: IDEX_rs1 =  0, IDEX_rs2 =  0, EXM_rd =  0, MWB_rd =  0, EXM_RegWrite = 0, MWB_RegWrite = 0
ID_EX: rs1 =  0, rs2 =  0, rd = 17
EX_MEM: ALU_Result = 0000000000000000, rd = 17, RegWrite = 0
FORWARDING UNIT: Forward_A = 00, Forward_B = 00
FORWARDING UNIT: IDEX_rs1 = 11, IDEX_rs2 = 31, EXM_rd = 17, MWB_rd =  0, EXM_RegWrite = 0, MWB_RegWrite = 0
[445000] REG READ: x12 = 0000000000000000 (decimal: 0)
ID_EX: rs1 = 11, rs2 = 31, rd = 15
EX_MEM: ALU_Result = 0000000000000006, rd = 15, RegWrite = 1
FORWARDING UNIT: Forward_A = 10, Forward_B = 00
FORWARDING UNIT: IDEX_rs1 = 15, IDEX_rs2 = 12, EXM_rd = 15, MWB_rd = 17, EXM_RegWrite = 1, MWB_RegWrite = 0
[455000] REG READ: x13 = 0000000000000002 (decimal: 2)
ID_EX: rs1 = 15, rs2 = 12, rd = 15
EX_MEM: ALU_Result = 0000000000000006, rd = 15, RegWrite = 1
FORWARDING UNIT: Forward_A = 00, Forward_B = 10
FORWARDING UNIT: IDEX_rs1 = 13, IDEX_rs2 = 15, EXM_rd = 15, MWB_rd = 15, EXM_RegWrite = 1, MWB_RegWrite = 1
[465000] REG READ: x13 = 0000000000000002 (decimal: 2)
ID_EX: rs1 = 13, rs2 = 15, rd = 16
EX_MEM: ALU_Result = fffffffffffffffc, rd = 16, RegWrite = 0
FORWARDING UNIT: Forward_A = 00, Forward_B = 00
FORWARDING UNIT: IDEX_rs1 = 13, IDEX_rs2 =  1, EXM_rd = 16, MWB_rd = 15, EXM_RegWrite = 0, MWB_RegWrite = 1
ID_EX: rs1 = 13, rs2 =  1, rd = 13
EX_MEM: ALU_Result = 0000000000000003, rd = 13, RegWrite = 1
FORWARDING UNIT: Forward_A = 00, Forward_B = 00
FORWARDING UNIT: IDEX_rs1 =  0, IDEX_rs2 =  0, EXM_rd = 13, MWB_rd = 16, EXM_RegWrite = 1, MWB_RegWrite = 0
[485000] REG READ: x17 = 0000000000000100 (decimal: 256)
[485000] REG READ: x20 = xxxxxxxxxxxxxxxx (decimal: x)
ID_EX: rs1 =  0, rs2 =  0, rd = 25
EX_MEM: ALU_Result = 0000000000000000, rd = 25, RegWrite = 0
FORWARDING UNIT: Forward_A = 00, Forward_B = 00
FORWARDING UNIT: IDEX_rs1 = 17, IDEX_rs2 = 20, EXM_rd = 25, MWB_rd = 13, EXM_RegWrite = 0, MWB_RegWrite = 1
[495000] REG READ: x18 = 0000000000000104 (decimal: 260)
[495000] REG READ: x19 = xxxxxxxxxxxxxxxx (decimal: x)
ID_EX: rs1 = 17, rs2 = 20, rd =  0
EX_MEM: ALU_Result = 0000000000000100, rd =  0, RegWrite = 0
FORWARDING UNIT: Forward_A = 00, Forward_B = 00
FORWARDING UNIT: IDEX_rs1 = 18, IDEX_rs2 = 19, EXM_rd =  0, MWB_rd = 25, EXM_RegWrite = 0, MWB_RegWrite = 0
ID_EX: rs1 = 18, rs2 = 19, rd =  0
EX_MEM: ALU_Result = 0000000000000104, rd =  0, RegWrite = 0
FORWARDING UNIT: Forward_A = 00, Forward_B = 00
FORWARDING UNIT: IDEX_rs1 =  0, IDEX_rs2 =  0, EXM_rd =  0, MWB_rd =  0, EXM_RegWrite = 0, MWB_RegWrite = 0
ID_EX: rs1 =  0, rs2 =  0, rd = 17
EX_MEM: ALU_Result = 0000000000000000, rd = 17, RegWrite = 0
FORWARDING UNIT: Forward_A = 00, Forward_B = 00
FORWARDING UNIT: IDEX_rs1 = 11, IDEX_rs2 = 31, EXM_rd = 17, MWB_rd =  0, EXM_RegWrite = 0, MWB_RegWrite = 0
[525000] REG READ: x12 = 0000000000000000 (decimal: 0)
ID_EX: rs1 = 11, rs2 = 31, rd = 15
EX_MEM: ALU_Result = 0000000000000006, rd = 15, RegWrite = 1
FORWARDING UNIT: Forward_A = 10, Forward_B = 00
FORWARDING UNIT: IDEX_rs1 = 15, IDEX_rs2 = 12, EXM_rd = 15, MWB_rd = 17, EXM_RegWrite = 1, MWB_RegWrite = 0
[535000] REG READ: x13 = 0000000000000003 (decimal: 3)
ID_EX: rs1 = 15, rs2 = 12, rd = 15
EX_MEM: ALU_Result = 0000000000000006, rd = 15, RegWrite = 1
FORWARDING UNIT: Forward_A = 00, Forward_B = 10
FORWARDING UNIT: IDEX_rs1 = 13, IDEX_rs2 = 15, EXM_rd = 15, MWB_rd = 15, EXM_RegWrite = 1, MWB_RegWrite = 1
[545000] REG READ: x13 = 0000000000000003 (decimal: 3)
ID_EX: rs1 = 13, rs2 = 15, rd = 16
EX_MEM: ALU_Result = fffffffffffffffd, rd = 16, RegWrite = 0
FORWARDING UNIT: Forward_A = 00, Forward_B = 00
FORWARDING UNIT: IDEX_rs1 = 13, IDEX_rs2 =  1, EXM_rd = 16, MWB_rd = 15, EXM_RegWrite = 0, MWB_RegWrite = 1
ID_EX: rs1 = 13, rs2 =  1, rd = 13
EX_MEM: ALU_Result = 0000000000000004, rd = 13, RegWrite = 1
FORWARDING UNIT: Forward_A = 00, Forward_B = 00
FORWARDING UNIT: IDEX_rs1 =  0, IDEX_rs2 =  0, EXM_rd = 13, MWB_rd = 16, EXM_RegWrite = 1, MWB_RegWrite = 0
[565000] REG READ: x17 = 0000000000000100 (decimal: 256)
[565000] REG READ: x20 = xxxxxxxxxxxxxxxx (decimal: x)
ID_EX: rs1 =  0, rs2 =  0, rd = 25
EX_MEM: ALU_Result = 0000000000000000, rd = 25, RegWrite = 0
FORWARDING UNIT: Forward_A = 00, Forward_B = 00
FORWARDING UNIT: IDEX_rs1 = 17, IDEX_rs2 = 20, EXM_rd = 25, MWB_rd = 13, EXM_RegWrite = 0, MWB_RegWrite = 1
[575000] REG READ: x18 = 0000000000000104 (decimal: 260)
[575000] REG READ: x19 = xxxxxxxxxxxxxxxx (decimal: x)
ID_EX: rs1 = 17, rs2 = 20, rd =  0
EX_MEM: ALU_Result = 0000000000000100, rd =  0, RegWrite = 0
FORWARDING UNIT: Forward_A = 00, Forward_B = 00
FORWARDING UNIT: IDEX_rs1 = 18, IDEX_rs2 = 19, EXM_rd =  0, MWB_rd = 25, EXM_RegWrite = 0, MWB_RegWrite = 0
ID_EX: rs1 = 18, rs2 = 19, rd =  0
EX_MEM: ALU_Result = 0000000000000104, rd =  0, RegWrite = 0
FORWARDING UNIT: Forward_A = 00, Forward_B = 00
FORWARDING UNIT: IDEX_rs1 =  0, IDEX_rs2 =  0, EXM_rd =  0, MWB_rd =  0, EXM_RegWrite = 0, MWB_RegWrite = 0
ID_EX: rs1 =  0, rs2 =  0, rd = 17
EX_MEM: ALU_Result = 0000000000000000, rd = 17, RegWrite = 0
FORWARDING UNIT: Forward_A = 00, Forward_B = 00
FORWARDING UNIT: IDEX_rs1 = 11, IDEX_rs2 = 31, EXM_rd = 17, MWB_rd =  0, EXM_RegWrite = 0, MWB_RegWrite = 0
[605000] REG READ: x12 = 0000000000000000 (decimal: 0)
ID_EX: rs1 = 11, rs2 = 31, rd = 15
EX_MEM: ALU_Result = 0000000000000006, rd = 15, RegWrite = 1
FORWARDING UNIT: Forward_A = 10, Forward_B = 00
FORWARDING UNIT: IDEX_rs1 = 15, IDEX_rs2 = 12, EXM_rd = 15, MWB_rd = 17, EXM_RegWrite = 1, MWB_RegWrite = 0
[615000] REG READ: x13 = 0000000000000004 (decimal: 4)
ID_EX: rs1 = 15, rs2 = 12, rd = 15
EX_MEM: ALU_Result = 0000000000000006, rd = 15, RegWrite = 1
FORWARDING UNIT: Forward_A = 00, Forward_B = 10
FORWARDING UNIT: IDEX_rs1 = 13, IDEX_rs2 = 15, EXM_rd = 15, MWB_rd = 15, EXM_RegWrite = 1, MWB_RegWrite = 1
[625000] REG READ: x13 = 0000000000000004 (decimal: 4)
ID_EX: rs1 = 13, rs2 = 15, rd = 16
EX_MEM: ALU_Result = fffffffffffffffe, rd = 16, RegWrite = 0
FORWARDING UNIT: Forward_A = 00, Forward_B = 00
FORWARDING UNIT: IDEX_rs1 = 13, IDEX_rs2 =  1, EXM_rd = 16, MWB_rd = 15, EXM_RegWrite = 0, MWB_RegWrite = 1
ID_EX: rs1 = 13, rs2 =  1, rd = 13
EX_MEM: ALU_Result = 0000000000000005, rd = 13, RegWrite = 1
FORWARDING UNIT: Forward_A = 00, Forward_B = 00
FORWARDING UNIT: IDEX_rs1 =  0, IDEX_rs2 =  0, EXM_rd = 13, MWB_rd = 16, EXM_RegWrite = 1, MWB_RegWrite = 0
[645000] REG READ: x17 = 0000000000000100 (decimal: 256)
[645000] REG READ: x20 = xxxxxxxxxxxxxxxx (decimal: x)
ID_EX: rs1 =  0, rs2 =  0, rd = 25
EX_MEM: ALU_Result = 0000000000000000, rd = 25, RegWrite = 0
FORWARDING UNIT: Forward_A = 00, Forward_B = 00
FORWARDING UNIT: IDEX_rs1 = 17, IDEX_rs2 = 20, EXM_rd = 25, MWB_rd = 13, EXM_RegWrite = 0, MWB_RegWrite = 1
[655000] REG READ: x18 = 0000000000000104 (decimal: 260)
[655000] REG READ: x19 = xxxxxxxxxxxxxxxx (decimal: x)
ID_EX: rs1 = 17, rs2 = 20, rd =  0
EX_MEM: ALU_Result = 0000000000000100, rd =  0, RegWrite = 0
FORWARDING UNIT: Forward_A = 00, Forward_B = 00
FORWARDING UNIT: IDEX_rs1 = 18, IDEX_rs2 = 19, EXM_rd =  0, MWB_rd = 25, EXM_RegWrite = 0, MWB_RegWrite = 0
ID_EX: rs1 = 18, rs2 = 19, rd =  0
EX_MEM: ALU_Result = 0000000000000104, rd =  0, RegWrite = 0
FORWARDING UNIT: Forward_A = 00, Forward_B = 00
FORWARDING UNIT: IDEX_rs1 =  0, IDEX_rs2 =  0, EXM_rd =  0, MWB_rd =  0, EXM_RegWrite = 0, MWB_RegWrite = 0
ID_EX: rs1 =  0, rs2 =  0, rd = 17
EX_MEM: ALU_Result = 0000000000000000, rd = 17, RegWrite = 0
FORWARDING UNIT: Forward_A = 00, Forward_B = 00
FORWARDING UNIT: IDEX_rs1 = 11, IDEX_rs2 = 31, EXM_rd = 17, MWB_rd =  0, EXM_RegWrite = 0, MWB_RegWrite = 0
[685000] REG READ: x12 = 0000000000000000 (decimal: 0)
ID_EX: rs1 = 11, rs2 = 31, rd = 15
EX_MEM: ALU_Result = 0000000000000006, rd = 15, RegWrite = 1
FORWARDING UNIT: Forward_A = 10, Forward_B = 00
FORWARDING UNIT: IDEX_rs1 = 15, IDEX_rs2 = 12, EXM_rd = 15, MWB_rd = 17, EXM_RegWrite = 1, MWB_RegWrite = 0
[695000] REG READ: x13 = 0000000000000005 (decimal: 5)
ID_EX: rs1 = 15, rs2 = 12, rd = 15
EX_MEM: ALU_Result = 0000000000000006, rd = 15, RegWrite = 1
FORWARDING UNIT: Forward_A = 00, Forward_B = 10
FORWARDING UNIT: IDEX_rs1 = 13, IDEX_rs2 = 15, EXM_rd = 15, MWB_rd = 15, EXM_RegWrite = 1, MWB_RegWrite = 1
[705000] REG READ: x13 = 0000000000000005 (decimal: 5)
ID_EX: rs1 = 13, rs2 = 15, rd = 16
EX_MEM: ALU_Result = ffffffffffffffff, rd = 16, RegWrite = 0
FORWARDING UNIT: Forward_A = 00, Forward_B = 00
FORWARDING UNIT: IDEX_rs1 = 13, IDEX_rs2 =  1, EXM_rd = 16, MWB_rd = 15, EXM_RegWrite = 0, MWB_RegWrite = 1
ID_EX: rs1 = 13, rs2 =  1, rd = 13
EX_MEM: ALU_Result = 0000000000000006, rd = 13, RegWrite = 1
FORWARDING UNIT: Forward_A = 00, Forward_B = 00
FORWARDING UNIT: IDEX_rs1 =  0, IDEX_rs2 =  0, EXM_rd = 13, MWB_rd = 16, EXM_RegWrite = 1, MWB_RegWrite = 0
[725000] REG READ: x17 = 0000000000000100 (decimal: 256)
[725000] REG READ: x20 = xxxxxxxxxxxxxxxx (decimal: x)
ID_EX: rs1 =  0, rs2 =  0, rd = 25
EX_MEM: ALU_Result = 0000000000000000, rd = 25, RegWrite = 0
FORWARDING UNIT: Forward_A = 00, Forward_B = 00
FORWARDING UNIT: IDEX_rs1 = 17, IDEX_rs2 = 20, EXM_rd = 25, MWB_rd = 13, EXM_RegWrite = 0, MWB_RegWrite = 1
[735000] REG READ: x18 = 0000000000000104 (decimal: 260)
[735000] REG READ: x19 = xxxxxxxxxxxxxxxx (decimal: x)
ID_EX: rs1 = 17, rs2 = 20, rd =  0
EX_MEM: ALU_Result = 0000000000000100, rd =  0, RegWrite = 0
FORWARDING UNIT: Forward_A = 00, Forward_B = 00
FORWARDING UNIT: IDEX_rs1 = 18, IDEX_rs2 = 19, EXM_rd =  0, MWB_rd = 25, EXM_RegWrite = 0, MWB_RegWrite = 0
ID_EX: rs1 = 18, rs2 = 19, rd =  0
EX_MEM: ALU_Result = 0000000000000104, rd =  0, RegWrite = 0
FORWARDING UNIT: Forward_A = 00, Forward_B = 00
